<DOC>
<DOCNO>1070411_sports_story_7632623.utf8</DOCNO>
<TEXT>


The Telegraph - Calcutta : Sports

 Bollywood may come good 

 STAR RACER

 Calcutta: Imperialism, Bright Blossom, Bollywood Dreams and Shining Example are all capable of landing the 1,400m Zeeba Cup, the main event on Wednesday, the penultimate day of the season. However, trainer Robin Corners ward, Bollywood Dreams, appears to have a slight edge over his rivals and he may come good in the hands of Md Islam who partners the six-year-old son of Steinbeck.

 Read as: Sl. nos, last 4 runs, horse name, trainer, jockey, weight amp; draw:

 1. Keewattin Handicap 1,200m (Rt 20-70) 1.45 pm

 1 4000 Give Der Slip [Karki] Jagadeesh 62.0 1

 2 3203 Anokato [Daniel] Prakash 60.5 2

 3 0000 Alcades [Vikash] Aharwal 60.0 3

 4 2342 Body And Soul [Robin] Islam 60.0 5

 5 0404 Grand Pere [Stephens] D.Singh 59.5 4

 6 4000 Wonnabee [Charan] Reuben 53.0 6

 1. body and soul (4) 2. anokato (2) 3. grand pere (5)

 Body And Soul: Has reached the striking mark. May do the trick. Anokato: May improve upon his last run. Grand Pere: May upset.

 2. Presidents Putter Handicap 1,400m (Rt 20-70) 2.15 pm

 1 - 113 Mystro [Vijay] C.Alford 61.5 6

 2 2423 El Cid [Vikash] Vinay 60.5 3

 3 4121 Romantic Escape [Javed] Reuben 53.0 5

 4 - 313 Glenbervie [Robin] Islam 52.5 1

 5 - - 03 Mozart [Daniel] Aman 52.5 2

 6 4431 Spectacular Star [Farley] Afzal 51.5 4

 1. mozart (5) 2. mystro (1) 3. glenbervie (4)

 Mozart: Was impressive third in his last run. Mystro: Will be right at the busy end if he produces his old form. Glenbervie: May place.

 3. Wind Song Handicap 1,200m (Rt 00-50) 2.55 pm 

 1 0004 Awesum Attitude [Karki] Jagadeesh 60.0 2

 2 0424 Big Thrillz [Javed] Som 58.0 6

 3 - - 02 Royal County Down [Robin] Reuben 57.5 1

 4 4423 Rainbow Run [Vijay] C.Alford 56.0 5

 5 0042 Majestic Poet [Daniel] Prakash 54.0 4

 6 - 004 Midnight Warrior [Daniel] Paswan 51.5 3

 1. Majestic Poet (5) 2. Royal county down (3) 3. Rainbow Run (4)

 Majestic Poet: Let down a big following last week. May repay following. Royal County Down: May improve upon his last run. Rainbow Run: May upset.

 4. So Amazing Cup 1,400m (Rt 00-30) 3.30 pm 

 1 0323 Mischevious Notes [Vikash] Jugnu 61.5 2

 2 4401 Vancouver [Bath] Afzal 61.0 1

 3 0003 Innocent Eyes [Daniel] Prakash 58.0 3

 4 0031 Qba [Vikash] Vinay 56.0 5

 5 - - - - Party Game [Robin] Islam 54.5 4

 6 0000 Finders Keepers [Jaiswal] Gajender 54.0 6

 7 3040 Ganga Bose [Farley] Surjeet 49.0 7

 1. Innocent Eyes (3) 2. Qba (4) 3. Vancouver (2)

 Innocent Eyes : Needed her last run. May come good now. Qba: Capable of scoring a back-to-back win. Vancouver: May place.

 5. Gold Finder Handicap 1,600m (Rt 00-50) 4.05 pm 

 1 0201 Asmodeus [Vikash] Jagadeesh 61.0 3

 2 2221 Modee Roch [Daniel] Akhtar 60.5 2

 3 2131 Megillah [Bath] D.Singh 59.5 6

 4 - - - 1 Regal Appeal [Vijay] C.Alford 59.0 4

 5 3300 Salinger [Jaiswal] Vinay 57.5 1

 6 3422 Dil Chahta Hai [Vikash] Islam 57.0 7

 7 2424 Arrayal [R.Alford] Salim 56.5 5

 8 0031 Kinship [Vijay] Shanker 53.5 8

 9 3242 Avisholom [Jaiswal] Afzal 49.0 9

 1. Megillah (3) 2. Regal Appeal (4) 3. Kinship (8)

 Megillah: In good form. May cash in on it again. Regal Appeal: An easy winner capable of striking again. Kinship: Upset, if any.

 6. Amberetta Plate 1,400m (Rt 00-50, 3-y- only) 4.40 pm 

 1 - - - 1 Racing Rumours [Karki] Jagadeesh 61.0 2

 2 - - 22 Elegant Road [Daniel] Prakash 57.5 6

 3 - - 31 Arythia [Vijay] C.Alford 57.0 1

 4 - - - 0 Entrepreneur [Javed] Reuben 54.0 8

 5 - - - 0 Adalira [Javed] Jugnu 52.5 9

 6 - - - - Little Venice [Daniel] Paswan 52.5 5

 7 - - - 0 Prospective Queen [Bath] Afzal 52.5 3

 8 - - - - Vibrato [Errol] Aman 52.5 4

 9 - 440 Eveready Sir [Bath] Islam 51.0 7

 1. racing rumours (1) 2. arythia (3) 3. elegant road (2)

 Racing Rumours: A runaway winner. May carry his topweight to another win. Arythia: Is in with a chance. Elegant Road: Upset, if any.

 7. Zeeba Cup 1,400m (Rt 40-90) 5.15 pm 

 1 0011 Imperialism [Daniel] Prakash 61.5 3

 2 1020 Bright Blossom [Vijay] C.Alford 59.0 5

 3 2200 Andrology [Vijay] Malcolm 58.5 9

 4 3003 Adderly [Jaiswal] Gajender 54.5 7

 5 - 143 Bollywood Dreams [Robin] Islam 54.0 4

 6 0231 Acrostic [Bath] Afzal 52.0 1

 7 - 000 Mani At Eighty [Daniel] Paswan 52.0 8

 8 3142 Mythical Star [Stephens] Reuben 52.0 2

 9 3111 Shining Example [Vikash] Vinay 52.0 6

 1. bollywood dreams (5) 2. imperialism (1) 3. bright blossom (2)

 Bollywood Dreams: Well in at the weights. May surprise all. Imperialism: In great form. Aspiring for a hattrick of wins. Bright Blossom: May upset.

 Days Best: Innocent Eyes Double: Mozart amp; Racing Rumours




</TEXT>
</DOC>