<DOC>
<DOCNO>1070414_sports_story_7647814.utf8</DOCNO>
<TEXT>


The Telegraph - Calcutta : Sports

 SCORE CARD

Ireland

J. Bray

b McGrath

1

W. Porfield

lbw Tait

1

E. Morgan

c Hayden b McGrath

0

N. OBrien

b Tait

0

K. OBrien

c Hodge b Clark

16

A. White

c Hogg b McGrath

6

T. Johnston

b Tait

17

K. McCallan

c Tait b Symonds

5

J. Mooney

run out

23

D. L-Smith

c Ponting b Hogg

2

B. Rankin

not out

4

Extras (w-15, nb-1)

16 

Total (all out, 30 ovs)

91

Fall of wickets: 1 /2, 2/2, 3/2, 4/12, 5/32, 6/42, 7/54, 8/72, 9/80 

Bowling: McGrath 7-1-17-3, Tait 6-1-39-3, Clark 8-1-19-1, Hogg 6-2-9-1, Symonds 3-1-7-1

Australia

A. Gilchrist

b Johnston

34

M. Hussey

not out

30

A. Symonds

not out

15 

Extras (lb-4, w-8, nb-1)

13

Total (1 wkt, 12.2 ovs)

92

Fall of wicket: 1/62

Bowling: Langford-Smith 3-0-27-0, Rankin 4.2-0-24-0, Johnston 3-0-18-1, Mooney 1-0-14-0, McCallan 1-0-5-0




</TEXT>
</DOC>