<DOC>
<DOCNO>1070101_sports_story_7207123.utf8</DOCNO>
<TEXT>


The Telegraph - Calcutta : Sports

 SCORE CARD

Sri Lanka

U. Tharanga

c Taylor b Mason

23

S. Jsuriya

b Mason

1

M. Jdene

b Gillespie

4

K. Skkara

run out

89

M. Atapattu

b Vettori

22

C. Silva

c H. Mshall b Franklin

31

T. Dilshan

c Taylor b Gillespie

8

F. Maharoof

not out

29

C. Vaas

not out

9

Extras (lb-3, nb-1, w-4)

8

Total (for 7 wkts, 50 ovs)

224

Fall of wickets: 1 /4, 2/14, 3/50, 4/102, 5/176, 6/177, 7/192

Bowling: Gillespie 10-0-46-2, Mason 10-1-50-2, Franklin 10-0-46-1, Adams 10-0-42-0, Vettori 10-0-37-1

New Zealand

J. Marshall

run out

50

B. McCullum

lbw Maharoof

32

R. Taylor

run out

15

P. Fulton

lbw Muralidharan

2

D. Vettori

b Malinga

19

C. McMillan

c Jdene b Mdharan

2

H. Marshall

c amp;b Dilshan

29

J. Franklin

not out

45

A. Adams

lbw Muralidharan

6

M. Gillespie

c Maharoof b Vaas

11

M. Mason

not out

4

Extras (lb-5, nb-4, w-4)

13

Total (for 9 wkts, 50 ovs)

228

Fall of wickets: 1/57, 2/87, 3/91, 4/121, 5/126, 6/141, 7/175, 8/194, 9/223

Bowling: Vaas 10-0-46-1, Malinga 10-0-53-1, Mahroof 8-0-40-1, Muralidharan 10-1-31-3, Jayasuriya 5-0-28-0, Dilshan 7-0-25-1




</TEXT>
</DOC>