<DOC>
<DOCNO>1070508_calcutta_story_7744985.utf8</DOCNO>
<TEXT>


The Telegraph - Calcutta : Metro

 Cinema

 ENGLISH

 MR. BEANS HOLIDAY: Inox (Forum; 10 am, 5 pm), Inox (City Centre; 10 am, 7.30 pm), 89 Cinemas (Swabhumi; 10 am, 2.50 pm), Fame (Hiland Park; 10.10 am)

 SPIDER-MAN 3 (U/A): New Empire, Roxy, Priya (11.45, 2.15, 4.45, 9.15), Navina (12.30, 3.30, 6.30), Star Theatre (12.15, 2.45, 8), Inox (Forum; 10.15 am, 11.40 am, 1 pm, 2.25 pm, 3.45 pm, 5.10 pm, 6.30 pm, 7.50 pm, 9.15 pm, 10.40 pm), Inox (City Centre; 10.15 am, 11.40 am, 1 pm, 2.25 pm, 3.45 pm, 5.10 pm, 6.30 pm, 7.50 pm, 9.15 pm, 10.40 pm), 89 Cinemas (Swabhumi; 10.20 am, 11.40 am, 1 pm, 2.20 pm, 3.40 pm, 5 pm, 6.20 pm, 7.40 pm, 9 pm, 10.20 pm), Fame (Hiland Park; 10 am, 12.15 pm, 2.20 pm, 5 pm, 7.45 pm, 9.15 pm, 10.30 pm), 89 Cinemas (Durgapur; 10.25 am, 1.05 pm, 3.45 pm, 5.05 pm, 6.25 pm, 7.45 pm), Denzong (Gangtok), Inox (Darjeeling; 11 am, 1.40 pm, 3 pm, 4.20 pm, 5.40 pm, 7 pm)

 THE LAST KING OF SCOTLAND (A): Inox (Forum; 10.30 am), Inox (City Centre; 10.10 am)

 THE NAMESAKE (U/A): Inox (Forum; 12.50 pm), Inox (City Centre; 12.45 pm), 89 Cinemas (Swabhumi; 12.20 pm), Fame (Hiland Park; 10.05 am)

 THE PURSUIT OF HAPPYNESS: Inox (Forum; 12.15 pm), Inox (City Centre; 12.30 pm)

 HINDI

 BHEJA FRY: Inox (Forum; 10.10 am, 3.10 pm, 7.45 pm), Inox (City Centre; 10.40 am, 3 pm, 7.15 pm), 89 Cinemas (Swabhumi; 10.20 am, 4.30 pm, 6.25 pm, 10.25 pm), Fame (Hiland Park; 12.35 pm, 5.15 pm)

 MAHAKAAL: Chaplin (12.30, 3, 6)

 NAMASTEY LONDON: Metro, Inox (Forum; 5.10 pm), Inox (City Centre; 9.05 pm), 89 Cinemas (Swabhumi; 12.15 pm, 7.30 pm), Fame (Hiland Park; 10.40 am)

 PROVOKED (A): Inox (Forum; 9.10 pm), Inox (City Centre; 5.05 pm), 89 Cinemas (Swabhumi; 10.15 am, 8.20 pm)

 SPIDER-MAN 3: Paradise, Basusree, Radha, Taswir Mahal, Jaya, Sonali (noon), Pushpasree (Behala), Ashoka (noon), Kamal, Rakhi, Liluah Cinema, Bangabasi, Pushpasree, Lipi, Rathindra, Atindra, Lali, Swapna (Chandernagore), Jayanti (Rishra), Sushma (Sheoraphuli), Manoj, Durgapur Cinema, Geetanjali (Bolpur)

 TA RA RUM PUM: Fame (Hiland Park; 11.50 am, 1.10 pm, 2.55 pm, 4.10 pm, 6 pm, 7.15 pm, 9.05 pm, 10.20 pm), Hind, Elite, Menoka, Mitra, Purabi, Malancha, Ashoka (Behala), Jaya (Lake Town), Mrinalini, Gupta (Barrackpore), Ananya, Prafulla (Khardah), Srilaxmi (Kanchrapara), Parijat, Milan (Hooghly), Chhayabani (Barasat), Lok Sanskriti Mancha (Burdwan)

 YATRA (U/A): Nandan-1 (1.45, 4.15, 6.45), Priya (7.15 pm), Jyoti, Inox (Forum; 2.30 pm, 6.40 pm, 9.45 pm), Inox (City Centre; 2.40 pm, 5 pm, 9.20 pm), Star Theatre (5.30 pm), 89 Cinemas (2.40 pm, 5.05 pm, 10.05 pm), Fame (Hiland Park; 2.50 pm, 7 pm)

 BENGALI

 BIDHATAR LEKHA: Prachi, Darpana, Bharati, Padmasree, Narendra (Dum Dum)

 SATYER JOY: Aruna (1, 4, 7), Purna (3, 6, 8.45), Debjani (Basirhat)

 TULKALAM: Minar, Bijoli, Chhabighar (3, 5.45, 8.15), Mahua (Garia), Ellora, Chetna, Arati, Sonali, Bejoya, Shanti, Kalika (Habra), Padma, Kairi, Udayan (Sheoraphuli), Krishna (Baruipur), Falguni (Basirhat)




</TEXT>
</DOC>