<DOC>
<DOCNO>1070215_calcutta_story_7388831.utf8</DOCNO>
<TEXT>


The Telegraph - Calcutta : Metro

 Cinema

 ENGLISH

 ETERNAL SUNSHINE OF THE SPOTLESS MIND: Globe (12.30 pm, 3 pm, 6 pm, 8.30 pm), 89 Cinemas (Swabhumi; 10 am, 1 pm, 8.35 pm), Fame (Hiland Park; 12.30 pm)

 MUSIC AND LYRICS: Inox (Forum; 12.35 pm, 5.15 pm, 10.20 pm), Inox (City Centre; 12.50 pm, 5.15 pm, 10.30 pm)

 ROCKY BALBOA: Inox (Forum; 10.05 am, 12.35 pm, 5.15 pm), Inox (City Centre; 10 am, 12.50 pm, 5.15 pm)

 THE HOLIDAY (U/A): New Empire (12.30, 3, 6, 8.30), Inox (Forum; 10.15 am, 2.45 pm, 7.50 pm), Inox (City Centre; 10.20 am, 2.45 pm, 5.10 pm), 89 Cinemas (Swabhumi; 12.30 pm, 7.30 pm, 10.35 pm), Fame (Hiland Park; 10.40 am, 2.30 pm, 7.30 pm, 10 pm)

 HINDI

 BLACK FRIDAY (A): Roxy (mat., eve., night), Priya (noon amp; night), Inox (Forum; 2.35 pm, 7.15 pm, 10.10 pm), Inox (City Centre; 2.15 pm, 7.15 pm, 10.10 pm), 89 Cinemas (Swabhumi; 12.35 pm, 5.40 pm, 9.55 pm), Fame (Hiland Park; 3.30 pm, 7 pm, 10 pm)

 GURU: Paradise, Priya (mat. amp; eve.), Navina (3.30 pm), Inox (Forum; 12.45 pm, 3.45 pm, 6.45 pm, 9.45 pm), Inox (City Centre; 11 am, 2 pm, 5 pm, 7.40 pm, 10.25 pm), 89 Cinemas (Swabhumi; 10 am, 3.30 pm, 6.30 pm, 9.30 pm), Star Theatre (mat. amp; eve.), Fame (Hiland Park; 11 am, 1.10 pm, 4.10 pm, 7.10 pm, 10.10 pm), Jaya, 89 Cinemas (Durgapur; 11.30 am, 2.05 pm, 5.05 pm, 8.05 pm), Inox (Darjeeling; 6.10 pm)

 MUMMY-4: Menoka amp; Ashoka (4 shows), Malancha

 PARZANIA (A): Inox (Forum; 12.30 pm), Inox (City Centre; 12 noon), 89 Cinemas (Swabhumi; 10.20 am), Fame (Hiland Park; 10.05 am)

 SALAAM-E-ISHQ (U/A): Jyoti, Basusree, Navina (12.15 pm, 6.30 pm), Mitra, Inox (Forum; 12 noon, 6 pm, 9.30 pm), Inox (City Centre; 12.25 pm, 6.20 pm, 9.45 pm), 89 Cinemas (Swabhumi; 3.05 pm, 6.35 pm, 9.55 pm), Fame (Hiland Park; 12.20 pm, 6.35 pm, 9.45 pm), Jaya, Mrinalini (Dum Dum), Atindra, 89 Cinemas (Duragpur; 10 am, 1.20 pm, 4.40 pm, 8 pm), Inox (Darjeeling; 12.05 pm, 2.30 pm)

 TRAFFIC SIGNAL (U/A): Nandan (1.45 pm, 4.15 pm, 6.30 pm), Metro, Star Theatre (12.15 pm, 6.15 pm), Inox (Forum; 10.10 am, 3.25 pm, 5.30 pm, 10.25 pm), Inox (City Centre; 10 am, 3.50 pm, 7.55 pm, 10.35 pm), 89 Cinemas (Swabhumi; 10 am, 12 noon, 2.30 pm, 5 pm), Fame (Hiland Park; 10 am, 1.50 pm, 5 pm), 89 Cinemas (Duragpur; 11.35 am, 2.30 pm, 5 pm, 7.30 pm), Inox (Darjeeling; 11.45 am, 3.45 pm, 6.15 pm)

 UNDERTRIAL: 89 Cinemas (Swabhumi; 3 pm), Fame (Hiland Park; 4.20 pm)

 BENGALI

 HANGAMA: Ragini, Sonali, Netro (Dum Dum), Roma (Birati)

 I LOVE YOU: Prachi, Darpana, Bharati, Pushpasree (Behala), Padmasree (Jadavpur), Narendra (Dum Dum), Arati (Baguihati), Pushpasree (Kadamtolla)

 JEEBAN SATHI: Minar, Bijoli, Chhabighar (3, 5.45, 8.30), Mahua (Garia), Ellora (Behala), Chetna (Dum Dum), Bejoya (Barasat), Krishna (Baruipur), Shanti (Kadamtolla)

 KATHA: Chaplin (12.30, 3, 6)

 SHAPMOCHAN: Radha, Aruna, Purna, Parbati (Howrah), Bidhan (Barasat)




</TEXT>
</DOC>