<DOC>
<DOCNO>1070619_calcutta_story_7932313.utf8</DOCNO>
<TEXT>


The Telegraph - Calcutta : Metro

 Cinema

 ENGLISH

 FANTASTIC 4: RISE OF THE SILVER SURFER: New Empire (12.30, 3, 6, 8.30), Inox (Forum; 12.20 pm, 2.15 pm, 6.30 pm, 8.20 pm, 10.40 pm), Inox (City Centre; 10.05 am, 1.05 pm, 6.05 pm, 8.15 pm, 10.15 pm), 89 Cinemas (Swabhumi; 12.30 pm, 4.40 pm, 6.30 pm, 8.20 pm), Fame (Hiland Park; 10.10 am, 12 noon, 3.15 pm, 6.25 pm, 10.25 pm)

 OCEANS THIRTEEN (U/A): Inox (Forum; 10 am, 4.10 pm, 8.20 pm, 10.10 pm), Inox (City Centre; 10 am, 2.40 pm, 5.50 pm, 10.05 pm), 89 Cinemas (Swabhumi; 10 am, 2.20 pm, 8.10 pm), Fame (Hiland Park; 1.45 pm, 8.10 pm), Inox (Darjeeling)

 PIRATES OF THE CARIBBEAN AT WORLDS END (U/A): Inox (Forum; 12.10 pm, 7 pm), Inox (City Centre; 10 am, 3 pm), 89 Cinemas (Swabhumi; 12.20 pm), Fame (Hiland Park; 10.20 am)

 SHREK 3: Fame (Hiland Park; 10.15 am), Inox (Forum; 10.10 am, 2.35 pm)

 HINDI

 CHEENI KUM (U/A): Nandan (1.45, 4.15), Paradise (6, 9), Navina (12.30, 6.30), Priya (5, 9.15), Star Theatre (12, 7.30), 89 Cinemas (Swabhumi; 10 am, 2.45 pm, 5.25 pm, 8.05 pm, 10.45 pm), Fame (Hiland Park; 5 pm, 10.10 pm)

 FANTASTIC 4: RISE OF THE SILVER SURFER: Sonali (noon), Atindra (Barrackpore), Rathindra (Sodepur)

 FOOL N FINAL: Metro, Inox (Forum; 12.50 pm), Inox (City Centre; 12.50 pm, 10.10 pm), 89 Cinemas (Swabhumi; 10 am, 3.10 pm, 10 pm), Fame (Hiland Park; 12 noon)

 JHOOM BARABAR JHOOM: Fame (Hiland Park; 1.20 pm, 2.35 pm, 4.05 pm, 5.10 pm, 6.45 pm, 7.50 pm, 9.20 pm, 10.30 pm), Hind, Elite, Menoka, Mitra, Minar, Bijoli, Chhabighar, Purabi, Basusree (noon), Malancha, Ashoka (Behala), Ragini, Vaishali, Jaya, Ananya, P. Son, Mrinalini, Navbharat, Lipi, Parijat, Liluah Cinema, Lali, Prafulla, Gupta Tks, Jyoti (Chandernagore), Milon (Hooghly), Sushama (Sheoraphuli), Jayanti (Rishra), Sreelaxmi (Kanchrapara), Lok Sanskriti Mancha (Burdwan)

 LIFE IN A...METRO (A): Inox (Forum; 4.30 pm, 10 pm), Inox (City Centre; 12.20 pm, 5 pm), 89 Cinemas (Swabhumi; 10.05 am, 3.20 pm), Fame (Hiland Park; 4 pm)

 MP3: MERA PEHLA PEHLA PYAAR (U/A): Paradise (noon amp; mat.), Navina (3.30 pm, 9 pm), Inox (Forum; 10 am), 89 Cinemas (Swabhumi; 12.35 pm)

 SHOOTOUT AT LOKHANDWALA (A): Inox (Forum; 3.30 pm, 8.30 pm), Inox (City Centre; 3.30 pm, 8.10 pm), 89 Cinemas (Swabhumi; 5.45 pm, 8.25 pm, 10.45 pm), Fame (Hiland Park; 1 pm)

 THE TRAIN (A): Jyoti, Basusree (6 pm), Inox (Forum; 12 noon, 5.45 pm), Inox (City Centre; 12 noon, 7.30 pm), 89 Cinemas (Swabhumi; 12.35, 5.50, 10.30), Fame (Hiland Park; 7.35 pm)

 BENGALI

 DUS DIN PORE...: Ellora (Behala)

 JARA BRISHTITE BHIJECHHILO (A): Nandan (6.45 pm), Inox (City Centre; 7.55 pm), Priya (2.45 pm, 7.30 pm), Star Theatre (2.30 pm, 5 pm), Jaya (Lake Town)

 MAHAGURU: Prachi (2, 5, 7.45), Darpana (2.45, 5.45, 8.30), Bharati (3, 6, 8.45), Aleya, Padmasree, Pushpasree (Behala), Chetna, Sonali, Arati (Baguihati), Chhayabani (Barasat), Shanti (Kadamtala), Padma (Sodepur), Krishna (Baruipur), Maya (Salkia), Kairi (Chinsurah), Udayan (Sheoraphuli), Debasree (Barrackpore), Debjani (Basirhat), Chitrabani (Bagnan), Mimi (Krishnagar), Burdwan Cinema, Rabindra (Tarakeswar), Chitra (Bolpur)




</TEXT>
</DOC>