<DOC>
<DOCNO>1070415_sports_story_7649942.utf8</DOCNO>
<TEXT>


The Telegraph - Calcutta : Sports

 SCORE CARD

SOUTH AFRICA

G. Smith 

c Oram b Bond

1

AB de Villiers 

lbw Franklin

0

J. Kallis 

c Bond b Vettori

22

H. Gibbs 

b McMillan

60

A. Prince 

c Patel b McMillan

37

M. Boucher 

c Fulton b McMillan

16

S. Pollock

not out

21

A. Hall 

c Oram b Bond

17

R. Peterson 

not out

8

Extras (lb-3, w-7, nb-1)

11 

Total (for 7 wkts in 50 ovs)

193 

Fall of wickets: 1/3, 2/3, 3/52, 4/128, 5/143, 6/149, 7/181

Bowling: Franklin 7-2-16-1, Bond 10-1-26-2, Oram 5-2-23-0, Patel 10-1-36-0, Vettori 10-0-50-1, Styris 3-0-16-0, McMillan 5-0-23-3




</TEXT>
</DOC>