<DOC>
<DOCNO>1070206_sports_story_7355804.utf8</DOCNO>
<TEXT>


The Telegraph - Calcutta : Sports

 SCORE CARD

Mumbai

First innings 320

Bengal

First innings 143

Mumbai

Second innings 294

Bengal

Second innings (Overnight 98/2)

D. Dasgupta

c Samant b Mota

57

M. Tewari

c Sharma b Nair

94

S. Ganguly

c Powar b Zaheer

90

R. Gavaskar

c Kukreja b Agarkar

46

LR Shukla

b Zaheer

0

S. Lahiri

lbw b Zaheer

0

S. Sarkar

c Samant b Zaheer

2

R. Bose

not out

1

A. Dinda

c Nair b Agarkar

0

Extras (b-2, lb-4, w-1, nb-12)

19

Total (all out in 92.2 overs)

339

Fall of wickets: 3/153, 4/270, 5/334, 6/335, 7/335, 8/338, 9/338

Bowling: Agarkar 17.2-6-56-2, Zaheer 24-4-119-4, Mota 13-6-34-2, Nair 12-2-29-1, Powar 23-4-85-1, Tendulkar 3-0-10-0




</TEXT>
</DOC>