<DOC>
<DOCNO>1070322_sports_story_7550244.utf8</DOCNO>
<TEXT>


The Telegraph - Calcutta : Sports

 SCORE CARD

Scotland

F. Watts

c Smith b Langeveldt

24

M. Haq

c Boucher b Hall

13

R. Watson

run out

31

G. Hamilton

c De Villiers b Hall

4

N. McCallum

b Kallis

1

C. Smith

b Pollock

15

D. Brown

not out

45

J. Blain

c Kemp b Hall

23

P. Hoffman

run out

18

Extras (b-2, lb-4,w-5, nb-1)

12

Total (for 8 wkts, 50 ovs)

186

Fall of Wickets: 1/35, 2/43, 3/63, 4/71, 5/84, 6/113, 7/163, 8/186

Bowling: Pollock 10-1-25-1, Ntini 9-0-25-0, Hall 10-2-48-3, Langeveldt 10-1-48-2, Kallis 8-0-21-0, Smith 3-0-13-0

South Africa

G. Smith

c Rogers b Haq

91

A. de Villiers

c Brown b Rogers

62

A. Prince

c McCallum b Haq

21

J. Kemp

not out

12

S. Pollock

not out

0

Extras (b-1, w-1)

2

Total (for 3 wkts in 23.2 overs)

188

Fall of wkts: 1/134, 2/162, 3/178

Bowling: Hoffmann 3-0-21-0, Blain 4-0-32-0, Nel 3-0-24-0, Brown 2-0-20-0, Haq 6-0-43-2, Rogers 5.2-0-47-1




</TEXT>
</DOC>