<DOC>
<DOCNO>1070730_sports_story_8124531.utf8</DOCNO>
<TEXT>


The Telegraph - Calcutta : Sports

 CHESS

 MONTREAL INTERNATIONAL MEET

 Final Round (Sunday) Vassily Ivanchuk (Ukr, 7) bt P. Harikrishna (Ind, 5.5) Sergei Tiviakov (Ned, 6) drew with Pascal Charbonneau (Can, 3) Gata Kamsky (US, 5) lost to Pavel Eljanov (Ukr, 5) Emil Sutovsky (Isr, 4.5) beat Kamil Miton (Pol, 3.5) Nigel Short (Gbr, 2) lost to Mark Bluvshtein (Can, 3.5)

 GOLF

 USPGA CANADIAN OPEN

 Markham, Round III (Saturday) 201 Vijay Singh (Fij) 68 65 68 202 Steve Allan (Aus) 64 68 70, John Mallinger (US) 66 66 70 203 Hunter Mahan (US) 62 74 67 204 Pat Perez (US) 68 70 66, Jim Furyk (US) 69 66 69 205 George McNeill (US) 70 69 66, Bob Heintz (US) 69 69 67, Glen Day (US) 67 70 68, Tom Pernice Jr (US) 68 68 69, Bo Van Pelt (US) 66 70 69, Brandt Snedeker (US) 67 68 70, Ryan Palmer (US) 67 67 71 206 Bob Tway (US) 69 71 66, Paul Gow (Aus) 70 69 67, Troy Matteson 67 71 68, Shigeki Maruyama (Jpn) 69 69 68, Steve Marino 70 66 70, Dicky Pride 68 68 70, Cliff Kresge 70 65 71, Michael Putnam 66 68 72, Tripp Isenhour 65 68 73 

 PLAYERS CHAMPIONSHIP OF EUROPE

 Hamburg, Round III (Saturday) 199 Andres Romero (Arg) 68 68 63 201 Zane Scotland (Gbr) 67 68 66 202 Lee Slattery (Gbr) 66 69 67 203 Alexander Noren (Swe) 67 71 65 206 Paul Casey (Gbr) 68 70 68, Robert Karlsson (Swe) 69 71 66, Brett Wetterich (US) 69 70 67, Oliver Wilson (Gbr) 66 70 70 

 FOOTBALL 

 ASIAN CUP 

 Jakarta, Final, (Sunday) Iraq 1 (Younis Mahmoud 71) Saudi Arabia 0

 LEAGUE CUP

 Leipzig, Final (Saturday) Bayern Munich 1, Schalke 0

 TENNIS

 ATP AUSTRIAN OPEN 

 Semi-final (Saturday) Juan Monaco (5, Arg) bt Fernando Verdasco (11, Esp) 7-5, 7-5 Potito Starace (10, Ita) bt Agustin Calleri (6, Arg) 6-4, 7-5

 ATP CROATIAN OPEN

 Semi-final (Saturday) Carlos Moya (6, Esp) bt Guillermo Canas (5, Arg) 6-3, 6-2 Andrei Pavel (Rom) bt Viktor Troicki (Ser) 6-3, 6-3

 ATP INDIANAPOLIS CHAMPIONSHIPS 

 Semi-finals (Saturday) Dmitry Tursunov (3, Rus) bt Sam Querrey (US) 7-6(5), 6-2 Frank Dancevic (Can) bt Andy Roddick (1, US) 6-4, 7-6(1) Quarter-finals (Saturday) Sam Querrey (US) bt James Blake (2, US) 7-6(6), 6-7(4), 7-6(4) Dmitry Tursunov (3, Rus) bt Kei Nishikori (Jpn) 6-1, 6-4 

 WTA STANFORD CLASSIC 

 Singles, Semi-finals (Saturday) Anna Chakvetadze (1, Rus) bt Daniela Hantuchova (3, Slo) 6-7(6), 6-3, 6-2 Sania Mirza (Ind) bt Sybille Bammer (8, Aut) 6-2, 5-7, 6-3 Doubles, Semi-finals Sania Mirza (Ind) amp; Shahar Peer (3, Isr) bt Hsieh Su-wei (Tai) amp; Alla Kudryavtseva (Rus) 6-3, 6-4 Victoria Azarenka (Bel) amp; Anna Chakvetadze (Rus) bt Katarina Srebotnik amp; Slovenia amp; Ai Sugiyama (1, Jpn) 6-4, 5-7, 10-7 tiebreak




</TEXT>
</DOC>