<DOC>
<DOCNO>1070924_sports_story_8353711.utf8</DOCNO>
<TEXT>


The Telegraph - Calcutta : Sports

 SCORE CARD

Durban card 

India stormed into the ICC World Twenty20 final in Durban on Saturday after Yuvraj Singhs blistering batting earned them a 15-run win over Australia. India will play Pakistan in the final in Johannesburg on Monday. 

The following is the scorecard: 

India

G. Gambhir

c Hodge b Johnson

24

V. Sehwag

c Gilchrist b Johnson

9

R. Uthappa

run out

34

Y. Singh

c Hussey b Clarke

70

M. Dhoni

run out

36

R. Sharma

not out

8

I. Pathan

not out

0

Extras (lb-6, w-1)

7

Total (for 5 wkts, 20 ovs)

188

Fall of wickets: 1/30, 2/41, 3/125, 4/155, 5/184

Bowling: Lee 4-0-25-0, Bracken 4-0-38-0, Clark 4-0-38-0; Johnson 4-0-31-2, Symonds 3-0-37-0, Clarke 1-0-13-1

Australia

A. Gilchrist

b Sreesanth

22

M. Hayden

b Sreesanth

62

B. Hodge

c Sharma b Pathan

11

A. Symonds

b Pathan

43

M. Hussey

c Yuvraj b Sharma

13

M. Clarke

b Harbhajan

3

B. Haddin

not out

5

B. Lee

b Sharma

2

M. Johnson

not out

4

Extras (lb-3, w-3, nb-2)

8

Total (7 wkts, 20 ovs)

173

Fall of wickets: 1/36, 2/68, 3/134, 4/156, 5/159, 6/167, 7/169

Bowling: R. P. Singh 4-0-33-0, Sreesanth 4-1-12-2, Pathan 4-0-44-2, Sharma 3-0-37-2, Harbhajan 4-0-24-1, Sehwag 1-0-20-0




</TEXT>
</DOC>