<DOC>
<DOCNO>1070324_sports_story_7559331.utf8</DOCNO>
<TEXT>


The Telegraph - Calcutta : Sports

 SCORE CARD

New Zealand

L. Vincent

c amp;b Davison

101

S. Fleming

c Billcliff b Sandher

66

P. Fulton

lbw Sandher

47

S. Styris

c Bagai b Samad

28

C. McMillan

c Samad b Davison

10

J. Oram

not out

35

B. McCullum

not out

52

Extras (b-1, lb-5, w-17, nb-1)

24

Total (for 5 wkts in 50 overs)

363

Fall of wkts: 1/142, 2/222, 3/253, 4/266, 5/278

Bowling: Cummins 10-1-59-0, Bhatti 5.3-1-25-0, Samad 2.3-0-31-1, Osinde 4-0-45-0, Sandher 10-0-58-2, Davison 10-0-67-2, Dhaniram 8-0-72-0

Canada

J. Davison

c amp;b Mason

52

G. Barnett

c McCullum b Vettori

40

A. Bagai

b Vettori

37

I. Billcliff

b Styris

50

A. Samad

run out

9

A. Mulla

lbw Vettori

0

S. Dhaniram

retired hurt

17

U. Bhatti

b Patel

10

A. Cummins

not out

9

K. Sandher

b Patel

2

H. Osinde

b Patel

0

Extras (b-4, lb-5, w-5, nb-9)

23

Total (for 9 wkts in 49.2 overs)

249

Fall of wkts: 1/76, 2/110, 3/188, 4/201, 5/206, 6/207, 7/245, 8/249, 9/249

Bowling: Tuffey 6-0-40-0, Mason 8-0-60-1, Oram 7-1-16-0, Patel 9.2-0-25-3, Vettori 10-0-57-3, Styris 6-0-21-1, McMillan 3-0-21-0




</TEXT>
</DOC>