<DOC>
<DOCNO>1070110_sports_story_7242220.utf8</DOCNO>
<TEXT>


The Telegraph - Calcutta : Sports

 Southern Empire wins again 

 OUR TURF CORRESPONDENT

 Sothern Empire maintained his unbeaten record while winning the 2,000m Ramniwas Ramnarain Ruia Gold Cup at the Mumbia races on Tuesday. Trained by S.Ganapathy, B. Prakash partnered the Placervillie-Stunning son.

 RESULTS

 (With inter-state dividends)

 1. Chatterbox Plate 1,000m: (8-2-6) Attention Seeker (Walkar) 1; Oyster Gem 2; Enchanting Girl 3. Won by: 1-1/4; 1/2; (1-0.32). Tote: Win Rs 267; Place: 54; 37; 16; Quinella: 4,092; Shp: 125; Tanala: 30,226. Fav: Annot (1).

 2. Mangal Plate 1,000m: (1-8-3) Definite Spice (Donoghue) 1; Andalusia 2; Magic Spell 3. Won by: 5-3/4; 4; (1-0.26). Tote: Win Rs 11; Place: 12; 24; 16; Quinella: 41; Shp: 50; Tanala: 126. Fav: Definite Spice (1).

 3. Mayors Trophy 1,200m: (11-3-8) Quest For Cash (McCullagh) 1; Flashing Flame 2; Red Indian 3. Not run: Flaming Quest (2) amp; Temptation (12). Won by: 2-1/4; 1-1/4; (1-13.91). Tote: Win Rs 15; Place: 10; 14; 14; Quinella: 31; Shp: 53; Tanala: 81. Fav: Quest For Cash (11).

 4. P.D. Balton Trophy 1,200m: (8-12-4) Czarina (Appu) 1; Desert Conqueror 2; Intrinsic Value 3. Not run: Caramel (7) amp; Celestrella (9). Won by: 3; 1-3/4; (1-12.06). Tote: Win Rs 26; Place: 13; 31; 15; Quinella: 105; Shp: 74; Tanala: 891. Fav: Czarina (8).

 5. Ticoma Plate, Div-I 1,200m: (6-11-3) Thunderelo (Rupesh) 1; Millennium King 2; Teaser 3. Won by: 3-1/4; Hd; (1-14.21). Tote: Win Rs 55; Place: 23; 40; 38; Quinella: 348; Shp: 80; Tanala: 6,637. Fav: Golden Fort (10).

 6. Ramniwas Ramnarain Ruia Gold Cup 2,000m: (4-3-2) Southern Empire (Prakash) 1; Rococo 2; Major Wager 3. Won by: 8-1/2; 4; (2-4.02). Tote: Win Rs 10; Place: 10; 10; Quinella: 12; Shp: 11; Tanala: 12. Fav: Southern Empire (4).

 7. Homi Mody Trophy 2,400m: (7-1-5) Spinoza (Ruzaan) 1; Magic Touch 2; Habat 3. Won by: 2-1/2; 9-1/2; (2-33.79). Tote: Win Rs 24; Place: 13; 19; Quinella: 45; Shp: 36; Tanala: 441. Fav: Spinoza (7).

 8. Ticoma Plate, Div-II 1,200m: (1-9-4) Emerging Power (Kharadi) 1; Discover 2; Upstage 3. Won by: 1-1/4; 1-3/4; (1-14.18). Tote: Win Rs 48; Place: 22; 33; 17; Quinella: 218; Shp: 58; Tanala: 1,314. Fav: Upstage (4).

 Jackpot: Rs 398; (C) Rs 38. Treble: (i) Rs 19; (ii) Rs 84.




</TEXT>
</DOC>