<DOC>
<DOCNO>1070418_sports_story_7661572.utf8</DOCNO>
<TEXT>


The Telegraph - Calcutta : Sports

 SCORE CARD

Sri Lanka

U. Tharanga

c Hayden b Bracken

6

Jayasuriya

lbw Bracken

12

Sangakkara

lbw McGrath

0

Jayawardene

st Gilchrist b Hogg

72

C. Silva

c Clarke b Hogg

64

T. Dilshan

c Hodge b Tait

7

R. Arnold

b Tait

3

F. Maharoof

c Symonds b Bracken

25

Kulasekara

c Hayden b Bracken

1

M. Bandara

c Hogg b McGrath

17

D. Fernando

not out

0

Extras (lb-5, w-11, nb-3)

19

Total (all out in 49.4 overs)

226

Fall of wkts: 1/26, 2/27, 3/27, 4/167, 5/174, 6/178, 7/183, 8/184, 9/218

Bowling: Bracken 9.4-3-19-4, Tait 10-0-68-2, McGrath 9-1-48-2, Hogg 10-0-35-2, Symonds 3-0-15-0, Clarke 8-0-36-0

Australia

A. Gilchrist

lbw Arnold

30

M. Hayden

c Dilshan b Arnold

41

R. Ponting

not out

66

M. Clarke

c Dilshan b Bandara

23

A. Symonds

not out

63

Extras (w-4, nb-5)

9

Total (3 wkts in 42.4 overs)

232

Fall of wkts: 1/76, 2/79, 3/126

Bowling: Fernando 6-1-36-0, Maharoof 7-0-52-0, Kulasekara 4-0-20-0, Arnold 4-0-20-2, Bandara 9.4-0-53-1, Jayasuriya 6-0-32-0, Dilshan 6-0-19-0




</TEXT>
</DOC>