<DOC>
<DOCNO>1070611_sports_story_7906210.utf8</DOCNO>
<TEXT>


The Telegraph - Calcutta : Sports

 SCORE CARD

England

First innings 370

West Indies

First innings 229

England

Second innings 313

West Indies

Second innings

(Overnight: 22/1)

C. Gayle

c Cwood b Harmison

 16

D. Smith

c Cook b Panesar

42

R. Morton

lbw Panesar

54

S. Cpaul

batting

81

D. Bravo

c Cook b Panesar

49

D. Ramdin

batting

26

Extras (b-10, lb-12, w-8, nb-3):

33

Total (5 wkts, 98 ovs):

301

Fall of wickets: 1/4, 2/35, 3/88, 4/161, 5/249

Bowling: Sidebottom 21-5-48-0, Harmison

22-6-70-2, Panesar 34-10-87-3, Plunkett

16-2-57-0, Pietersen 5-2-17-0




</TEXT>
</DOC>