<DOC>
<DOCNO>1070615_calcutta_story_7922625.utf8</DOCNO>
<TEXT>


The Telegraph - Calcutta : Metro

 Cinema

 ENGLISH

 FANTASTIC 4: RISE OF THE SILVER SURFER: New Empire, Inox (Forum amp; City Centre), 89 Cinemas (Swabhumi; 12.30 pm, 4.40 pm, 6.30 pm, 8.20 pm), Fame (Hiland Park; 10.10 am, 12 noon, 3.15 pm, 6.25 pm, 10.25 pm)

 OCEANS THIRTEEN (U/A): Inox (Forum), Inox (City Centre), 89 Cinemas (Swabhumi; 10 am, 2.20 pm, 8.10 pm), Fame (Hiland Park; 1.45 pm, 8.10 pm)

 PIRATES OF THE CARIBBEAN AT WORLDS END (U/A): Roxy, Inox (Forum), Inox (City Centre), 89 Cinemas (Swabhumi; 12.20 pm), Fame (Hiland Park; 10.20 am)

 SPIDER-MAN 3: Nandan (1.45, 4.50), Priya (10.15 am), Prachi (noon)

 SHREK 3: Fame (Hiland Park; 10.15 am)

 HINDI

 CHEENI KUM (U/A): Navina (12.30, 6.30), Priya (5, 9.15), Star Theatre (12, 7.30), Inox (Forum), Inox (City Centre), 89 Cinemas (Swabhumi; 10 am, 2.45 pm, 5.25 pm, 8.05 pm, 10.45 pm), Fame (Hiland Park; 5 pm, 10.10 pm), Jaya (11.40, 4.40)

 FANTASTIC 4: RISE OF THE SILVER SURFER: Atindra (Barrackpore), Rathindra (Sodepur)

 FOOL N FINAL: Metro, Inox (Forum), Inox (City Centre), 89 Cinemas (Swabhumi; 10 am, 3.10 pm, 10 pm), Fame (Hiland Park; 12 noon)

 JHOOM BARABAR JHOOM: Fame (Hiland Park; 1.20 pm, 2.35 pm, 4.05 pm, 5.10 pm, 6.45 pm, 7.50 pm, 9.20 pm, 10.30 pm), Elite, Menoka, Mitra, Minar, Bijoli, Chhabighar, Purabi, Basusree (noon), Malancha, Ashoka (Behala), Ragini, Vaishali, Jaya, Ananya, Mrinalini, Navbharat, Lipi, Parijat, Liluah Cinema, Lali, Prafulla, Gupta Tks, Jyoti (Chandernagore), Milon (Hooghly), Sushama (Sheoraphuli), Jyanti (Rishra), Sreelaxmi (Kanchrapara), Lok Sanskriti Mancha (Burdwan)

 LIFE IN A...METRO (A): Inox (Forum), Inox (City Centre), 89 Cinemas (Swabhumi; 10.05 am, 3.20 pm), Fame (Hiland Park; 4 pm)

 MP3: MERA PEHLA PEHLA PYAAR (U/A): Paradise (noon amp; mat.), Navina (3.30 pm, 9 pm), Inox (Forum; 10 am), 89 Cinemas (Swabhumi; 12.35 pm), Radha

 PIRATES OF THE CARIBBEAN AT WORLDS END (U/A): Paradise (eve. amp; night)

 SHOOTOUT AT LOKHANDWALA (A): Inox (Forum), Inox (City Centre), 89 Cinemas (Swabhumi; 5.45 pm, 8.25 pm, 10.45 pm), Fame (Hiland Park; 1 pm)

 THE TRAIN (A): Jyoti, Basusree (6 pm), Inox (Forum), Inox (City Centre), 89 Cinemas (Swabhumi; 12.35, 5.50, 10.30), Fame (Hiland Park; 7.35 pm), Moonlight, Taswir Mahal, Jaya (2.15, 4.45, 7.15)

 BENGALI

 DUS DIN PORE...: Ellora (Behala)

 MAHAGURU: Prachi (2, 5, 7.45), Darpana (2.45, 5.45, 8.30), Bharati (3, 6, 8.45), Aleya, Padmasree, Pushpasree (Behala), Chetna, Sonali, Arati, Chhayabani (Barasat), Shanti (Kadamtala), Padma (Sodepur), Krishna (Baruipur), Maya (Salkia), Kairi (Chinsurah), Udayan (Sheoraphuli), Debasree (Barrackpore), Debjani (Basirhat), Chitrabani (Bagnan), Mimi (Krishnagar), Burdwan Cinema, Rabindra (Tarakeswar), Chitra (Bolpur), Mohan (Berhampore)




</TEXT>
</DOC>