<DOC>
<DOCNO>1070608_calcutta_story_7891379.utf8</DOCNO>
<TEXT>


The Telegraph - Calcutta : Metro

 Cinema

 ENGLISH

 OCEANS THIRTEEN (U/A): New Empire, Inox (Forum; 1 pm, 4 pm, 6.20 pm, 10.50 pm), Inox (City Centre; 12.40 pm, 3 pm, 7.50 pm, 10.45 pm), 89 Cinemas (Swabhumi; 12.40 pm, 3 pm, 8.25 pm, 10.45 pm), Fame (Hiland Park; 12.35 pm, 2.50 pm, 7.45 pm, 10.25 pm)

 PIRATES OF THE CARIBBEAN AT WORLDS END (U/A): New Empire, Inox (Forum; 10 am, 5.20 pm, 10.45 pm), Inox (City Centre; 10.10 am, 5.05 pm, 10.10 pm), 89 Cinemas (Swabhumi; 10.10 am, 5.20 pm, 10.45 pm), Fame (Hiland Park; 4 pm, 10 pm)

 SHREK-3: Inox (Forum; 10.10 am, 2.15 pm), Inox (City Centre; 1.15 pm), Fame (Hiland Park; 12 noon), Priya (10.15 am)

 HINDI

 CHEENI KUM (U/A): Jyoti, Priya (4.30, 9.15), Navina (6.30), Star Theatre (12.30), Inox (Forum; 12.30 pm, 5.40 pm, 10.50 pm), Inox (City Centre; 12.35 pm, 5.45 pm, 10.50 pm), 89 Cinemas (Swabhumi; 10 am, 2.45 pm, 5.25 pm), Fame (Hiland Park; 10 am, 2.40 pm, 7.30 pm), 89 Cinemas (Durgapur; 1 pm, 8.30 pm), Inox (Darjeeling)

 FOOL N FINAL: Metro, Mitra (6 pm, 9 pm), Inox (Forum; 3.10 pm, 8.20 pm), Inox (City Centre; 10 am, 2.30 pm, 10.30 pm), 89 Cinemas (Swabhumi; 10.05 am, 5.50 pm, 10.45 pm), Fame (Hiland Park; 5.055 pm), Star Theatre, Purabi, 89 Cinemas (Durgapur; 10, 12.30, 5.50)

 LIFE IN A...METRO (A): Priya (2.15), Roxy (6, 9), Navina (3.30), Inox (Forum; 8.20 pm), Inox (City Centre; 10.05 am, 5.20 pm), 89 Cinemas (Swabhumi; 10.05 am, 8.20 pm), Fame (Hiland Park; 10.05 am, 5.30 pm), Jaya (5 pm)

 MERA PEHLA PEHLA PYAAR (U/A): Inox (Forum; 10 am), 89 Cinemas (Swabhumi; 12.35 pm), Fame (Hiland Park; 10.10 pm)

 PIRATES OF THE CARIBBEAN AT WORLDS END (U/A): Paradise, Radha

 SHOOTOUT AT LOKHANDWALA (A): Elite, Mitra (12, 3), Basusree, Navina (12.30, 9), Inox (Forum; 3.20 pm, 8.30 pm), Inox (City Centre; 3.15 pm, 8.25 pm), 89 Cinemas (Swabhumi; 3.30 pm, 8.05 pm), Fame (Hiland Park; 1.45 pm, 5.15 pm), 89 Cinemas (Durgapur; 10.10 am, 3.40 pm, 6.10 pm, 8.25 pm)

 SWAMI: Inox (Forum; 12 noon), 89 Cinemas (Swabhumi; 12.30 pm), Fame (Hiland Park; 10 am)

 RED SWASTIK: Hind, Menoka, Minar, Bijoli, Chhabighar

 THE TRAIN (A): Jyoti, Navina (12.30, 3.30, 9), Inox (Forum; 12.10, 2.45, 5.50, 10.45), Inox (City Centre; 10, 3.05, 5.35, 8.15), 89 Cinemas (Swabhumi; 2.50, 5.35, 8.10, 10.25), Fame (Hiland Park; 12.15, 2.55, 7.55, 10.15), Moonlight, Taswir Mahal, Jaya, Pushpasree, Sonali, Bangabasi, Chandan, Rakhi, Atindra, Rathindra, 89 Cinemas (Durgapur), Manoj (Asansol), Durgapur Cinema

 BENGALI

 JARA BRISHTITEY BHIJECHHILO: Nandan-1 (6.45), Priya (2.45, 7.30), Inox (Forum; 8.35 pm), Inox (City Centre; 8.10 pm), 89 Cinemas (Swabhumi; 1.10 pm), Fame (Hiland Park; 12.25 pm), Star Theatre (2.30, 5)

 PREM: Prachi (2, 5, 7.45), Darpana (2.45, 5.45, 8.30), Bharati (3, 6, 8.45), Binodini, Narendra (Dum Dum), Mini Rathindra, Sarama, Debjani

 TULKALAM: Aleya, Mahua, Ellora, Arati, Bejoya, Shanti, Kalika (Habra), Padma, Kairi, Udayan




</TEXT>
</DOC>