<DOC>
<DOCNO>1070831_sports_story_8258344.utf8</DOCNO>
<TEXT>


The Telegraph - Calcutta : Sports

 Romantic Scene lifts Gold Cup 

 SRIMAX

 Mysore: Trainer D. Byramjis ward, Romantic Scene, lifted the Star Of Mysore Gold Cup here on Thursday.

 RESULTS

 (With inter-state dividends)

 1st race: Zangi 1; Imperial Dancer 2; Jedi Knight 3. Win Rs 121; (P) 23, 75, 16; (Q) 919; Shp: 183; (T) 19,581. 2nd race: Sensuous Touch 1; Tropical Flyer 2; Valiant Romeo 3. Not run: Royal Artist. Win Rs 14; (P) 11, 25, 62; (Q) 71; Shp: 136; (T) 1,540. 3rd race: Ancient Princess 1; Al Jazeera 2; Amazing Flora 3. Win Rs 20; (P) 15, 24, 18; (Q) 64; Shp: 47; (T) 196. 4th race: Rormantic Scene 1; Local Warrior 2; Milford 3. Win Rs 32; (P) 16, 19, 24; (Q) 99; Shp: 65; (T) 531. 5th race: Simply Dangerous 1; Anoosheek 2; Sangini 3. Win Rs 61; (P) 16, 23, 14; (Q) 257; Shp: 91; (T) 1,297. 6th race: Royal Scandal 1; Amazing One 2; Attornery 3. Win Rs 29; (P) 13; 16, 40; (Q) 54; Shp: 46; (T) 830. 7th race: Smart Falcon 1; Havana 2; Ride And Shine 3. Win Rs 31; (P) 14, 15, 61; (Q) 37; Shp: 45; (T) 1,213. 8th race: Right Fantasy 1; Analika 2; Millennium Force 3. Win Rs 166; (P) 44, 15, 39; (Q) 241; Shp: 40; (T) 11,981. Jackpot: Rs 76,363 (Carried over); (C) Rs 655. Treble: (i) Rs 289; (ii) Rs 2,343.

 For live action from the turf, log on to www.telegraphindia.com/race

 Mysore tips

 1.45 pm: Jersey Splendour 1. Exclusive Design 2. Royal Filly 3. 2.15 pm: Dakota Fanning 1. Handiwork 2. Wile Wench 3. 2.45 pm: Sabre Knight 1. Splendid Glory 2. Hold The Fort 3. 3.15 pm: Alpha Star 1. My Winning Charm 2. Custer 3. 3.45 pm: Peace Prize 1. Fighting Star 2. Stylish Bay 3. 4.15 pm: Royal Falcon 1. Chiquitita 2. Habat 3. 4.45 pm: Panchakshari 1. Tenct Bling 2. Definite Spice 3. 5.15 pm: Estrella 1. Royal Emblem 2. Satin Slipper 3. 

 Days Best: Royal Falcon Double: Jersey Splendour amp; Alpha Star.




</TEXT>
</DOC>