<DOC>
<DOCNO>1070823_sports_story_8226740.utf8</DOCNO>
<TEXT>


The Telegraph - Calcutta : Sports

 SCORE CARD

Sri Lanka A

M. Udawatte

b Kumar

35

M. Perera

c Patel b Pathan

5

J. Silva

c Kaif b Pankaj

8

B. Warpura

c Patel b Mahesh

29

G. Wijekoon

c Patel b Mahesh

38

K. Lrachchi

c Patel b Pathan

16

C. Kgedera

c Patel b Ojha

2

K. Prasad

st Patel b Ojha

13

K. Ksekara

b Kumar

10

U. Wgedara

not out

3

W. De Silva

b Mahesh

0

Extras (b-1, lb-2, w-3)

6

Total (all out, 36.2 ovs)

165

Fall of wickets: 1/19, 2/46, 3/52, 4/104, 5/123, 6/138, 7/138, 8/154, 9/164

Bowling: Pathan 8-1-33-2, Pankaj 8-0-47-1, Praveen 6-0-20-2, Mahesh 5.2-0-26-3, Ojha 8-2-33-2, Patel 1-0-3-0

India A

P. Kumar

c amp;b Welegedara

26

C. Pujara

not out

68

M. Kaif

not out

59

Extras (b-4, lb-1, w-4, nb-5)

14

Total (1 wkt, 25.5 ovs)

167

Fall of wickets: 1/52

Bowling: Kulasekara 5-0-34-0, Welegedara 6-0-33-1 Prasad 4-0-12-0, De Silva 2-0-20-0, Lokuarachchi 4.5-0-39-0, Wijekoon 2-0-10-0, Perera 2-0-14-0




</TEXT>
</DOC>