<DOC>
<DOCNO>1070607_sports_story_7888914.utf8</DOCNO>
<TEXT>


The Telegraph - Calcutta : Sports

 SCORE CARD

Asia 

S.Jsuriya

c De Villiers b M.Mkel

14

V.Sehwag

b Cbura

45

S.Ganguly

b M.Mkel

32

M.Jwardene

c Pollock b Tikolo

65

M.Yousuf

c De Villiers b A.Mkel

66

Y.Singh

c Kemp b M.Mkel

31

M.Dhoni

run out

2

H.Singh

c Pollock b Cbura

20

M.Mortaza

c De Villiers b A.Mkel

13

Z.Khan

not out

6

Extras: (b-2, lb-3, w-16, nb-2)

23

Total (nine wickets, 50 ovs)

317

Fall of wickets: 1/36, 2/104, 3/126, 4/222, 5/274, 6/276, 7/279, 8/307, 9/317

Bowling: M. Morkel 10-1-68-3, Odoyo 10-0-52-0, Chigumbara 9-0-56-2, A. Morkel 10-0-64-2, Tikolo 8-0-49-1, Kemp 3-0-23-0

Africa 

A. de Villiers

 b Asif

4

L.Bosman

c Jwardene b Khan

2

B.Dnaar

b Khan

10

S.Tikolo

hit wkt b Asif

5

J.Kemp

b Asif

5

M.Boucher

b Jsuriya

25

S.Pollock

c Yousuf b Mtaza

130

A.Mkel

c Dhoni b Jsuriya

9

E.Chbura

c Yousuf b Jsuriya

40

T.Odoyo

c sub b Hbhajan

39

M.Mkel

not out

4

Extras: (b-1, lb-5, w-2, nb-2)

10

Total (all out, 47.5 ovs)

283

Fall of wickets: 1/4, 2/15, 3/18, 4/26, 5/31, 6/77, 7/87, 8/154, 9/257

Bowling: Asif 10-0-57-3, Khan 9-2-43-2, Mortaza 6.5-0-57-1, Harbhajan 10-0-53-1, Jsuriya 10-0-53-3, Yuvraj 2-0-14-0




</TEXT>
</DOC>