<DOC>
<DOCNO>1070128_sports_story_7316877.utf8</DOCNO>
<TEXT>


The Telegraph - Calcutta : Sports

 SCORE CARD

Karnataka

First innings 89

Bengal

First innings 238

Karnataka

Second innings (Overnight 317/5)

C. Raghu

c Dasgupta b Bose

85

Y. Goud

b Bose

72

S. Joshi

c Dinda b Sarkar

0

R. Bhatkal

c Lahiri b Sarkar

30

V. Kumar

c Shukla b Lahiri

32

S. Dhjaya

not out

4

Extras (b-2, lb-7, w-13, nb-3)

25

Total (all out, 168.5 ovs)

455

Fall of wickets: 5/271, 6/328, 7/329, 8/379, 9/434

Bowling: Bose 51.5-17-116-4, Sarkar 38-12-87-4, Shukla 1-0-9-0, Dinda 24-3-69-0, Lahiri 24-4-84-1, Gavaskar 12-3-32-1, Tewari 18-5-49-0

Bengal

Second innings

S. Das

lbw Akhil

30

A. Das

lbw Akhil

27

A. Jhwala

lbw Joshi

54

M. Tewari

not out

151

R. Gavaskar

c Naidu b Dhjaya

12

D. Dasgupta

not out

19

Extras (b-6, lb-6, w-2)

14

Total (4 wkts, 118 ovs)

307

Fall of wickets: 1/52, 2/57, 3/221, 4/249

Bowling: Vinay Kumar 33-9-77-0, Dhananjaya 16.2-5-46-1, Akhil 26.4-8-75-2, Bhatkal 5-2-10-0, Joshi 30-11-58-1, Raghu 7-2-29-0




</TEXT>
</DOC>