<DOC>
<DOCNO>1070125_calcutta_story_7299483.utf8</DOCNO>
<TEXT>


The Telegraph - Calcutta : Metro

 Cinema

 ENGLISH

 DEAD OR ALIVE (U/A): Inox (Darjeeling; 11.25 am, 2.20 pm, 4.05 pm)

 HOUSE OF FLYING DAGGERS: Metro (4 shows)

 MR. HOT MR. KOOL: Globe (4 shows), Radha (4 shows), Mrinalini (Dum Dum), Anuradha (Durgapur)

 YOU, ME AND DUPREE (A): New Empire (noon amp; night), Inox (Forum; 1.55 pm), Inox (City Centre; 10.15 am, 2 pm), 89 Cinemas (Swabhumi; 12.30 pm, 10.10 pm), Fame (Hiland Park; 1 pm, 10 pm)

 HINDI

 AGNIPATH: Chaplin (12.30 pm, 3 pm, 6 pm)

 BHAGAM BHAG: Jyoti, Inox (Forum; 1 pm, 7.50 pm, 10.25 pm), Inox (City Cente; 1 pm, 4.05 pm, 9.50 pm), 89 Cinemas (Swabhumi; 10.05 am, 1 pm, 7.30 pm), Fame (Hiland Park; 10.15 am, 1.10 pm, 7.15 pm), Chhayageeti (Uluberia), Kairi (Chinsurah), 89 Cinemas (Durgapur; 1.20 pm), Bombay Tks (Kharagpur)

 DHOOM: 2 (U/A): Hind, Inox (Forum; 11 am, 5.05 pm), Inox (City Centre; 11.05 am, 7 pm), 89 Cinemas (Swabhumi; 10.10 am, 4.50 pm), Fame (Hiland Park; 10.10 am, 2.55 pm), 89 Cinemas (Durgapur; 10.35 am, 4.15 pm), Inox (Darjeeling; 11.30 am, 5.40 pm)

 GURU: Paradise, Priya, Navina, Inox (Forum; 11.15 am, 2.20 pm, 4 pm, 5.35 pm, 7.15 pm, 8.50 pm, 10.30 pm), Inox (City Centre; 11.10 am, 2.20 pm, 4 pm, 5.35 pm, 7.15 pm, 8.50 pm, 10.30 pm), 89 Cinemas (Swabhumi; 11.20 am, 2.20 pm, 3.55 pm, 5.30 pm, 7.05 pm, 8.40 pm, 10.15 pm), Star Theatre, Fame (Hiland Park; 11.30 am, 2.30 pm, 4.05 pm, 5.40 pm, 7.10 pm, 8.30 pm, 10.10 pm), Jaya (Lake Town), Sonali (Dunlop), Rakhee (Salkia), Atindra, Manoj (Asansol), 89 Cinemas (Durgapur; 11.15 am, 2.15 pm, 5.25 pm, 7.40 pm), Inox (Darjeeling; 1 pm, 3.40 pm, 6.35 pm)

 KABUL EXPRESS (U/A): Inox (Forum; 4 pm), Inox (City Centre; 5.35 pm), 89 Cinemas (Swabhumi; 2.50 pm), Fame (Hiland Park; 5.45 pm), Chhayabani (Barasat), Navin (Malda), Denzong (Gangtok)

 MUSEUM KE ANDAR PHANS GAYA SIKANDER: Talkie Show House, Bata Cinema, Parijat (Salkia), Parbati (Howrah), Kamal (Metiabruz), Ritwik Sadan (Behrampore), Chitra (Asansol), 89 Cinemas (Durgapur; 10.15 am), Inox (Darjeeling; 11 am)

 RISK (A): Elite, Mitra, Basusree, Inox (Forum; 10.20 am, 12 noon, 2.30 pm, 6 pm, 10.45 pm), Inox (City Centre; 10.25 am, 12.20 pm, 3 pm, 7.35 pm, 10.05 pm), 89 Cinemas (Swabhumi; 10 am, 2.30 pm, 5 pm, 7.40 pm, 10.25 pm), Fame (Hiland Park; 10 am, 12.25 pm, 4.45 pm, 7.45 pm, 10.15 pm), Moonlight, Taswir Mahal, Jaya, Pari, Bangabasi, Rakhi, Chandan (Liluah), Jayanti (Barrackpore), Swapna (Chandernagore), Durgapur Cinema, 89 Cinemas (Durgapur; 12.10 pm, 2.40 pm, 5.10 pm, 7 pm, 8.35 pm), Manoj (Asansol), Anjana (Raniganj), Inox (Darjeeling; 1.10 pm, 4 pm, 6.30 pm)

 VIVAH: Roxy (12, 3, 6, 9), Ashoka (Behala), Kalyani (Naihati), Shankar Chitrayan (Purulia), Star (Islampur)

 BENGALI

 AAMRA (A): Mitra (12.30 pm)

 HANGAMA: Minar, Bijoli, Chhabighar (3, 5.45, 8.30), Aleya, Mahua (Garia), Ellora (Behala), Chetna (Dum Dum), Milan (Baruipur), Padma (Sodpur), Manjusree (Haldia), Diamond Talkies, Ranaghat Talkies, Purna (Kalna), Falguni (Basirhat), Sujata (Bagnan), Rupali (Chinsurah), Shanti (Kadamtolla), Amala (Barrackpore), Sangita (Krishnagar), Gobindo (Canning), Rabindra (Tarakeswar), Srilaxmi (Lakshmikantapur), Bichitra (Burdwan), Bejoya (Barasat), Geetanjali (Raiganj)

 I LOVE YOU: Prachi, Darpana, Bharati, Pushpasree (Behala), Padmasree (Jadavpur), Narendra (Dum Dum), Arati (Baguihati), Pushpasree (Kadamtolla), Ananya (Baranagore), Sarama (Barasat), Debasree (Barrackpore), Show House (Baruipur), Rupkatha (Habra), Mini Rathindra (Sodepur), Auro (Chinsurah), New Bijoli (Diamond Harbour), Debjani (Basirhat), Surendra (Ranaghat), Sushma (Sheoraphuli), Sriguru (Nabadwip), Rupasree (Contai), Chitrabani (Bagnan), Mahalakshmi (Chanditala), Sangam (Kalyani), Burdwan Cinema, Kalpana (Berhampore), Krishti (Memari), Wellington (Andul), Geetanjali (Bolpur)

 PADOKKHEP: Nandan (2, 4, 6), Inox (Forum; 8.35 pm), 89 Cinemas (Swabhumi; 1 pm), Fame (Hiland Park; 3.05 pm)




</TEXT>
</DOC>