<DOC>
<DOCNO>1070805_sports_story_8151813.utf8</DOCNO>
<TEXT>


The Telegraph - Calcutta : Sports

 Anna Chakvetadze

 FOOTBALL

 PREMIER DIVISION 

 CALCUTTA (Saturday) Mohammedan Sporting 2 (K. Kulothungan 33p, Roque Barreto 75p) George Telegraph 2 (Nurudeen Salau Olawale 3, 79). 

 GOLF

 WOMENS BRITISH OPEN

 Round II 140 Lorena Ochoa (Mex) 67 73 141 Wendy Ward 71 70; Catriona Matthew (Grb) 73 68 143 Annika Sorenstam (Swe) 72 71; Sherri Steinhauer 72 71; Yuri Fudoh (Jpn) 74 69; Rebecca Hudson (Gbr) 70 73; Karine Icher (Fra) 72 71 144 - Ji Eun-Hee (Kor) 73 71 145 Sophie Gustafson (Swe) 73 72; Virginie Lagoutte-Clement (Fra) 72 73, Louise Friberg (Swe) 69 76; Lee Jee-Young 72 73 (Kor)

 WGC-BRIDGESTONE INVITATIONAL 

 OHIO, Roound II (Friday) 134 Rory Sabbatini (Rsa) 67 67 136 Zach Johnson (US) 71 65 138 Scott Verplank (US) 70 68; Kenny Perry (US) 69 69; Tiger Woods (US) 68 70 139 Lee Westwood (Gbr) 68 71; Davis Love III (US) 74 65; Chris DiMarco (US) 69 70 140 Paul Casey (Gbr) 67 73; Justin Leonard (US) 73 67; John Senden (Aus) 71 69; Peter Lonard (Aus) 70 70; Hunter Mahan (US) 67 73 Mark Calcavecchia (US) 68 72 

 RUSSIAN OPEN

 MOSCOW, Round II (Friday) 131 Per-Ulrik Johansson (Swe) 69 62 138 Jesus Maria Arruti (Esp) 70 68; Chris Hanell (Swe) 73 65 139 Philip Golding (Gbr) 70 69; Marcel Siem (Ger) 75 64 140 Peter Gustafsson (Swe) 71 69; Chris Wood (Gbr) 72 68 141 Gareth Davies (Gbr) 70 71; Keith Horne (Rsa) 73 68; Prom Meesawat (Thai) 71 70; Steve Webster (Gbr) 73 68

 TENNIS

 WTA SAN DIEGO OPEN

 Quarter final, (Friday) Anna Chakvetadze (3, Rus) bt Venus Williams (10, US) 6-7(5), 7-6(3), 6-2 Elena Dementieva (9, Russia) bt Maria Kirilenko (Rus) 6-2, 6-4 Maria Sharapova (1, Rus) bt Sania Mirza (Ind) 6-2, 6-1 Patty Schnyder (11, Sui) bt Nadia Petrova (4, Rus) 6-4, 6-4

 ATP POLAND OPEN 

 SOPOT, Quarter final (Friday) Tommy Robredo (2, Esp) bt Stefan Koubek (Aut) 5-7, 6-4, 6-1 Gilles Simon (Fra) bt Igor Andreev (Rus) 6-4, 7-5 Jose Acasuso (Arg) bt Florian Mayer (7, Ger) 7-6(4), 6-3 Albert Montanes (Esp) bt Martin Vassallo Arguello (Arg) 2-6, 6-4, 6-2

 ATP WASHINGTON OPEN

 Quarter final, (Friday) Andy Roddick (1, US) bt Lee Hyung-taik (5, Kor) 7-6(6), 6-2 Ivo Karlovic (7, Cro) bt Paul Capdeville (Chi) 4-6, 6-3, 7-6(5) Gael Monfils (9, Fra) bt Marat Safin (3, Rus) 6-3, 7-5 John Isner (US) bt Tommy Haas (2, Ger) 6-4, 6-7(6), 7-6(5)

 WTA STOCKHOLM OPEN 

 Singles Semi-final, (Saturday) Vera Dushevina (8, Rus) bt Julia Goerges (Ger) 6-4, 5-7, 6-3 Quarter finals Tsvetana Pironkova (Bul) bt Stephanie Cohen-Aloro (Fra) 6-7(3), 7-6(5), 6-1 Julia Goerges (Ger) bt Emilie Loit (3, Fra) 2-0 (Loit retired) Agnieszka Radwanska (2, Pol) bt Caroline Wozniacki (Den) 6-4, 6-1

 VOLLEYBALL

 COMMONWEALTH MEET FOR MEN

 CALCUTTA, Final (Saturday) Australia bt India 3-2 (25-18, 25-16, 24-26, 20-25, 15-11) Third place play-off: Pakistan bt South Africa 3-1 (25-10, 23-25, 25-21, 25-21).




</TEXT>
</DOC>