<DOC>
<DOCNO>1070925_sports_story_8358733.utf8</DOCNO>
<TEXT>


The Telegraph - Calcutta : Sports

 ATHLETICS

 World Final

 Stuttgart, (Sunday) Mens 200m 1. Jaysuma Saidy (Nor) 19.89s 2. Wallace Spearmon (US) 20.18s 3. Rodney Martin (US) 20.27s Mens 1500m 1. Daniel Kipchirchir Komen (Ken) 3:37.96s 2. Mehdi Baala (Fra) 3:38.35s 3. Suleiman Simotwo (Ken) 3:38.36s Mens 5000m 1. Edwin Cheruiyot Soi (Ken) 13:38.16s 2. Micah Kogo (Ken) 13:39.91s 3. Moses Masai (Ken) 13:39.96s Mens 110m Hurdles 1. Dayron Robles (Cub) 12.92s 2. David Payne (US) 13.08s 3. Terrence Trammell (US) 13.15s Mens 3000m Steeplechase 1. Paul Kipsiele Koech (Ken) 8:00.67s 2. Richard Kipkemboi Mateelong (Ken) 8:07.66s 3. Brimin Kipruto (Ken) 8:11.05s Mens High Jump 1. Donald Thomas (Bah) 2.32m 2. Stefan Holm (Swe) 2.30s 3. Linus Thoernblad (Swe) 2.27s Mens Long Jump 1. Andrew Howe (Ita) 8.35m 2. Brian Johnson (US) 8.16m 3. Godfrey Mokoena (RSA) 8.12m Mens Pole Vault 1. Brad Walker (US) 5.91m 2. Bjoern Otto (Ger) 5.86m 3. Steven Hooker (Aus) 5.81m Mens Hammer Throw 1. Ivan Tikhon (Bel) 82.05m 2. Krisztian Pars (Hun) 78.42m 3. Koji Murofushi (Jpn) 77.95m Mens Javelin Throw 1. Tero Pitkamaki (Fin) 88.19m 2. Andreas Thorkildsen (Nor) 85.06m 3. Magnus Arvidsson (Swe) 83.37m Womens 100m 1. Carmelita Jeter (US) 11.10s 2. Allyson Felix (US) 11.15s 3. Christine Arron (Fra) 11.20s Womens 400m 1. Sanya Richards (US) 49.27s 2. Novlene Williams (Jam) 50.12s 3. Christine Ohuruogu (GBR) 50.20s Womens 800m 1. Janeth Jepkosgei (Ken) 1:57.87s 2. Maite Martinez (ESP) 1:58.14s 3. Marilyn Okoro (GBR) 1:58.76s Womens 3000m 1. Meseret Defar (Eth) 8:27.24s 2. Vivian Cheruiyot (Ken) 8:28.66s 3. Prisca Jepleting (Ken) 8:29.06s Womens 400m Hurdles 1. Anna Jesien (Pol) 54.17s 2. Jana Rawlinson (Aus) 54.19s 3. Melanie Walker (Jam) 54.31s Womens Triple Jump 1. Y. Savigne (Cub) 14.78m 2. H. Devetzi (Gre) 14.75m 3. T. Lebedeva (Rus) 14.72m Womens Shot Put 1. N. Ostapchuk (Bel) 20.45m 2. V. Vili (NZ) 20.40m 3. N. Kleinert (Ger) 19.36m Womens Discus Throw 1. Franka Dietzsch (Ger) 62.58m 2. Vera Cechlova (Cze) 62.04m 3. Nicoleta Grasu (Rom) 61.75 

 CHESS

 WORLD CHAMPIONSHIP

 MEXICO CITY: Round IX(mONDAY) Viswanathan Anand (Ind, 6) drew with Levon Aronian (Arm, 4); Peter Leko (Hun, 4.5) drew with Peter Svidler (Rus, 3.5); Alexander Morozevich (Rus, 4) beat Vladimir Kramnik (Rus, 4.5); Alexander Grischuk (Rus, 4.5) beat Boris Gelfand (Isr, 5)

 FOOTBALL

 Bundesliga

 Sunday Hanover 96 0 Bayer Leverkusen 3 (Stefan Kiessling 50, Arturo Vidal 68, Theofanis Gekas 74pen) Karlsruhe SC 1 (M. Porcello 52) Bayern Munich 4 (L. Toni 5, M. Klose 20, Hamit Altintop 49, Ze Roberto 75) 

 Premier League

 Sunday Manchester United 2 (Tevez 45+3, Louis Saha 89pen) Chelsea 0 Blackburn Rovers 0 Portsmouth 1 (Nwankwo Kanu 24) Bolton Wanderers 1 (Ivan Campo 39) Tottenham Hotspur 1 (Robbie Keane 34) Aston Villa 2 (John Carew 14, Gabriel Agbonlahor 61) Everton 0 Newcastle United 3 (Mark Viduka 2,41, Charles NZogbia 76) West Ham United 1 (Dean Ashton 32)

 Primera Liga 

 Sunday Real Valladolid 1 (P. Lopez 70) Real Madrid 1 (J. Saviola 86) Atletico Madrid 4 (R. Garcia 12, S. Aguero 69, D. Forlan 77, Simao 86) Racing Santander 0 Getafe 0 Deportivo Coruna 0 Levante 1 (C. Rigano 77) Athletic Bilbao 2 (A. Aduriz 8,73) Real Betis 1 (R. Sobis 86) Valencia 2 (Miguel 69, Joaquin 83) Real Zaragoza 2 (Matuzalem 17, D. Milito 70pen) Osasuna 1 (Juanfran 24) Almeria 1 (Mane 33) Real Mallorca 1 (Daniel Guiza 78) Villarreal 2 (G. Rossi 85,90) Real Murcia 0

 Serie A 

 Sunday Sampdoria 0 Genoa 0 AS Roma 2 (Francesco Totti 30,36) Juventus 2 (David Trezeguet 17, Vincenzo Iaquinta 87) Atalanta Bergamo 2 (Antonio Langella 43, Riccardo Zampagna 90+3) Lazio 1 (Massimo Mutarelli 69) Cagliari 0 Palermo 1 (Cristian Zaccardo 15) Catania 0 Fiorentina 1 (Adrian Mutu 4) Empoli 0 Napoli 0 Livorno 2 (Daniele De Vezze 1, Massimo Loviso 62pen) Inter Milan 2 (Zlatan Ibrahimovic 35,72pen) Torino 1 (Hernan Dellafiore 24) Siena 1 (M.Maccarone 53)

 GOLF

 British Masters 

 BELFRY, (Sunday) 273 Lee Westwood (GBR) 68 70 70 65 278 Ian Poulter (GBR) 67 71 70 70 279 Mark Foster (GBR) 71 66 69 73 281 Fredrik Andersson Hed (Swe) 67 73 68 73, Michael Campbell (NZ) 73 69 69 70, Niclas Fasth (Swe) 75 66 67 73, Miguel Angel Jimenez (ESP) 71 69 70 71, Soren Kjeldsen (Den) 66 72 74 69, Zane Scotland (GBR) 69 73 70 69, Sam Walker (GBR) 71 67 75 68 282 Benn Barham (GBR) 70 75 67 70, Gregory Bourdy (Fra) 70 73 65 74, Nick Dougherty (GBR) 72 68 75 67, Francesco Molinari (Ita) 68 72 69 73 

 US PGA Tour

 VERONA, (Sunday) 270 Steve Flesch (US) 66 65 66 73 272 Michael Allen (US) 69 67 68 68 273 John Senden (Aus) 66 70 70 67, John Mallinger (US) 67 70 68 68 274 Tommy Armour III (US) 70 68 68 68, Mathew Goggin (Aus) 66 69 70 69, Charley Hoffman (US) 69 65 71 69, Parker McLachlin (US) 70 68 65 71, Carl Pettersson (Swe) 69 66 66 73 275 Bill Haas (US) 69 66 69 71, Charles Warren (US) 68 65 68 74 

 RUGBY

 WORLD CUP

 Edinburg, Pool C Scotland (0) 0 New Zealand (20) 40 (tries: McCaw, Howlett 2, Kelleher, Williams, Carter, conversions: Carter 2, pens: Carter 2) 

 Montpellier, Pool B Australia (22) 55 (tries: Giteau 2, Mitchell 3, Ashley-Cooper, Hoiles, conversions: Giteau 4, pens: Giteau 3, drops: Barnes) Fiji (5) 12 (tries: Neivua, Ratuva, conversions: Bai, conversions: Lemi )

 TENNIS

 ATP Mumbai MEET

 MUMBAI, Singles, Round I (Monday) Bjoern Phau (Ger) bt Wesley Moodie (RSA) 6-3, 2-6, 6-4 Richard Gasquet (1, Fra) bt Kristof Vliegen (Bel) 6-1, 6-2

 WTA Calcutta Open

 CALCUTTA, Singles final (Sunday) Maria Kirilenko (4, Russia) bt Mariya Koryttseva (Ukr) 6-0, 6-2




</TEXT>
</DOC>