<DOC>
<DOCNO>1070212_sports_story_7381091.utf8</DOCNO>
<TEXT>


The Telegraph - Calcutta : Sports

 SCORE CARD

England

M. Loye

run out

45

E. Joyce

c Hodge b McGrath

15

I. Bell

run out

26

A. Strauss

c Gilchrist b Bracken

6

P. Cwood

c Gilchrist b Bracken

70

A. Flintoff

c amp;b Lee

 42

J. Dalrymple

run out

5

P. Nixon

c Hodge b McGrath

6

L. Plunkett

not out

8

Extras (b-5, lb-4, w-9, nb-5)

 23

Total (for 8 wkts in 50 ovs)

246.

Fall of wks: 1/34, 2/79, 3/86, 4/112, 5/209, 6/231, 7/233, 8/246.

Bowling: Lee 10-0-53-1, Bracken 10-1-38-2, Mcgrath 10-0-41-2, Watson 8-0-46-0 , Hussey 2-0-12-0, Brad Hogg 10-0-47-0

Australia

A. Gilchrist

b Plunkett

20

M. Hayden

c Cwood b Mahmood

5

R. Ponting

c Strauss b Plunkett

7

M. Clarke

c Nixon b Plunkett

0

M. Hussey

c Strauss b Flintoff

0

B. Hodge

c Bell b Dalrymple

49

S. Watson

c Dalrymple b Cwood

37

B. Hogg

c Flintoff b Cwood

10

B. Lee

not out

10

N. Bracken

not out

3

Extras (lb-2, w-6, nb-3)

11

Total (for 8 wkts in 27 overs)

152

Fall of wkts: 1/25, 2/33, 3/39, 4/40, 5/63, 6/109, 7/132, 8/139

Bowling: Plunkett 6-0-43-3, Mahmood 6-0-31-1, Flintoff 5-1-10-1, Panesar 2-0-15-0, Dalrymple 4-0-25-1, Collingwood 4-0-26-2.

Note: England won by D/L method




</TEXT>
</DOC>