<DOC>
<DOCNO>1070522_sports_story_7811905.utf8</DOCNO>
<TEXT>


The Telegraph - Calcutta : Sports

 Sania drops to No. 52

New Delhi: Sania Mirzas Morocco Open doubles triumph saw her doubles ranking improve to No. 37 on the WTA list issued on Monday. 

The first round exit in the singles event , however, made her drop one place to No. 52 on the singles list. She has 503 ranking points. 

The 20-year-old, back after a two-and-a-half-month injury lay-off, teamed up with American Vania King to clinch the doubles title in Fes on Saturday. The win pushed her up four places with 1027 points. 

On the mens side, Leander Paes stayed at No. 6 on the individual doubles list with 3940 points. Mahesh Bhupathi moved up two places to 23rd with 1670 points. 

In the Champions Race, Paes and his Czech partner, Martin Damm, moved down one spot to No. 3 with 345 points. 

THE TOP 10 

(Last weeks position in brackets) 

ATP 1. (1) Roger Federer (Sui, 7515 points); 2. (2) Rafael Nadal (Esp, 5225); 3. (4) Andy Roddick (US, 2930); 4. (3) Nikolay Davydenko (Rus, 2905); 5. (5) Fernando Gonzalez (Chi, 2810); 6. (6) Novak Djokovic (Srb, 2810); 7. (8) Ivan Ljubicic (Cro, 2260); 8. (9) James Blake (US, 2180); 9. (7) Tommy Robredo (Esp, 2100); 10. (11) Tommy Haas (Ger, 2095). 

WTA 1. (1) Justine Henin (Bel, 4119); 2. (2) Maria Sharapova (Rus, 3388); 3. (3) Svetlana Kuznetsova (Rus, 3032); 4. (5) Jelena Jankovic (Srb, 2727); 5. (4) Amelie Mauresmo (Fra, 2702); 6. (6) Martina Hingis (Sui, 1991); 7. (7) Nicole Vaidisova (Cze, 1933); 8. (8) Ana Ivanovic (Srb, 1906); 9. (11) Serena Williams (US, 1880); 10. (10) Anna Chakvetadze (Rus, 1866). (AGENCIES) 




</TEXT>
</DOC>