<DOC>
<DOCNO>1070611_sports_story_7906213.utf8</DOCNO>
<TEXT>


The Telegraph - Calcutta : Sports

 FOOTBALL

 PRIMERA LIGA

 Saturday Atletico Madrid 2 (Maxi Rodriguez 28, 70) Celta Vigo 3 (Fernando Baiano 31pen, 67, Yago 47) Barcelona 2 (Lionel Messi 43, 57) Espanyol 2 (Raul Tamudo 29, 90) Levante 4 (Riga 3, 49, Salva 11, Laurent Courtois 75) Valencia 2 (Joaquin 16, Ruben Baraja 88) Real Mallorca 0 Sevilla 0 Real Betis 0 Osasuna 5 (Miguel Flano 32, Pierre Webo 62, Valdo 72, Enrique Sola 76, 88) Real Sociedad 0 Racing Santander 0 Real Zaragoza 2 (Diego Milito 32pen, 64) Real Madrid 2 (Ruud van Nistelrooy 57, 89) Villarreal 3 (Diego Forlan 37pen, 38, Ustaritz 52og) Athletic Bilbao 1 (Andoni Iraola 22).

 GOLF

 ST JUDE CHAMPIONSHIP

 Memphis, Round II (Saturday) 133 Adam Scott (Aus) 67 66 134 Brian Gay (US) 68 66 136 Andrew Buckle (Aus) 70 66 137 Fredrik Jacobson (Swe) 67 70 138 Duffy Waldorf (US) 69 69, Brian Davis (GBR) 70 68, Scott Verplank (US) 69 69, David Toms (US) 70 68, Woody Austin (US) 72 66, Brandt Snedeker (US) 70 68 Round III (Saturday) 201 Adam Scott (Aus) 67 66 68 204 David Toms (US) 70 68 66, Brian Gay (US) 68 66 70 205 Woody Austin (US) 72 66 67 206 Brian Davis (GBR) 70 68 68 207 Dean Wilson (US) 70 71 66, Will MacKenzie (US) 71 69 67, Joe Durant (US) 73 66 68, Brandt Snedeker (US) 70 68 69, Fredrik Jacobson (Swe) 67 70 70. 

 AUSTRIAN OPEN

 Vienna, Round III (Saturday) 198 Richard Green (Aus) 66 65 67 201 Richard McEvoy (GBR) 66 71 64 202 Steven Jeppesen (Swe) 67 66 69, Miguel Angel Jimenez (Esp) 68 65 69 203 Michael Jonzon (Swe) 70 69 64, David Park (GBR) 69 66 68, Johan Skoeld (Swe) 70 69 64 204 Chris Gane (GBR) 75 65 64, Gary Orr (GBR) 71 67 66, Jean-Francois Remesy (Fra) 72 67 65, Jarmo Sandelin (Swe) 67 68 69, Graeme Storm (GBR) 63 72 69, Shaun Webster (GBR) 65 71 68. 

 THAILAND OPEN

 Indian scores (Saturday) Gurbaaz Mann 73 66 72, SSP Chowrasia 71 66 74 Gaurav Ghei 72 70 71 Rahil Gangjee 74 68 73 Digvijay Singh 75 71 70 Arjun Singh 75 71 72 Amandeep Johl 78 72 Amardip Malik 83 77 Round IV (Sunday) 268 Lee Sung (Kor) 66 69 62 71 271 Prayad Marksaeng (Tha) 69 72 64 66 273 Taichiro Kiyota (Jpn) 70 69 68 66, Prom Meesawat (Tha) 72 67 66 68 275 Mardan Mamat (Sin) 72 65 67 71 276 Adam Blyth (Aus) 69 68 69 70 277 Lin Wen-Tang (Tpe) 69 67 72 69 278 Lu Wen-Teh (Tpe) 71 69 71 67 279 Rashid Ismail (Mas) 72 72 69 66, Han Lee (US) 71 73 67 68, Thaworn Wiratchant (Tha) 69 69 69 72, Chapchai Nirat (Tha) 72 64 72 71, Chris Rodgers (Eng) 70 71 68 70, Chawalit Plaphol (Tha) 73 67 66 73 280 Mitchell Brown (Aus) 74 71 73 62, Thongchai Jaidee (Tha) 71 70 68 71 281 Kwanchai Tannin (Tha) 75 69 67 70 282 Neven Basic (Aus) 71 67 75 69, Brad Iles (Nzl) 74 69 72 67 283 Olle Nordberg (Swe) 72 70 71 70, Tony Lascuna (Phi) 70 70 69 74 284 Gaurav Ghei (Ind) 72 70 71 71, Gurbaaz Mann (Ind) 73 66 72 73, Chen Yuan-Chi (Tpe) 70 72 68 74.




</TEXT>
</DOC>