<DOC>
<DOCNO>1070408_calcutta_story_7614814.utf8</DOCNO>
<TEXT>


The Telegraph - Calcutta : Metro

 Cinema

 ENGLISH

 DREAMGIRLS (U/A): New Empire (12.30 pm, 3 pm, 6 pm, 8.30 pm), Inox (Forum; 6.15 pm), Inox (City Centre; 10.20 am, 5.15 pm), Fame (Hiland Park; 12.45 pm, 10.25 pm)

 FLAGS OF OUR FATHERS: Globe (12.30 pm, 3 pm, 6 pm, 8.30 pm)

 PRIMEVAL (A): Inox (Forum; 10.15 am, 4.25 pm, 8.35 pm), Inox (City Centre; 10.10 am, 2.10 pm, 8.30 pm), 89 Cinemas (Swabhumi; 10.10 am, 2.15 pm, 8.15 pm), Fame (Hiland Park; 10.10 am, 4.15 pm, 8.40 pm)

 THE NAMESAKE (U/A): Prachi (noon), Priya (12.15, 5, 7.15), Inox (Forum; 5.05, 9.30), Inox (City Centre; 12, 6.10, 10.50), 89 Cinemas (Swabhumi; 2.55, 7.55), Fame (Hiland Park; 2, 5.25), Sanskrit Lok Mancha (1 pm)

 300 (A): Inox (Forum; 2.15 pm), Inox (City Centre; 4 pm)

 HINDI

 DELHII HEIGHTS: Inox (Forum; 12.40), 89 Cinemas (Swabhumi; 12 noon), 89 Cinemas (Durgapur; 10.45)

 DHOOM:2: Hind (12, 3, 6, 9), Menoka (12.30, 3, 6, 9), Malancha (2, 5, 8), Ashoka (Behala; 2 pm)

 EKLAVYA: Fame (Hiland Park; 12 noon)

 GURU: 89 Cinemas (Swabhumi; 10 am)

 HONEYMOON TRAVELS PVT. LTD. (U/A): Inox (Forum; 10.25 am), Inox (City Centre; 10.25 am), Fame (Hiland Park; 10 am)

 JUST MARRIED: Chaplin (12.30 pm, 3 pm, 6 pm)

 NAMASTEY LONDON: Jyoti, Inox (Forum; 10.10, 12.40, 3.15, 5.50, 8.20, 10.50), Inox (City Centre; 10.05, 12.35, 3.10, 5.45, 8.20, 10.20), 89 Cinemas (Swabhumi; 10.35, 1.15, 3.55, 5.15, 6.35, 9.15, 10.35), Fame (Hiland Park; 10.20, 12.10, 2.35, 5.05, 7.35, 10.10), Shanti (Kadamtolla), Anjana (Ranigunj), 89 Cinemas (Durgapur; 10, 12.35, 3.10, 5.45, 8.29), Inox (Darjeeling; 11, 1.30, 4, 6.30)

 PRIMEVAL (A): Paradise, Star Theatre (12.15, 5), Basusree, Kamal, Sonali (noon), Lali (Barasat), Udayan, Sridurga (Chandernagore), Krishti, Geetanjali (Bolpur)

 PROVOKED (A): Roxy, Inox (Forum; 12.05 pm, 2.55 pm, 7.20 pm, 10.30 pm), Inox (City Centre; 12.50 pm, 3.05 pm, 7.40 pm, 9.50 pm), Priya (2.30 pm), 89 Cinemas (Swabhumi; 12.50 pm, 4.05 pm, 6.10 pm, 10.05 pm), Fame (Hiland Park; 3.10 pm, 7.40 pm, 9.50 pm)

 SHAKA LAKA BOOM BOOM (U/A): Elite, Priya, Basusree, Navina (12.30 pm, 3.30 pm, 6.30 pm), Inox (Forum; 10 am, 12.30 pm, 3 pm, 5.50 pm, 7.55 pm, 10.30 pm), Inox (City Centre; 10 am, 12.30 pm, 3 pm, 5.50 pm, 7.55 pm, 10.30 pm), 89 Cinemas (Swabhumi; 10 am, 12.30 pm, 3 pm, 5.30 pm, 8 pm, 10.30 pm), Fame (Hiland Park; 10 am, 12.15 pm, 2.40 pm, 5.05 pm, 6.15 pm, 7.45 pm, 10.15 pm), Star Theatre, Moonlight, Taswir Mahal, Purabi, Ragini, Jaya, Sonali, Sree Laxmi (Kanchrapara), Kalyani Cinema (Naihati), 89 Cinemas (Durgapur; 10.20 am, 12.50 pm, 3.20 pm, 6 pm, 8.30 pm), Inox (Darjeeling; 11.15 am, 1.45 pm, 4.10 pm, 6.35 pm)

 BENGALI

 KAAL (A): Prachi (2, 5, 7.45), Mitra (12, 3, 6, 8.30), Bharati (3, 6, 8.30), Padmasree, Parbati (Howrah), Milan (Baruipur), Chhayabani (Barasat)

 SHAPMOCHAN: Ashoka (Behala), Chetna (Dum Dum), Binodini (Baguihati)




</TEXT>
</DOC>