<DOC>
<DOCNO>1070629_calcutta_hello.utf8</DOCNO>
<TEXT>


The Telegraph - Calcutta : Metro

 Hello!

INDIAN AIRLINES

Helpline No. (Call Centre) 1407

Toll-free Helpline No. (Call Centre from BSNL/MTNL landlines) 1800-180-1407 for flight information, booking and tele check-in.

OTHER AIRLINES

Air-India City office: 22822356 -9 (board) , 22821187 (reservations), 22827346 (sales), Fax: 22827875; Airport: 2511-9031/9864 (duty manager), Fax: 25118639

Biman Bangladesh Airlines Airport: 25118772

British Airways 9831377470 (reservation); Airport: 2511-8262/ 8424, Fax: 25118050

Jet Airways Reservation: 22292227; City office: 2229-2660/ 2237/ 2214/ 0740/ 2813/ 2084

Airport 2511-9894/ 8836

Malayasia Airlines 22824433

Royal Jordanian Airlines 24745091-4, 2475-1261/ 1272/ 9263, 25119069 (Airport); Fax: 24749235

Sahara Airlines Ltd 22828969/ 7686/ 9075/ 0811

Airport 25119545 (reservation), 25118787 (Ext. 4202-3)

Singapore Airlines Reservation/ Ticketing: 22809898 (4 hunting lines); Sales (Passenger): 22808484, 22808585

Cargo 2511 8372

Airport 25119179/8978

Thai Airways 39827000/ 22838865/68; Fax: 39827197

Druk Air (City) 2280 5376, 22402419 (Airport) 25119976

Gulf Air 22477783/ 72526/75576

RAILWAYS

Reservation Enquiries(Manual/Fairlie Place) 135; Computerised Inter-active Voice Response System for Reservation PRS: 138

Central Enquiry (Manual) 1310, (Recorded; for all trains on Eastern and South-Eastern Railways at Howrah and Sealdah): 1331 and 1332

Sealdah Enquiry (Manual) 23503535, 23503537; (computerised): 2350-3536/6825/ 8828/ 8836/ 8876/9736

Howrah Enquiry (IVRS) 26603535; (Manual): 26602581/ 26607412

Howrah Station New Complex 26602217

RESTAURANTS

BENGALI

Aaheli 22280301

Bhojohori Manna (Ekdalia Rd) 24401933,9830304332

Bhojohori Manna (Hindustan Rd) 24663941, 24667686

Bhojohori Manna (Priyanath Mullick Rd) 9836377512, 24545922,32934471

Bhojohori Manna (Salt Lake) 30960607,9339872195,32960607

Bhoomi 9830820436

Dawat 22523271, 22520388

Kasturi 22523493

Kewpie's 24759880, 24748962, 24769929

Oh! Calcutta 22837161-4

Royal Bengal Room 23583720

Sonargaon 22233939(extn 3301/3185)

6 Ballygunge Place 30909743, 24603922

Suruchi 22291763,22293292

Tero Parbaon 24632016

Bay of Bengal 24658973

MUGHLAI

Aminia 22441318, 22443707

Arsalan 22848556/58, 22844010

Chef's Cuisine 24003761/2/5

Kadai 24657040/7047

Khawab- Survey Park 24188105

Khawab(takeaway) 9230514249

La Terrasse 22492323

Moghul Room 22492323

New Aliah 22488858, 22437802

On Track 22273955/56

Peshawri 23454545

Rahmania 22812683, 22877981

Royal India Hotel 22681073, 28603659

Sabir 28611356, 22129831

Shiraz (Park Street) 22805006

Shiraz (Survey Park) 3253008

Shiraz (Keshtapur) 32947579

Shiraz (Bagha Jatin) 32535001

Shiraz (Saltlake) 32535004

Shiraz (Jadavpur) 24299079

Sonargaon 22233939

Trincas The Other Room 22298947/7825

Tandoori Hut 24574908

Treats 22847105, 28652240

Zeeshan 22806842

CHINESE

Bengal Intelligence Park 23570326, 32921928

Beijing 23281011/3998

China Bistro NA

China Bowl 24640042

China Haus 23282273/76

China Moon 24003761-2/5

China Valley 22831864/96

Chinoiserie 22233939 Fax: 22231766

Chung Wah 22377003

Eau Chew 22378260

Flavours of China 22298885/7833

Golden Dragon 22293507

Hatari (Rashbehari) 24643339

Hong Kong (Prince Anwar Shah Road) 24170179

Haka 23581359

Jimmy's Kitchen (AJC Bose Road) 22800486

Jimmy's Kitchen (Lindsay Street) 22527165

Jong's 22499744, 2490369/0370/9744

Kim Ling 28650996

Krystal Chopstick 24643449

Mainland China 22837964/65/66

Mandarin 24662276

Marco Polo in China 22273939, 9831017727

Oriental 22802323

Oriental Wok 24003761-2

Peiping 22299112

Red Hot Chilli Pepper 24559560, 24744108

Shanghai 24739313, 9831169769

Song Hay 22480974, 22420476

Tangra Kaizen 24762235

The Grub Club (Southern Avenue) 24645062

Treats 22847105, 28652240

Trincas (Ming Room) 22298947/7825

Tung Fong 22174969/89/6563-4

Waldorf 22271131

Hatari (Garia) 24356816

Hong Kong (Kankurgachhi) 23558785

The Grub Club (Chittaranjan Avenue) 22363711

ITALIAN

Domino's (Judges Court Rd) 24491161-4

Domino's (Salt Lake) 23594981-4

Domino's (New Empire) 22171243-44, 32402552

Domino's (Ballygunge) 24742747-50

Domino's (Russell St) 22176085-86/90

Domino's (Gariahat Rd) 24837471/74-6

Don Giovanni's (Jodhpur Park) 24133243

Don Giovanni's ( Park St) 22299797/6575/3759/2876

Don Giovanni's (D H Rd) 24398822, 24481747

Don Giovanni's (Salt Lake) 23597680, 23371048

Fire and Ice 22884057/4073

La Cucina 23351234

Little Italy 22825152/53

Pizza Hut ( Camac St) 22814328/ 4343

Pizza Hut ( Ballygunge) 24860241, 24864241/42/43

Pizza Hut ( Forum) 22814327

Pizza Hut ( City Centre) 23580984/8

The Hub 22233939

MULTI-CUISINE

Amazon 24292577, 32515525

Amber (Waterloo St) 22486520/3477

Amber (Southern Av.) 24636514/5964

Ambrosia 23587373/0809

Around the Corner 22836607,22836607

Ar Salan 22813921

Badshah Bar and Restaurant 22494185

Banzara 24830941

Bar-B-Q 22299916/9078

Bawarchi 24149486

BB's 40061999, 40061960

Bedwin 24644615, 24634031

Bouquet Garni 32597593, 32545984

Bowler's Den 23578101-2

Cinnamon Restuarant Lounge 22274974. 55502207/08

Caught n Bowled 65101000/23580333

Charnock's 23351349/1086

Crystal Cuisine Restuarant 30917209

Copper Chimney 22834161

Copper Grill 24635271/2

Crystal Cuisine Restaurant 30917209, 22275206

Dissolve 24003761,24003762,24003765

Eden Pavilion 23454545

Extacy - The Launch Cafe 32971230

Flavours of India 22401972/6574

Floriana 22175190

Food Court- Burp 22831396

Ivory 22811313

Indus Valley 22817805

Kipling's Klub 23358382

Klub Karaoke 23203903/23205487

Kebab e que 22429957

Kurry Klub(Sarat Bose Rd) 24661979

Kurry Klub (CIT) 23550354

Kwality (Gariahat) 24607079

Kaafila 40063210, 40063211

La Terrasse 22492323

Magnolia 22298997

Maharaja 22826614

Manthan 22489577/0442

Marco Polo 24630909

Mishra's 23344641, 23216127

Mocambo 22464300, 22290095, 22175372/65

Moulin Rouge 22299397, 22298950

McDonald's 22262455, 22262456

New Cathay 22491952, 22172618

Oasis 22299033

Olympia 22299306

Orko's 23584274

One Step Up 22295339, 9830135809

Palm Court 22802323

Pakwan 24653476/3473

Pan Asian 23454545 ext 4371/4380

Peter Cat 22298841, 22172942

Peshawri-North West Frontier Cuisine 23454545 (Extn: 4320/4551)

Peter Cat 22298841, 22172942

Princess 22524715

Regent Restaurant 22491442

Rallis 24601508

Sagar 22377979, 30281033

Seven Heavens 22832501

Sher-E-Punjab 25672848/4848/5444

Shradha 22806670

Sonargaon 22233939

Sourav's The Food Pavilion 22274646/47/48

Spice Garden 25732340

Starlit Cafe 22824446

Starstruck 30901030/1664

Silver Grill 22174649, 22294549

Taaja's 24767334, 24852915

Tandoor Park 24734845, 24299682

Tamarind 30954226, 24851199

Tangerine 22815450/60

Tasty Corner 22895597

The Atrium 22493121

The Bistro 9831163653

The Pen and Ink 23358382/8359

The Sheriff 9830886820

The Silver Oak 24669356, 24646000

The Social 30906925

Tit-Bits 22826123

Trincas 22297825/8947

Fusion 22883939

Zaranj 22495572/0361/0370

Zen 22493121

Kurry Klub (CIT) 23203444

Kwality (Park St) 22297849

West view Bar Grill- The Western Grill 23454545

Yagna 9830820436

Yummy- Food Court 24613502

PUNJABI

Azad Hind Dhaba 24864742, 24866475, 24865652

Dilli Darbar 23555290/2381

Dum Pukht 23454545

Golden Harvest 22831864, 22831896

Golden Spoon 22293502

Guchhi 23351234

Honey-Da Dhaba 23556801-4

Kalash 22802323

La-Zeez 22230157/3254

Mirch Masala 24618900

Saffron 22493121

Sanjha Chulha 23455419, 30912576

Sonar Gaon 22233939/1766/8805

Tandoor House 24664118

The Dhaba 24615227/5171

THAI

Ar-Han-Thai 22436766

Baan Thai 22492323

Twinkle Fung Shway 9831707544

TIBETAN

Momo Plaza 22878260

Orchid 22879127

UDIPI

Anand 22129757, 22128344

Banana Leaf 24641960/0941

Chennai Kitchen 22488509, 22435271

Jyoti Vihar 22829791

Madras Restaurant 22379764

Malgudi Jn 22804889, 30284757

Raj Restaurant 24754344

Tamarind 30954226, 24851199

Tripti 24666917

VEGETARIAN

Blossoms 24489463

Flavours 9830886820

Gangaur 22264191/5009

Gangotri 23373072, 23597209

Gokul (CIT Rd) 23200644/45

Gokul (New Alipore) 24782622

Gokul (AJC Bose Rd) 22821365/8011/8170

Govinda's 24866922

Gupta Brothers ( New Alipore) 24557161, 24071761

Gupta Brothers ( Ballygunge) 22800576

Gupta Brothers ( Sambhunath Pandit St) 24556328

Gupta Brothers ( Chetla Rd) 24797605/1981

Gupta Brothers ( Park St) 22161634, 22837630

Haldiram's Pure Food (VIP Rd) 9830011129

Haldiram's Pure Food (Jagmohan Mullick Lane) 9830011135

Haldiram's Pure Food (Kankurgachhi) 9830011138

Haldiram's Pure Food (SP Mukherjee Rd) 9830011137

Haldiram's Pure Food (Jackson Lane) 9830011139

Haldiram's Pure Food (EM Bypass) 9830011134

Haveli 23597997/7627

Jharokha 22161633/34

Just Rolls 22824446

Krishna Vilas 22283068, 28610884

Mission Cafe 22370997/9426

Shree Vatika 28702074,24664089

Teej 22170730, 22264191

BAR

Blue and Beyond 22522237/8

Chowringhee Bar 22492323

Cloud Nine 22829950/57-9/17/6215

Corn and Kebab 24613533/34

Dissolve 24003761-2

Polo Club 22802323

Roxy 22493121/9000

The Bar 23351234

The Junction 22233939

Trincas The Tavern 22297825/8947

Green Palace 24552981/7936

Raul's Bar Restaurant 24543961

ICE CREAM

Baskin Robbins 23584038

India Hobby Centre 22261910

Mama Mia 24586557

COFFEE/TEA

Barista 55347587

By The Way 22233939/3302/3311

Cafe Bollywood 24406791

Cafe Coffee Day (Sec V) 32954673

Cafe Coffee Day (Camac St.) 32954772

Cafe Coffee Day (Rowdon St.) 39597895

Cafe Coffee Day (Binani Building) 39597895

Cafe Coffee Day (New Alipore) 39598635

Cafe Coffee Day (Hungerford St.) 32598923

Cafe Coffee Day (City Center) 32954671

Cafe Coffee Day (Ballygung) 32954673

Coffee Pai 9831292372/76

Dreams Cafe 9830489602

Flury's 22297664

India Coffee House 22375649

Indian Coffee House 24736476

Mission Cafe 22379426/ 22370997

The Sweet Valley Tea Co. 24663448

T3, The Tea Table 22273958, 55502122

CONFECTIONERY

Baker's Square 22831890

Belgique Chocolates 23584004

Cakes 24406791

Kookie-Jar 24490863, 55444547

Mithai Shop - The Gourmet Deli 23454545

BENGALI SWEETS

Balaram 24869490

Balaram (Park St) NA

Banchcharam 24402132-3

Bhim Chandra Nag 22580378

Chittaranjan Mistanna Bhandar 25556025, 25548270

Gobinder Mishti 24071697

Hindustan Sweets 24122797/98/16048

Nandalal Ghosh Sons 23508725

Nani Lal Ghosh 25547374

Sen Mahasay(Rashbehari) 24406373

Sen Mahasay (AM Rd) 24551135

Sen Mahasay (Shyambazar) 25555022/3319

K.C Das(Esplanade) 22485920

K.C Das(Lake Town) 25343193

K.C Das(Menoka Cinema) 24658973

K.C Das(Bagbazar) 25300533

K.C Das(Rippon St) 22275870

NON-BENGALI SWEETS

Haldiram Bhujiawala 22821359

Candy Treats 30527441

Sharma's 24601918

Tewari Confectioners(CIT Road) 23558373,23558373

Tewari Confectioners (AJC Bose Rd) 22871161/5613

Tewari Confectioners (JM Lane) 22683020/8913

Tewari Sweets 22689392

HOSPITALS

Mission of Mercy Hospital Research Centre 2229-6270/44046

National Medical College Hospital 22440122-3

NRS Medical College Hospital 22443213

The Apollo Clinic Shakespeare Sarani 22837407/8/9

Calcutta Medical College Hospital 22414901-2

Lady Dufferin Hospital 23500771

Peerless Nightwatch 25577115

R.G. Kar Medical College Hospital 25557656

AMRI Hospitals 2461-2626; Fax: 24404803

Apollo Gleneagles Hospitals Diagnosis and ambulance 8 am - 8pm) 23202122/3040; Toll-free: 1800-345-1066; Helpline/Ambulance: 1066

Behala Balananda Brahmachari Hospital 2478-7801/ 1687 24684060

Belle Vue Clinic (with blood bank ambulance) 22872321/ 6925/ 7473

Bhagirathi Neotia Woman Child Care Centre 2281-5000

B.M. Birla Heart Research Centre (with ambulance) 24567001-9; 24567800-4, 24567890

B.P. Poddar Hospital Medical Research Ltd 24458901-7

Calcutta Medical Research Institute 2456-7101/2/3, 2456-2674/7700/2/3

Calcutta Heart Research Centre (with ambulance); 8 am - 8 pm 2475-6747/8494; 4747613; 4760740

Cancer Centre Welfare Home, Thakurpukur 24532781/2/3; 24674433

Calcutta Lions Netra Niketan 24735009, 24130237

Good Samaritan Hospital 22812789/0200

Kothari Medical Centre 24567049/50/51/52

National Neurosciences Centre Calcutta 2432-0777/0999

Nightingale Diagnostic Medicare Centre (with CT scan laser treatment for eye problems) 2282-7255/7263/7969-72

Park Clinic 2280-1986/7, 2281-7600/7664, 2247-2586

Peerless Hospital 2462-2394/2462/0955/0071-4, Fax: 24620766

Rabindranath Tagore International Institute of Cardiac Sciences 24363000, 24363401-5

Sambhu Nath Pandit Hospital 22470078

Ruby General Hospital 24420291/6091/6576

Sree Arobindo Seva Kendra (EEDF) 24726478-9

SSKM Hospital 2223 026/9654/4246/9692

Sunetra Family Eye Care Centre 2418 8223-27

Wockhardt Hospital Kidney Institute (urology dialysis unit and ambulance service) 24633320; Fax: 24634802

Wockhardt Medical Centre 24754320/4096, 24749164/65; Fax: 24749237

Woodlands 24567080-1/7076-9

ESI Hospital 2337-7211-2/7214/7445/9235

Suraksha 23358595/7710

Susrut Eye Foundation 23580201, 23341628

Howrah Lions Eye Bank 9830024000

West Bank Hospital, Andul Road 2644-5516/9800/8888-9/8298/5678

HELPLINES

West Bengal State AIDS Prevention Control Society 1097 (toll- free); 22456262; 24460066; 2665440

AIDS Hotline 22416200

Alcoholics Anonymous 22841202 (weekdays 2 pm - 6 pm)

Al-Anon 24659913 (Mon.-Fri.; 2pm-6 pm)

Childline 1098

CFI Cancer Helpline 2405-3131/6161 (Mon - Fri.; 10 am - 6 pm)

CMC Public 2244-6801/2365 (tree felling); 22232643/22484894/23358212 (noise pollution); 22232643 (air pollution); 23356731 (gar-bage); 22446015 (water pollution); 22161160 (drainage); 22459637 (wall defacing); 22268897 (food adulteration); 22440560 (power tapping)

ASKLINE 24176128 (Mon. to Fri.; 1 pm - 6 pm; tele face-to-face counselling for young people (10-25 yrs) parents and teachers on relationships sex-education, workshops on self discovery, life skills, family life education, stress management, HIV/ AIDS, etc)

HIV/AIDS Saadhan Helpline 24007777 (9.30 am - 8 pm)

LIFELINE (Tele-helpline for the depressed and suicidal) 2474-5255/ 5886 (10 am - 6 pm)

SERVE (Telecounselling for students) 22823903

SWAYAM (counselling legal support to fight violence on women): 2280 3688/3429

TEENLINE (for 10-24 yrs; information on sexual reproductive health, emotional problems career guidance) 24611463 (Mon. - Sat.; 10 am - 5 pm); face-to-face counselling on emotional problems (Wed, Thurs Sat, 11 am - 4 pm, by appointment only)

Exide BAT Mobile Service 2284 4564/70

Mbition career care career guidance from class IV onwards 2476-4218

DIGNITY FOUNDATION (companionship for senior citizens) 24614954

SAMARITANS 22160083

ANIMAL HELPLINE 24239100/01

BLOOD BANKS

Ashok Laboratory 24720333

Bhoruka Research Centre 22448092, 22449619

Central Blood Bank 23510619

Diamond Park Nursing Home 24671741

Lifecare Medical Services 22846940

Lions District 322B 22485778/5780

Peoples Blood Bank 24555164

The Haemophilia Society 2426-3739/8276

AMBULANCE

Asia Rescue Medical Services 9831008900, 9830365276, AirTel/ Hutch: 393

Bluebells 24754670

Curewell (cardiac care/doctors) 2290760/4202

Dhanwantary 24493734/5168

Happy Calcuttans 24400160 (Mon.- Sat.; 10 am-10 pm)

Health Care Nurses Bureau South 24164675

Jain Kalyan Sangha (with X-ray ECG; 24 hrs) 22310690, 22394991

Life-Aid 24735807, 24171845

Lifecare Medical Services 24754628/1691

Medicare Services India 22476233/6111-2

Meera Seva Kendra 24110968/9400

Southend Polyclinic 24662433/3273

St John Ambulance,Sealdah 23504199; Calcutta District: 24752106, 2483595

Subhas Ambulance, Bidhan Nagar 23217820

HEARSE

Anjuman Mufidul Islam 22847728/9299

Hindu Satkar Samiti 22413849/2050

Lokenath Divine Life Mission 24793301

Meera Seva Kendra 2411-0968/9400

Peace Haven 22447267

Sri Guru Singh Sabha 2461-9640/9984, 28890892

St Teresa???s Church 22441991

TAXI/CAR RENTALS

Blue Arrow 13658, 32905357

Adams Motor Works 22476402

Autoriders 22829167

Caravan/Globotel 22295598/5568

Cox Kings Car Rentals Tourist Bookings 22801921/4617/4620

Derby Cars 22835870

Embassy 26447911,9831059843,9330068011

Glitter Tours Travels Pvt Ltd 24544070, 24754193

ITDC Car Rental Tourist Bookings 22889066/0901/5254

Ruia Car Rentals 9830162772,9830162766

Time Travels Pvt Ltd 22810442-4,22805711

Trade Wings 22482298/22104370

Vaya Seva Tours travels 22353535,22216476

Vensimal World Travels 22253230

TAXI REFUSAL

Taxi Refusal Cell (Lalbazar) 22145000 (extn. 5096)

DC Traffic 22155000

Regional Transport Authority 24751621-3

CESC (EMERGENCY)

Head Reporting/Central 22153161-64

Northern 25568606

Cal.North 23500928

Cal.South 24663161

South-west 24014888/4302/0889

West-south 24587755

Southern 24121679

Howrah 26669161/2

WBSEB Emergency 23591896

CINEMA HALLS

Ajanta 24785341

Ahindra Mancha 24797170

Alochhaya 23505059

Ananya 25777481

Aruna 23509561

Ashoka 24785341

Basusree 24554807

Bharati 24555593

Bijoli 24555382

Chetna 25514918

Chhabighar 23502740

Chaplin 22446563

Crown 22174822

Elite 22441383

Ellora 24683480

89 Cinemas 23208900

Fame 24361111

Globe 22496665, 22455635

Hind 22372473

Inox (City Centre) 23584499

Inox (Darjeeling) 9932888010

Inox (Forum) 22836669

Jaya 25343936

Jyoti 22441132

Lighthouse 22491051

Mahua 24305291

Malancha 24717712

Menoka 24663080

Metro 22280141/2

Minar 25556753

Mitra 25555133

Moonlight 22354956

Nandan 22231210/1777

Navina 24220091

Narendra 26610209

Netra 25571606

New Empire 22491299/3243

Padmasree 24625797

Paradise 22485442

Parbati 26678219

Prachi 22461282

Priya 24641313, 24634240

Pushpasree 24476901

Purabi 23500680

Purna 24555733

Purnashree 25559364

Roxy 22284138

Sonali 25771606

Talkie Show House 25556270

EMERGENCY

Lalbazar Police Control 22143230

Fire Brigade 22440101

Bhabani Bhaban 24 Parganas (S) police HQ 24791311-5

24 Hour Ambulance Life Care: 2475-4628

24 Hour Oxygen BOC India Ltd: 9831277777

24 Hour Chemists Dhanwantary, 65 Diamond Harbour Road,Calcutta 23. Ph: 24495594,24493734,24495542

LPG Emergency Cell Bharat Petroleum: 2468-9902, 2478-4209; 2241-5519, 2219-5512; 2352-9391; 2411-8718/3792

Pager No. 9602317040, 9602317042, 9628303840

Indian Oil 2435-7268/1581, 24588400, 24458113, 23549297,23529391, 9433093063 (mobile), 23560957/ 23529391,25282405, 9610670737 (pager), 2574-9066/0808

POLICE

Alipore 24791021/3702

Amherst Street 23506670 4636

Ballygunge 24756106/5931

Beleghata 23500970/4968/ 2345

Beniapukur 22444770

Bhowanipur 24558092

Bowbazar 22644813/22203441

Burrabazar 22387554

Burtolla 25557599

Charu Market 24129900

Chitpore 25566141

Cossipore 25566434

Ekbalpore 24492135

Entally 22468892/22442892

Garden Reach 24393328

Gariahat 24642784

Hare Street 22368760

Hastings 22230716

Jorabagan 22394094

Jorasanko 22397279

Kalighat 24540177

Karaya 22471715

Lake 24739453

Maniktala 23501690

Muchipara 22278430

Narkeldanga 23504968/23510212

New Alipore 24002943

North Port 22431183

Park Street 22268321/22473300

Phulbagan 23340919

Posta 22305606

Shakespeare Sarani 22812541

South Port 24593226

Shyampukur 25557585

Taltala 22447784/22450371

Tangra 23296769

Topsia 22478268

Taratala 24681881

Tollygunge 24642765

Ultadanga 23377966

Watgunge 24593298

West Port 24393617




</TEXT>
</DOC>