<DOC>
<DOCNO>1070317_sports_story_7529142.utf8</DOCNO>
<TEXT>


The Telegraph - Calcutta : Sports

 Close contest on the cards 

 STAR RACER

 Calcutta: Right Again and Silver Print may battle it out for supremacy in the 2,800m Calcutta St Leger, the last Classic of the season and the main event in Saturdays race card. On her current form, Silver Print appears to have a slight edge over her rival and she may score.

 Read as: Sl. nos, last 4 runs, horse name, trainer, jockey, weight amp; draw:

 1. Mothers Boy Handicap 1,400m (Rt 00-50; 6-y- amp; over) 12.40 pm

 1 - 031 Poetic Moment [Errol] Chisty 61.0 7

 2 0122 Midas Touch [Errol] Ross 58.5 3

 3 2343 Shining Example [Vikash] Vinay 57.0 2

 4 1230 Dil Chahta Hai [Vikash] Arun 56.0 6

 5 3124 Arrayal [R.Alford] D.Singh 55.5 5

 6 3004 Lusitania [Charan] Reuben 55.5 1

 7 2010 Schumacher [Vikash] Salim 54.0 4

 1. Shining example (3) 2. poetic Moment (1) 3. lusitania (6)

 2. Burning Fire Cup 1,400m (Rt 40-90) 1.10 pm

 1 4323 Way To The Stars [Stephens] Reuben 60.0 1

 2 0132 Tomahawk [Errol] R.Ahmed 56.5 3

 3 - 001 Imperialism [Daniel] Chisty 56.0 4

 4 - - 14 Bollywood Dreams [Robin] Surjeet 54.0 6

 5 4040 Presidium [Daniel] Manasseh 53.0 5

 6 0404 Roofer [Daniel] Ross 52.5 2

 1. way to the stars (1) 2. imperialism (3) 3. roofer (6)

 Way To The Stars: Knocking at the door. It may be his turn now. Imperialism: An easy winner. May strike again. Roofer: May upset.

 3. I. N. S. Hooghly Cup 1,100m (Rt 00-50) 1.40 pm 

 1 2030 Elusive Glow [Vikash] Arun 61.5 1

 2 2402 Polar Magic [Daniel] Chisty 57.0 6

 3 3001 Accountable [Bath] Afzal 54.5 5

 4 - - - - Midnight Warrior [Daniel] Manasseh 53.0 2

 5 0330 Mischevious Notes [Vikash] Vinay 52.5 3

 6 2240 Best Prospect [Daniel] Ross 51.5 4

 1. mischevious notes (5) 2. polar magic (2) 3. elusive glow (1)

 Mischevious Notes: Ran a forward race in her last start. Well in at the weights. Polar Magic: Not a reliable customer.

 4. Navy Cup 1,600m (Rt 20-70) 2.15 pm 

 1 2320 El Cid [Vikash] Vinay 60.0 4

 2 0034 Golden Image [R.Alford] B.Krishnan 59.0 1

 3 3301 Arabie [Errol] Ross 56.0 5

 4 2411 Dancing Storm [Daniel] Chisty 54.5 3

 5 - - - 0 Mozart [Daniel] Gajender 53.5 2

 1. Dancing Storm (4) 2. Golden Image (2) 3. el cid (1)

 Dancing Storm: Going from strength-to-strength. Golden Image: Has come down considerably at the weights. El Cid: May upset.

 5. Madras Race Club Cup 1,400m (Rt 60 amp; over) 2.45 pm 

 1 0043 Proteus [Robin] Islam 60.0 3

 2 0033 Noble Desire [Bath] Reuben 56.5 7

 3 0211 Supreme Power [Robin] Suraj 56.5 2

 4 3430 Chill Pill [Charan] Jugnu 55.5 1

 5 1341 Wizard Of Oz [Daniel] Manasseh 55.5 6

 6 0040 Retained Asset [Daniel] Chisty 50.0 5

 7 1201 Samarrah [Daniel] Ross 50.0 4

 1. Noble desire (2) 2. supreme power (3) 3. Samarrah (7)

 Noble Desire: A better class horse from Western India.Supreme Power: In form, may do the trick again. Samarrah: May upset.

 6. Calcutta St. Leger 2,800m (Terms, 4-y- only) 3.15 pm 

 1 1202 Active Asset [Daniel] Ross 57.0 3

 2 1402 Right Again [Daniel] Chisty 57.0 2

 3 2313 Silver Print [Vijay] Suraj 55.5 1

 1. silver print (3) 2. right again (2)

 Silver Print: The filly is contesting her fifth long-distance race in 10 weeks. Right Again: Looking very fresh since his last run against Aperitivo.

 7. Acorn Stakes 1,400m (Terms, 3-y- fillies only) 3.45 pm 

 1 3113 Athymia [Vijay] Suraj 57.0 7

 2 - 443 Appetent [Javed] Shanker 50.0 8

 3 - - - 0 Cheeky Girl [Daniel] Gajender 50.0 4

 4 - 040 Dancing Magic [Bath] Afzal 50.0 3

 5 - - 00 Energetic Babe [Daniel] Chisty 50.0 1

 6 - - - 0 Galaxy Belle [Daniel] Ross 50.0 2

 7 - - - - La Monet [Daniel] Paswan 50.0 5

 8 - - - - Storm Jewel [Daniel] Aman 50.0 5 

 1. athymia (1) 2. Appetent (2) 3. energetic babe (5)

 Athymia: A better class horse capable of winning her third race. Appetent: Will be thereabouts if the favourite fails. Energetic Babe: May place.

 8. Royal Double Handicap 1,100m (Rt 00-30) 4.15 pm 

 1 2044 Rainbow Run [Vijay] Shanker 62.0 4

 2 - 000 Amorous Storm [Farley] R.Ahmed 61.5 3

 3 3233 Secret Desire [Stephens] Domingo 59.5 6

 4 0333 Cambridge Blue [Charan] Surjeet 58.0 2

 5 - - 00 Handsome Grey [Daniel] Akhtar 58.0 9

 6 - - - 0 Live It Love It [Robin] Reuben 56.0 8

 7 1043 Thoughtful [Karki] Islam 54.0 5

 8 0002 Satluj [Bath] Afzal 53.0 1

 9 0040 Sunlight King [Vikash] Salim 52.0 7

 10 - 000 Ambitious Prince [Jaiswal] Vinay 50.0 10

 1. rainbow run (1) 2. secret desire (3) 3. thoughtful (7)

 Days Best: Dancing Storm Double: Noble Desire amp; Rainbow Run




</TEXT>
</DOC>