<DOC>
<DOCNO>1070619_sports_story_7942549.utf8</DOCNO>
<TEXT>


The Telegraph - Calcutta : Sports

 BADMINTON

 Sudirman Cup 

 Final (Sunday): GLASGOW China bt Indonesia 3-0 (Zheng Bo/ Gao Ling bt Limpele Flandy/ Vita Marissa 19-21, 21-17, 21-19 Cai Yun/ Fu Haifeng bt Kido Markis/ Candra Wijaya 21-11, 21-13 Zhang Ning bt Adriyanti Firdasari 21-16, 21-9).

 FOOTBALL

 Primera Liga

 Sunday Gimnastic 1 (Tobias Grahn 83) Barcelona 5 (Carles Puyol 20, Lionel Messi 35, 51; Ronaldinho 38, Gianluca Zambrotta 90+1) Osasuna 1 (Savo Milosevic 47) Atletico Madrid 2 (Maxi Rodriguez 38, Nacho Monreal 53og) Real Madrid 3 (Jose Antonio Reyes 68, 83; Mahamadou Diarra 80) Real Mallorca 1 (Fernando Varela 17) Recreativo Huelva 1 (Javi Guerrero 4) Real Zaragoza 1 (Diego Milito 75) Sevilla 0 Villarreal 1 (Fabricio Fuentes 50) Athletic Bilbao 2 (Jose Serrano 61og, Igor Gabilondo 76) Levante 0 Celta Vigo 2 (Habib Bamogo 36, Matias Lequi 66) Getafe 1 (Pablo Redondo 26) Racing Santander 0 Real Betis 2 (Edu 80, 89) Espanyol 1 (Raul Tamudo 48pen) Deportivo Coruna 3 (Iago 61, Sergio 63, Ivan Riki 84) Valencia 3 (David Villa 6, 82; Victor Lopez 20og) Real Sociedad 3 (Gaizka Garitano (3, Diaz De Cerio 37, Emiliano Moretti 90+5og).

 GOLF

 US OPEN 

 Final round (Sunday): OAKMONT 285 Angel Cabrera (Arg) 69 71 76 69 286 Jim Furyk 71 75 70 70, Tiger Woods 71 74 69 72 287 Niclas Fasth (Swe) 71 71 75 70 289 David Toms 72 72 73 72, Bubba Watson 70 71 74 74 290 Nick Dougherty (GBR) 68 77 74 71, Scott Verplank 73 71 74 72, Jerry Kelly 74 71 73 72 298 Lee Westwood (GBR) 72 75 79 72, Shingo Katayama (Jpn) 72 74 79 73, Mathew Goggin (Aus) 77 73 74 74, Jeev Milkha Singh (India) 75 75 73 75, Ian Poulter (GBR) 72 77 72 77, Tom Pernice Jr 72 72 75 79.

 ST OMER GOLF

 Final round (Sunday) 276 Carl Suneson (Esp) 67 70 70 69 279 Francois Calmels (Fra) 72 69 69 69, Peter Fowler (Aus) 70 67 72 70, Marcus Higley (GBR) 67 70 71 71 280 Mikael Lundberg (Swe) 70 68 71 71 281 Michael Lorenzo-Vera (Fra) 67 73 71 70 283 Stuart Davis (GBR) 68 70 72 73, Sebastien Delagrange (Fra) 72 68 73 70, Richard McEvoy (GBR) 74 66 74 69.

 TENNIS

 ATP Queens Championships

 Final (Sunday) Andy Roddick (2, US) bt Nicolas Mahut (Fra) 4-6, 7-6(7), 7-6(2)

 ATP Halle Open

 Final (Sunday) Tomas Berdych (4, Cze) bt Marcos Baghdatis (8, Cyp) 7-5, 6-4

 ATP Amsterdam Open

 Round I (Sunday) Benjamin Becker (Ger) bt Olivier Rochus (Bel) 6-3, 7-6(4) Robin Haase (Ned) bt Florent Serra (Fra) 5-7, 6-4, 6-4.

 WTA Amsterdam Open

 Round I (Sunday) Anna Chakvetadze (3, Rus) bt Victoria Azarenka (Blr) 5-7, 6-2, 6-2 Roberta Vinci (Ita) bt Elena Bovina (Rus) 6-0, 6-4.

 WTA Birmingham Classic

 Final (Sunday) Jelena Jankovic (2, Ser) bt Maria Sharapova (1, Rus) 4-6, 6-3, 7-5 Semi-final Sharapova bt Marion Bartoli (5, Fra) 7-5, 6-0 Jankovic bt Mara Santangelo (8, Ita) 6-1, 7-5 Quarter final Bartoli bt Daniela Hantuchova (3, Svk) 5-7, 6-4, 7-5




</TEXT>
</DOC>