<DOC>
<DOCNO>1070216_sports_story_7400370.utf8</DOCNO>
<TEXT>


The Telegraph - Calcutta : Sports

 8 for Million on Saturday 

 OUR TURF CORRESPONDENT

 Calcutta: Eight horses are out to contest Saturdays main event, the Calcutta Million. The first race starts at 12 40 pm.

 ACCEPTANCES

 1. Play Boy Handicap 1,100m (Rt 00-50) 12.40 pm: Romantic Escape 60; All for Love 58; Polar Magic 56.

 2. Aada-Rossa Cup 1,200m (Rt 20-70) 1.10 pm: Charleston 60; Golden Image 57 5; Wild Mystery 56; Cupids Glory 49.

 3. Eastern Command Cup 1,400m (Rt 20-70) 1.40 pm: Magic Mantra 60.5; El Cid 57; Acrostic 55; Chitralekha 55; Firing Power 55; Arabie 49.5.

 4. Lt. Gen. J. Mahmood Memorial Trophy 1,400m (Rt 00-50) 2.15 pm: Sweet Success 60; Spectacular Star 59.5; Shining Example 56.5; Dancing Storm 56; Arrayal 55.5; Western Brace 53; Legacy Of Love 52.

 5. H.H Mah J. Narayan Bhup Bahadur Of Cooch Behar Memorial Cup 1,400m (Rt 40-90) 2.45 pm: Flemenco Star 60; Water Wood 60; Way To The Stars 56.5; Samarrah 54.5; Bollywood Dreams 53.5; Regal Venture 47.

 6. Governors Cup 1,600m (Rt 60 and over) 3.15 pm: Aperitivo 62; Ministrel Heights 50.5; Proteus 47; Capture The Moment 47.

 7. Calcutta Million 1,600m (Terms, 3-year-olds only) 3.45 pm: Afforce 56; Desire Prince 56; Rapid Return 56; Regal Connection 56; Romantic Knight 56; Secret Trooper 56; Silent Hunter 56; Dancing Magic 54.5.

 8. Golden Can Handicap 1,100m (Rt 00-30, 5-y- and over) 4.15 pm: Schumacher 61; Cambridge Blue 57.5; Amelie 57; The Impressionist 53.5;Thoughtful 53.5; Ambitious Prince 52.5; Satluj 51.5.

 Jackpot: 4; 5; 6; 7 amp; 8. Treble: (i) 1; 2 amp; 3; (ii) 3; 4 amp; 5. (iii) 6; 7 amp; 8.




</TEXT>
</DOC>