<DOC>
<DOCNO>1070226_sports_story_7441512.utf8</DOCNO>
<TEXT>


The Telegraph - Calcutta : Sports

 Hyderabad tips 

 1.40 pm: Cannon Lake 1. Fever Few 2. Royal Agenda 3.

 2.10 pm: Avon Gorge 1. Inverary 2. Doing My Best 3.

 2.40 pm: Johnny B Goode 1. Vijayam 2. Baby Oh Baby 3.

 3.10 pm: Onnu Onnu Onnu 1. Coral Gables 2. Citi Storm 3.

 3.40 pm: Mission Chief 1. Integrate 2. Good Speed 3.

 4.15 pm: Arkwright 1. True Force 2. Mirbat Battle 3.

 4.45 pm: Ansonia 1. Kodos 2. Choice Of White 3.

 5.15 pm: Speed Motive 1. Flower Princess 2. Gun Rock 3.

 5.50 pm: Fearless Flame 1. Luxury Cruise 2. Diesel 3.

 Days Best: Speed Motive Double: Johnny B Goode amp; Arkwright




</TEXT>
</DOC>