<DOC>
<DOCNO>1070316_calcutta_story_7520400.utf8</DOCNO>
<TEXT>


The Telegraph - Calcutta : Metro

 Cinema

 ENGLISH

 APOCALYPTO (A): Inox (City Centre; 5 pm, 10.05 pm),

 300 (A): New Empire, Inox (Forum; 11 am, 6.30 pm, 10.45 pm), Inox (City Centre; 12.35 pm, 2.40 pm, 6.30 pm, 10 pm), 89 Cinemas (Swabhumi; 12.30 pm, 3.10 pm, 5.20 pm, 9.50 pm), Fame (Hiland Park; 10 am, 12.05 pm, 4.15 pm, 8.15 pm, 10.25 pm)

 HINDI

 EKLAVYA: Fame (Hiland Park; 2.15, 5.50)

 GURU: 89 Cinemas (Swabhumi; 10.30 am

 HATTRICK: Metro, Priya, Inox (Forum; 10 am, 4.25 pm, 8.40 pm), Inox (City Centre; 10.10 am, 2.15 pm, 5.30 pm, 7.50 pm, 10.45 pm), Star Theatre, Basusree, 89 Cinemas (Swabhumi; 10 am, 2.10 pm, 4.20 pm, 6.30 pm, 8.40 pm, 10.45 pm), Fame (Hiland Park; 10 am, 2 pm, 4.05 pm, 6.10 pm, 8.15 pm, 10.25 pm), Sonali, Bangabasi, Rakhi, Durgapur Cinema

 HONEYMOON TRAVELS PVT. LTD. (U/A): Roxy, Inox (Forum; 2.10, 10.30), Inox (City Centre; 10.15, 3, 7.40), 89 Cinemas (Swabhumi; 10.40, 4, 7.30), Fame (Hiland Park; 3, 7.30, 9.50), 89 Cinemas (Durgapur; 12.30, 5.20)

 JUST MARRIED (J/A): Paradise, Priya, Mitra, Inox (Forum; 1.10 pm, 5.50 pm), Inox (City Centre; 10 am, 2.50 pm, 5.15 pm, 9.45 pm), 89 Cinemas (Swabhumi; 10 am, 2.40 pm, 5.15 pm, 7.50 pm, 10.25 pm), Fame (Hiland Park; 12.50 pm, 3.20 pm, 7.50 pm, 10.20 pm), Jaya, 89 Cinemas (Durgapur; 10 am, 2.50 pm, 5.25 pm, 8 pm), Inox (Darjeeling)

 KATHA (A): Inox (City Centre; 12.05 pm)

 1971 (U/A): Inox (City Centre; 12.20 pm), 89 Cinemas (Swabhumi; 1.25 pm), Fame (Hiland Park; 10.10 am), 89 Cinemas (Durgapur; 7.40 pm)

 NISHABD (U/A): Jyoti, Navina (12.30, 3.30, 6.30), Inox (Forum; 12.05, 8.20), Inox (City Centre; 10, 4.20, 8.40), 89 Cinemas (Swabhumi; 12.05, 6.20, 10.45), Fame (Hiland Park; 10.40, 6.25), 89 Cinemas (Durgapur; 10, 2.10)

 RED, THE DARKSIDE (A): Elite, Fame (Hiland Park; 12 noon), Purabi, Ashoka (1.45, 5.45), Moonlight, Tasweer Mahal, Navbharat, Parijat, Chandan, Gupta

 300 (A): Hind, Menoka, Ashoka (Behala), Malancha, Purabi, Rathindra, Gupta

 WATER (U/A): Inox (Forum; 3.40 pm), Inox (City Centre; 12.30 pm, 7.35 pm), 89 Cinemas (Swabhumi; 1 pm, 8.25 pm), Fame (Hiland Park; 12.45 pm, 5.15 pm)

 BENGALI

 I LOVE YOU: Prachi, Darpana, Bharati, Pushpasree (Behala amp; Kadamtolla), Padmasree, Narendra (Dum Dum), Arati (Baguihati), Ananya, Sarama, Debasree, Show House

 PADDOKHEP: Inox (Forum; 9.15 am)

 SANGHARSHA: Minar, Bijoli, Chhabighar (3, 5.45, 8.30), Mahua (Garia), Ellora (Behala), Chetna (Dum Dum), Padma (Sodpur), Bejoya (Barasat), Shanti (Kadamtolla)

 SHAPMOCHAN: Ragini, Narayani, Maya




</TEXT>
</DOC>