<DOC>
<DOCNO>1070714_sports_story_8057694.utf8</DOCNO>
<TEXT>


The Telegraph - Calcutta : Sports

 SCORE CARD

ENGLAND LIONS

First innings 

A. Strauss

b Zaheer

1

J. Denly

st Dhoni b Powar

83

O. Shah

c Zaheer b Sreesanth

11

J. Trott

c Sourav b Zaheer

46

R. Bopara

c Karthik b Tendulkar

29

T. Ambrose

c Dhoni b Zaheer

4

A. Rashid

c amp; b Powar

0

T. Bresnan

batting

116

S. Broad

c Yuvraj b Sreesanth

50

C. Tremlett

batting

8

Extras (b-8, lb-2, nb-21)

31

Total (for 8 wkts in 90 ovs)

379

Fall of wickets: 1/14, 2/62, 3/142, 4/174, 5/184, 6/185, 7/225, 8/354

Bowling: Zaheer 19-5-99-3, Sreesanth 18-0-69-2, Sourav 6-2-16-0, Ishant 12-1-61-0, Powar 25-1-96-2, Tendulkar 8-0-17-1, Yuvraj 2-0-11-0




</TEXT>
</DOC>