<DOC>
<DOCNO>1070415_calcutta_story_7643818.utf8</DOCNO>
<TEXT>


The Telegraph - Calcutta : Metro

 Cinema

 ENGLISH

 ERAGON: Globe (12.30, 3, 6, 8.30), Inox (Forum; 10 am, 2.25 pm, 6.40 pm), Inox (City Centre; 11.50 am, 2.50 pm, 8.25 pm), Malancha (2, 4, 6, 8)

 PERFECT STRANGER (A): Inox (Forum; 12.40 pm, 7.50 pm, 10.50 pm), Inox (City Centre; 12.45 pm, 6.20 pm, 9.30 pm), 89 Cinemas (Swabhumi; 12.10 pm, 5.30 pm, 9.55 pm), Fame (Hiland Park; 12 noon, 3.25 pm, 8.25 pm)

 PROVOKED (A): Roxy, Priya (2.30 pm, 7.15 pm), Inox (Forum; 10 am, 4.30 pm, 10.35 pm), Inox (City Centre; 10 am, 5.10 pm, 10.25 pm), 89 Cinemas (Swabhumi; 3.20 pm, 7.55 pm), Fame (Hiland Park; 5.30 pm, 10.30 pm)

 SHOOTER: New Empire (12.30 pm, 3 pm, 6 pm, 8.30 pm), Inox (Forum; 2.10 pm, 5.35 pm), Inox (City Centre; 4 pm, 7.25 pm), 89 Cinemas (Swabhumi; 10 am, 1 pm), Fame (Hiland Park; 10 am, 2.45 pm, 7.30 pm)

 THE NAMESAKE (U/A): Priya (12.15 pm), Star Theatre (6 pm, 8.30 pm), Inox (Forum; 12 noon, 8.40 pm), Inox (City Centre; 10.15 am, 3 pm), 89 Cinemas (Swabhumi; 2.15 pm, 7.35 pm), Fame (Hiland Park; 10.45 am, 4.20 pm)

 HINDI

 BHEJA FRY: Inox (Forum; 10.10 am, 4.25 pm, 8.45 pm), Inox (City Centre; 10 am, 2 pm, 7.40 pm), 89 Cinemas (Swabhumi; 10.20 am, 4.35 pm, 8.55 pm), Fame (Hiland Park; 10.25 am, 2.35 pm, 6.35 pm)

 BIG BROTHER: Paradise (4 shows), Inox (Forum; 5.15 pm), 89 Cinemas (Swabhumi; 12.30 pm, 6.25 pm, 10.45 pm), Fame (Hiland Park; 1 pm, 10.20 pm), Navina (12.30, 3.30, 6.30), Menoka, Mitra, Crown, Moonlight, Jagat, Ashoka (all 4 shows), Jaya, Mrinalini, Narayani, Bangabasi, Parijat, Liluah Cinema, National, P. Son, Atindra (Barrackpore), Laxmi (Titagarh), Milon, Jyoti, Shree Laxmi, Chhayabani, Sanskriti Lok Mancha

 EKLAVYA: Fame (Hiland Park; 10.05 am)

 ERAGON: Hind (12.15, 3.15, 6.15, 9), Gupta Tks, Prafulla

 LIFE MEIN KABHIE KABHIEE: Inox (Forum; 2.45 pm), Inox (City Centre; 7.50 pm), 89 Cinemas (Swabhumi; 10.15 am, 2.45 pm), Priya

 NAMASTEY LONDON: Jyoti, Inox (Forum; 10.10, 12.10, 2.40, 7.45, 10.20), Inox (City Centre; 10.10, 12.10, 2.40, 5.15, 10.35), Basusree (noon, mat., night), 89 Cinemas (Swabhumi; 10, 3, 5.35, 8.10, 10.45), Fame (Hiland Park; 12.15, 5.05, 7.40, 10.10)

 SHAKA LAKA BOOM BOOM (U/A): Inox (Forum; 12 noon, 6.15 pm, 9.55 pm), Inox (City Centre; 12.30 pm, 5 pm, 9.45 pm), 89 Cinemas (Swabhumi; 12.15 pm, 5.25 pm, 10 pm), Fame (Hiland Park; 12.10 pm, 5 pm, 9.50 pm)

 BENGALI

 BIDHATAR LEKHA: Prachi, Darpana, Bharati, Pushpasree (Behala), Fame (Hiland Park; 2.05 pm, 7.25 pm), Padmasree, Narendra (Dum Dum), Ananya, Sarama, Debasree, Geetasree, Rupkatha, Mini Rathindra, Auro (Chinsurah), Debjani

 PREM ROG (A): Metro, Aruna, Radha, Purna, Parbati, Leela (Baruipur), Piccadily (Salkia), Roma (Birati)

 SAMSAY: Nandan (1.45, 4.15, 6.45), Star (12.30, 3.30), Purabi, Milan

 TULKALAM: Minar, Bijoli, Chhabighar (3, 5.45, 8.15), Mahua (Garia), Ellora, Chetna, Arati, Sonali, Bijoya (Barasat), Shanti (Kadamtolla)




</TEXT>
</DOC>