<DOC>
<DOCNO>1070417_sports_story_7657231.utf8</DOCNO>
<TEXT>


The Telegraph - Calcutta : Sports

 SCORE CARD

Ireland

Porterfield

c Rafique b Mortaza

85

J. Bray

run out

31

E. Morgan

run out

5

N. OBrien

c Iqbal b Hasan

10

K. OBrien

run out

48

T. Johnston

c Nafees b Mortaza

30

A. White

run out

4

DL Smith

not out

6

A. Botha

not out

1

Extras (b-1, lb-11, w-6, nb-5)

23

Total (for 7 wkts in 50 ovrs)

243

Fall of wkts: 1/92, 2/101, 3/128, 4/176, 5/215, 6/233, 7/237

Bowling: Mortaza 10-1-38-2, Hossain 9-1-51-0, Razzak 9-0-48-0, Rafique 10-0-42-0, Hasan 10-0-44-1, Ahmed 2-0-8-0

Bangladesh

T. Iqbal

b Johnston

29

S. Nafees

c NJ OBrien b Rankin

7

A. Ahmed

c NJ OBrien b Botha

12

S. Hasan

run out

3

M. Ashraful

c Smith b Rankin

35

H. Bashar

b Johnston

32

M. Rahim

b McCallan

16

M. Mortaza

c amp;b Smith

0

M. Rafique

c Johnston b Smith

2

A. Razzak

b McCallan

11

S. Hossain

not out

0

Extras (lb-4, w-18)

22

Total (all out in 41.2 ovrs)

169

Fall of wkts: 1/18, 2/45, 3/48, 4/93, 5/102, 6/131, 7/134, 8/138, 9/169

Bowling: Rankin 8-0-42-2, Smith 10-1-27-2, Botha 8-0-31-1, Johnston 7.2-0-40-2, McCallan 8-1-25-2




</TEXT>
</DOC>