<DOC>
<DOCNO>1070806_sports_story_8155098.utf8</DOCNO>
<TEXT>


The Telegraph - Calcutta : Sports

 Tommy Robredo

 CRICKET

 COUNTY TWENTY20 CUP

 EDGBASTON: Kent (147-6) bt 

 Gloucestershire (146-8) by four wickets

 FOOTBALL

 PREMIER DIVISION 

 CALCUTTA, (Sunday) Mohun 

 Bagan 4 (Shanmugam Venkatesh 14, Lalwmpuia 60, Barreto 70, 

 Dharamjit 75) Chirag United 3 (Theo Tore Wrobeh 21p, Sankar 

 Oraon 41, Safar Sardar 90p)

 GOLF

 WOMENS BRITISH OPEN

 ST.ANDREWS, Round III (Saturday) 213 Lorena Ochoa (Mex) 67 73 73 219 Linda Wessberg (Swe) 74 73 72 220 Maria Hjorth (Swe) 75 73 72; Lee Jee-young (Kor) 72 73 75; Karine Icher (Fra) 72 71 77; Annika Sorenstam (Swe) 72 71 77 221 Reilley Rankin 73 74 74; Pak Se ri (Kor) 73 73 75; Ji Eun-hee (Kor) 73 71 77; Catriona Matthew (Gbr) 73 68 80; Wendy Ward 71 70 80 222 Stacy Prammanasudh 74 76 72; Paula Creamer 73 75 74; Brittany Lincicome 71 76 75; Min Na-on (South Korea) 72 75 75 

 WGC-BRIDGESTONE INVITATIONAL 

 OHIO, Round III (Saturday) 206 Rory Sabbatini (Rsa) 67 67 72 207 Tiger Woods (US) 68 70 69 209 Kenny Perry (US) 69 69 71 211 Aaron Baddeley (Aus) 70 74 67; Andres Romero (Arg) 71 71 69; Stuart Appleby (Aus) 68 74 69, Hunter Mahan (US) 67 73 71; Chris DiMarco (US) 69 70 72; Scott Verplank (US) 70 68 73 212 Joe Durant (US) 74 67 71; Justin Rose (Gbr) 69 72 71; Zach Johnson (US) 71 65 76

 RUSSIAN OPEN

 MOSCOW,Round II (Saturday) 131 Per-Ulrik Johansson (Swe) 69 62 135 Gary Murphy (Ire) 67 68 136 Christian Nilsson (Swe) 65 71; Alexandre Rocha (Bra) 68 68 137 Robert-Jan Derksen (Ned) 68 69; Adam Gee (Gbr) 69 68 Jean-Baptiste Gonnet (Fra) 66 71; Alan McLean (Gbr) 73 64 

 TENNIS

 ATP POLAND OPEN

 Semi-finals, (Saturday) Tommy Robredo (2, Esp) bt Gilles Simon (Fra) 6-3, 7-6 (4) Jose Acasuso (Arg) bt Albert Montanes (Esp) 6-1, 6-2

 ATP WASHINGTON CLASSIC

 Singles, Semi-Finals (Saturday) Andy Roddick (1, US) bt Ivo Karlovic (7, Cro) 7-6(7), 7-6(5) 

 WTA SAN DIEGO CLASSIC 

 Singles semi-finals, (Saturday) Patty Schnyder (11, Sui) bt Elena Dementieva (Rus) 7-6(4), 6-0 Maria Sharapova (1, Rus) bt Anna Chakvetadze (3, Rus) 6-3, 6-2 

 WTA STOCKHOLM OPEN 

 Semi-final, (Saturday) Agnieszka Radwanska (5, Pol) bt Tsvetana Pironkova (Bul) 6-4, 6-3 Vera Dushevina (8, Rus) bt Julia Goerges (Ger) 6-4, 5-7, 6-3 Quarter finals Tsvetana Pironkova (Bul) bt Stephanie Cohen-Aloro (Fra) 6-7(3), 7-6(5), 6-1 Julia Goerges (Ger) bt Emilie Loit (3, Fra) 2-0 (Loit retired) Agnieszka Radwanska (2, Pol) bt Caroline Wozniacki (Den) 6-4,6-1.




</TEXT>
</DOC>