<DOC>
<DOCNO>1070805_calcutta_story_8144758.utf8</DOCNO>
<TEXT>


The Telegraph - Calcutta : Metro

 Cinema

 ENGLISH

 BOW BARRACKS FOREVER! (A): Roxy (3 pm, 6 pm), Priya (3.30 pm), Inox (Forum; 12 noon, 6.15 pm), Inox (City Centre; 10.30 am), 89 Cinemas (Swabhumi; 12.20 pm, 8.30 pm), Fame (Hiland Park; 10.30 am)

 SURFS UP: Inox (Forum; 10 am, 3 pm), Inox (City Centre; 10 am, 3.05 pm, 6.20 pm), 89 Cinemas (Swabhumi; 12.45 pm), Fame (Hiland Park; 12.35 pm, 6 pm)

 THE BONG CONNECTION (A): Inox (Forum; 10.10 am), 89 Cinemas (Swabhumi; 10 am)

 WILD HOGS (U/A): Inox (Forum; 10 am, 2.05 pm), Inox (City Centre; 10 am, 2.10 pm)

 HINDI

 AAP KAA SURROOR: Elite (mat. amp; eve.), Rupali, Naihati Cinema

 CASH (U/A): Jyoti, Menoka, Navina (12.30, 3.30, 6.30, 9.30), Mitra, Inox (Forum; 10.10 am, 12.50 pm, 3.30 pm, 5 pm, 6.25 pm, 7.50 pm, 9.15 pm, 10.35 pm), Inox (City Centre; 10.10 am, 12.50 pm, 3.30 pm, 5 pm, 6.25 pm, 7.50 pm, 9.15 pm, 10.35 pm), Jaya (12, 2.30, 5, 7.30), Ashoka (Behala), Crown, Jagat, Moonlight, 89 Cinemas (Swabhumi; 10.25 am, 1 pm, 3.35 pm, 5.05 pm, 6.30 pm, 7.55 pm, 9.20 pm, 10.45 pm), Fame (Hiland Park; 10.05 am, 11.30 am, 12.50 pm, 2.10 pm, 3.35 pm, 5 pm, 6.20 pm, 7.45 pm, 8.55 pm, 10.30 pm), Sonali (noon), Vaishali, Mrinalini, National, Pari, Bangabasi, 89 Cinemas (Durgapur; 10 am, 12.35 pm, 3.10 pm, 5.45 pm, 7.10 pm, 8.35 pm)

 GANDHI MY FATHER: New Empire, Priya (5.30 pm), Star Theatre (4.50 pm), Inox (Forum; 12.30 pm, 3.45 pm, 7.45 pm, 10.15 pm), Inox (City Centre; 12.35 pm, 3.50 pm, 7.50 pm, 10.20 pm), 89 Cinemas (Swabhumi; 11.05 am, 3.40 pm, 6 pm, 10.40 pm), Fame (Hiland Park; 2.20 pm, 7.40 pm, 10.15 pm), Jaya (5 pm)

 NAYA DAUR: Metro, Inox (Forum; 4.40 pm), Inox (City Centre; 4.45 pm), 89 Cinemas (Swabhumi; 2.30 pm), Fame (Hiland Park; 4.55 pm), Basusree, Radha, Prafulla, Gupta

 PARTNER (U/A): Paradise, Priya (11.15 am, 9.45 pm), Star Theatre (11.45 am, 9.15 pm), Inox (Forum; 11.40 am, 2.20 pm, 7.55 pm, 10.35 pm), Inox (City Centre; 11.40 am, 2.20 pm, 8 pm, 10.40 pm), 89 Cinemas (Swabhumi; 10.05 am, 2.25 pm, 5.30 pm, 8.10 pm, 10.45 pm), Fame (Hiland Park; 10.35 am, 3.20 pm, 7.50 pm, 10.30 pm), Jaya (12 noon, 7.30 pm), Indira, Mahua, Kamal, Navbharat, 89 Cinemas (Durgapur)

 RAIN: Elite (noon amp; night)

 BENGALI

 ANURANAN: Priya (7.45 pm), Star Theatre (7.15 pm), Inox (City Centre; 12 noon), 89 Cinemas (Swabhumi; 1.35 pm), Fame (Hiland Park; 1.15 pm), Jaya (2.30 pm)

 BANDHU: Minar, Bijoli, Chhabighar (2.45, 5.45, 8.30), Ellora, Bejoya, Kalika (Habra), Amala (Barrackpore)

 MAHAGURU: Bidhan, Surendra, Rupasree, Chhayabani

 MATIR MOYNA: Nandan-1 (2, 4, 6)

 MINISTER FATAKESTO: Prachi, Darpana, Bharati, Pushpasree (Behala), Padmasree, Aleya, Sonali, Narendra, Arati, Pushpasree (Kadamtolla)




</TEXT>
</DOC>