<DOC>
<DOCNO>1070727_calcutta_story_8109154.utf8</DOCNO>
<TEXT>


The Telegraph - Calcutta : Metro

 Cinema

 ENGLISH

 BOW BARRACKS FOREVER! (A): Roxy (12.30, 3, 6, 9), Priya (3.30 pm), Star Theatre (2.05 pm), Jaya (12 noon, 5 pm), Inox (Forum; 3.30 pm, 7.50 pm), Inox (City Centre; 3.30 pm, 8.10 pm), 89 Cinemas (Swabhumi; 12.25 pm, 7.10 pm, 10.30 pm), Fame (Hiland Park; 1.20 pm, 5.10 pm, 9.55 pm)

 HARRY POTTER AND THE ORDER OF THE PHOENIX (U/A): New Empire (12.15, 3, 6, 8.45), Inox (Forum; 10.30 am, 1 pm, 4.50 pm, 9.55 pm), Inox (City Centre; 10.30 am, 1 pm, 5.40 pm, 10.20 pm), 89 Cinemas (Swabhumi; 10.15 am, 12.15 pm, 3.10 pm, 5.40 pm), Fame (Hiland Park; 10 am, 2.40 pm, 7.15 pm, 9.45 pm), Menoka, Malancha, Inox (Darjeeling), 89 Cinemas (Durgapur; 10 am, 12.30 pm, 3 pm, 5.30 pm)

 THE BONG CONNECTION (A): Priya (4.45 pm), Star Theatre (5 pm), Inox (Forum; 10 am, 7.20 pm), Inox (City Centre; 10 am, 4.50 pm), 89 inemas (Swabhumi; 10.05 am, 2.35 pm, 8.10 pm), Fame (Hiland Park; 11 am, 5.30 pm)

 HINDI

 AAP KA SURROOR: Elite (mat. amp; eve.), National (Kidderpore), Swapna (Andul), Manjusree (Haldia), Sangeeta (Krishnagar), Uttara (Katwa), Bani (Joynagar)

 APNE: Jyoti, Padmasree (Jadavpur), Kalyani (Pandua), Shyama (Bishnupur), Mohan (Beharmpur)

 GOOD BOY BAD BOY: Elite (noon amp; night), Radha (noon), Mini Sushma

 HARRY POTTER AND THE ORDER OF THE PHOENIX (U/A): Basusree (mat.), Narayani, Chhayabani (Barasat)m, Sushma (Sheoraphuli), Auro (Chinsurah)

 NAQAAB (U/A): Metro (12, 3, 6, 9), Basusree (12, 6, 9), Inox (Forum; 2.30 pm, 9.40 pm), Inox (City Centre; 12.20 pm, 9.30 pm), 89 Cinemas (Swabhumi; 10 am, 9.25 pm), Fame (Hiland Park; 12.35 pm), Ashoka (Behala; noon), Ahindra Mancha, Netro, Parbati, Jayanti (Rishra), Queen, 89 Cinemas (Durgapur; 10.45, 3.10, 8.40)

 PARTNER (U/A): Paradise, Priya (1 pm, 9.15 pm), Navina (12.30 pm, 3.30 pm, 6.30 pm, 9 pm), Mitra (6 pm, 9 pm), Inox (Forum; 10.10 am, 11.35 am, 1 pm, 2.25 pm, 3.50 pm, 5.15 pm, 6.35 pm, 7.55 pm, 9.20 pm, 10.40 pm), Inox (City Centre; 10.10 am, 11.35 am, 1 pm, 2.25 pm, 3.50 pm, 5.15 pm, 6.35 pm, 7.55 pm, 9.20 pm, 10.40 pm), 89 Cinemas (Swabhumi; 10.35 am, 1.20 pm, 2.45 pm, 4.05 pm, 5.25 pm, 6.45 pm, 8.05 pm, 9.25 pm, 10.45 pm), Fame (Hiland Park; 10.10 am, 11.30 am, 12.50 pm, 2.10 pm, 3.30 pm, 4.55 pm, 6.15 pm, 7.40 pm, 8.50 pm, 10.30 pm), Indira, Moonlight, Jaya (12, 2.30, 5, 7.30), Pushpasree (Behala), Kamal, Sonali, Mrinalini, Navbharat, Parijat, Chandan, Lipi, Rathindra, Gupta, Lali, Milan, Jyoti (Chandernagore), Sri Laxmi, Surendra, Shankar (Habra), Kalyani Cinema, Krishti, Geetanjali (Bolpur), 89 Cinemas amp; Anuradha (Durgapur), Chitra, Sanskriti Lok Mancha (Burdwan), Anjana, Bhawani, Bombay Tks, Navin, Asha, Urvashi amp; Vishal (Siliguri), Denzong (Gangtok), Inox (Darjeeling)

 BENGALI

 ANURANAN: Priya (12 noon, 7 pm), Star Theatre (7.15 pm), Mitra (3.15 pm), Inox (Forum; 12.20 pm, 5.40 pm), Inox (City Centre; 2.40 pm, 7.10 pm), 89 Cinemas (Swabhumi; 1 pm, 5 pm), Fame (Hiland Park; 3.25 pm, 7.50 pm), Jaya (2.30 pm, 5 pm), Geetanjali (Bolpur; 6.15 pm)

 BANDHU: Minar, Bijoli, Chhabighar (2.45, 5.45, 8.30), Mahua, Bejoya, Kalika (Habra), Baruipur Show House, Mini Rathindra, Amala (Barrackpore), Rabindra (Tarakeswar), Falguni (Basirhat), Burdwan Cinema

 MAHAGURU: Prachi, Darpana, Bharati, Debjani (Basirhat), Rupkatha (Habra), Krishna (Baruipur), Roma (Birati), Kairi (Chinsurah), Udayan (Sheoraphuli), Mimi (Krishnagar), Liluah Cinema

 SHUDHU TOMAR JANYA: Radha, Purabi, Purna, Chetna (Dum Dum), Padma (Sodepur)




</TEXT>
</DOC>