<DOC>
<DOCNO>1070421_sports_story_7677134.utf8</DOCNO>
<TEXT>


The Telegraph - Calcutta : Sports

 Super 8 Standings 

 M

 W

 T

 L

 NR/R

 P

 Aus

 6

 6

 0

 0

 2.03

 12

 SL

 7

 5

 0

 2

 1.48

 10

 NZ

 6

 5

 0

 1

 1.07

 10

 SA

 7

 4

 0

 3

 0.31

 8

 Eng

 6

 2

 0

 4

 -0.44

 4

 WI

 6

 2

 0

 4

 -0.66

 4

 Ban

 7

 1

 0

 6

 -1.51

 2

 Ire

 7

 1

 0

 6

 -1.73

 2

 Note:Updated till Thursday. The table reflects the match and the carried over points (if any) from the group rsquo;s other qualifier.

 The semi-finals rsquo; face-off can rsquo;t be said with certainty as yet. The first, in Kingston, on April 24 will be between No. 2 and No. 3. The second, in St Lucia, on April 25, will be between No.1 and No.4.

 Source : World Cup official

 website. 




</TEXT>
</DOC>