<DOC>
<DOCNO>1070216_sports_story_7400368.utf8</DOCNO>
<TEXT>


The Telegraph - Calcutta : Sports

 Mumbai results 

 (With inter-state dividends)

 1st race: World War Three 1; Saregama 2; Ponte Romano 3. Win Rs 21; (P) 14; 10; (Q) 14; (T) 151. 2nd race: Star Queen 1; Enchanting Girl 2; Cosmic Flower 3. Win Rs 25; (P) 10; 18; 12; (Q) 81; (T) 227. 3rd race: Dynasty 1; Enaksi 2; Forces Of Destiny 3. Win Rs 73; (P) 26; 23; (Q) 113; (T) 697. 4th race: Star Always 1; Wild Temper 2; Solskjaer 3. Win Rs 14; (P) 12; 34; 32; (Q)113; (T) 1,738. 5th race: Pure For Sure 1; Helmsdale 2; Horse Raddish 3. Win Rs 42; (P) 16; 13; 42; (Q) 59; (T) 1,188. 6th race: All The Rage 1; Taanush 2; Perfect Attraction 3. Win Rs 24; (P) 16; 24; (Q) 37; (T) 103. 7th race: Indian Fashion 1; Simply Perfect 2; Perfect Peace 3. Win Rs 92; (P) 35; 48; 30; (Q) 166; (T) 2,835.

 Jackopt: Rs 6,297; (C) Rs 221.Treble: (i) Rs 168; (ii) Rs 1,019.




</TEXT>
</DOC>