<DOC>
<DOCNO>1070112_business_story_7251808.utf8</DOCNO>
<TEXT>


The Telegraph - Calcutta : Business

 MUTUAL FUND

 FUND EQUITY:

DIVERSIFIED

 NAV

 Change

 RETURNS

 Size

 3-Month

 1-Year

 3-Year

 Lifetime

 ABN AMRO Equity

 27.23

 0.53

 14.85

 35.41

 52.98

 282.51

 ABN AMRO Future Leaders

 10.69

 0.18

 17.89

 6.93

 396.17

 Birla Advantage

 123.30

 2.03

 9.90

 31.09

 31.98

 25.49

 524.59

 Birla Dividend Yield Plus

 42.40

 0.54

 3.49

 7.89

 21.45

 44.44

 487.79

 Birla Infrastructure

 12.00

 0.11

 10.60

 20.00

 507.63

 Birla Sun Life Equity

 181.50

 1.87

 14.08

 41.92

 46.10

 41.32

 459.93

 Birla Top 100

 15.65

 0.24

 7.97

 34.34

 41.59

 513.61

 DSPML Equity

 45.99

 0.72

 14.94

 43.62

 40.54

 28.50

 723.66

 DSPML Opportunities

 55.87

 0.92

 13.00

 39.60

 37.84

 28.99

 1468.17

 DSPML Small And Mid Cap Reg

 10.52

 0.09

 5.18

 1522.65

 DSPML T.I.G.E.R.

 32.70

 0.58

 14.91

 47.58

 56.84

 1345.01

 DSPML Top 100 Equity

 56.65

 1.13

 12.49

 42.98

 33.74

 56.17

 306.86

 Fidelity Equity

 20.85

 0.29

 13.50

 41.15

 52.85

 2612.92

 Fidelity India Special Situations

 12.87

 0.21

 13.76

 28.74

 2073.93

 Franklin India Bluechip

 129.05

 2.41

 9.81

 39.97

 32.02

 29.85

 2550.06

 Franklin India Flexi Cap

 20.82

 0.27

 8.49

 37.52

 46.50

 3565.14

 Franklin India Opportunities

 26.76

 0.21

 14.46

 54.59

 49.24

 687.15

 Franklin India Prima

 216.54

 2.03

 14.94

 20.75

 38.64

 26.41

 1813.41

 Franklin India Prima Plus

 139.05

 2.16

 14.83

 47.91

 38.90

 23.87

 836.32

 HDFC Capital Builder

 63.43

 0.54

 8.99

 19.10

 37.36

 15.32

 764.25

 HDFC Core amp; Satellite

 25.54

 0.3

 5.79

 33.27

 49.36

 767.93

 HDFC Equity

 146.01

 2.43

 8.64

 35.03

 38.37

 24.90

 3937.74

 HDFC Growth Fund

 48.21

 0.84

 9.98

 40.31

 34.38

 27.74

 379.04

 HDFC Premier Multi-Cap

 18.11

 0.25

 8.49

 26.74

 38.79

 790.48

 HDFC Top 200

 109.75

 1.93

 8.91

 35.42

 36.14

 28.56

 1736.55

 HSBC Advantage India

 12.70

 0.18

 12.45

 27.01

 1401.05

 HSBC Equity

 70.84

 1.15

 12.40

 33.50

 34.92

 61.03

 1056.56

 HSBC India Opportunities

 28.98

 0.45

 17.75

 45.94

 44.10

 555.98

 HSBC Midcap Equity

 20.03

 0.23

 16.07

 29.44

 50.74

 341.65

 Kotak 30

 67.76

 1.32

 10.85

 39.63

 40.26

 31.65

 428.70

 Kotak Lifestyle

 11.53

 0.19

 16.68

 15.31

 384.86

 Kotak Opportunities

 28.41

 0.37

 11.20

 34.52

 55.05

 274.33

 Magnum COMMA

 16.29

 0.22

 9.62

 39.35

 39.50

 530.33

 Magnum Contra

 37.57

 0.52

 9.89

 45.73

 60.18

 34.85

 1423.23

 Magnum Emerging Businesses

 30.58

 0.24

 14.83

 26.57

 61.97

 309.59

 Magnum Global

 44.83

 0.49

 19.99

 54.32

 66.35

 17.13

 954.15

 Magnum Midcap

 22.89

 0.32

 18.97

 44.60

 57.54

 347.42

 Magnum MultiCap

 15.78

 0.19

 10.04

 39.15

 41.26

 1267.78

 Magnum Multiplier Plus

 54.18

 1.05

 14.52

 45.65

 48.69

 16.28

 819.97

 Principal Growth

 49.67

 0.94

 8.90

 26.97

 35.49

 29.35

 339.14

 Prin Infras amp; Services Industries

 11.58

 0.16

 10.39

 15.80

 306.29

 Principal Resurgent India Equity

 72.48

 1.1

 12.22

 33.80

 28.70

 34.78

 396.40

 Prudential ICICI Discovery

 27.61

 0.27

 4.82

 27.06

 51.31

 1117.59

 Prudential ICICI Dynamic

 66.12

 0.9

 18.46

 54.75

 41.79

 56.20

 1533.33

 Prudential ICICI Emerging STAR

 29.48

 0.55

 21.52

 39.85

 61.06

 1156.43

 Prudential ICICI Growth

 92.36

 1.7

 9.99

 38.62

 32.07

 29.62

 432.81

 Prudential ICICI Infrastructure

 18.46

 0.18

 13.18

 53.32

 54.68

 1538.68

 Prudential ICICI Power

 81.44

 1.1

 11.96

 43.56

 37.50

 18.49

 1480.03

 Prud ICICI Services Industries

 15.56

 0.22

 26.81

 47.49

 46.98

 391.13

 Reliance Equity

 11.63

 0.14

 9.20

 16.30

 4987.97

 Reliance Equity Opportunities

 21.59

 0.36

 15.23

 46.44

 51.60

 2267.16

 Reliance Growth

 270.33

 3.58

 13.69

 37.25

 50.18

 33.98

 2984.53

 Reliance Vision

 181.31

 3.19

 12.74

 41.98

 37.07

 29.32

 2600.65

 SBI Bluechip

 11.67

 0.2

 6.09

 16.70

 2284.04

 Stan Chartered Classic Equity

 15.53

 0.27

 12.60

 27.21

 34.23

 420.80

 Sund BNP Pari CAPEX Opp.-D

 16.24

 0.18

 15.76

 52.59

 50.85

 372.17

 Sund BNP Pari India Leadership

 29.91

 0.58

 12.81

 32.67

 53.22

 314.64

 Sund BNP Paribas Rural India

 11.82

 0.22

 8.85

 18.17

 1006.79

 Sund BNP Paribas Select Midcap

 93.47

 1.1

 11.53

 56.19

 52.82

 64.60

 1815.52

 Tata Equity Opportunities

 58.63

 1.07

 13.05

 34.36

 38.20

 71.90

 472.82

 Tata Infrastructure

 23.80

 0.37

 13.58

 53.12

 52.51

 1112.66

 Tata Pure Equity

 60.99

 1.25

 11.13

 37.79

 36.75

 34.78

 303.00

 Templeton India Equity Income

 11.79

 0.15

 12.50

 17.90

 1860.96

 Templeton India Growth

 66.05

 1.16

 8.55

 29.38

 26.61

 21.24

 311.08

 UTI Contra

 9.85

 0.14

 3.03

 -1.50

 801.15

 UTI Dividend Yield

 15.86

 0.28

 6.02

 18.80

 31.31

 517.36

 UTI Equity

 32.61

 0.7

 5.95

 19.49

 25.93

 11.94

 1555.75

 UTI Infrastructure

 28.40

 0.43

 16.20

 53.68

 50.74

 662.84

 UTI Leadership Equity

 12.29

 0.24

 12.14

 22.90

 1114.92

 UTI Master Growth

 44.24

 0.76

 9.94

 32.26

 26.69

 16.30

 380.75

 UTI Master Plus 91

 65.84

 1.39

 12.86

 43.69

 30.47

 16.14

 938.84

 UTI Master Value

 30.58

 0.53

 6.96

 9.06

 22.80

 27.60

 740.97

 UTI Mastershare

 34.16

 0.63

 8.96

 23.68

 24.72

 21.98

 1967.52

 UTI Opportunities

 13.95

 0.28

 .50

 5.84

 25.23

 566.84

 UTI Services Sector

 49.40

 0.61

 17.82

 32.69

 32.15

 35.51

 389.59

 Hybrid: Equity-oriented

 Birla Balance

 27.84

 0.3

 7.24

 22.97

 20.40

 15.11

 123.23

 Birla Sun Life95

 174.81

 1.94

 7.12

 27.92

 26.98

 27.56

 129.57

 Canbalance II

 37.15

 0.5

 2.48

 30.86

 31.28

 12.12

 81.64

 DSPML Balanced

 38.55

 0.5

 9.18

 29.76

 26.96

 19.24

 408.02

 FT India Balanced

 32.59

 0.31

 8.61

 30.24

 24.37

 18.12

 253.90

 HDFC Balanced

 32.17

 0.21

 7.24

 24.60

 21.88

 19.95

 115.32

 HDFC Childrens Gift-Inv

 24.78

 0.37

 3.83

 10.43

 18.69

 21.83

 120.40

 HDFC Prudence

 114.21

 0.6

 9.25

 32.38

 33.45

 23.43

 2207.02

 Kotak Balance

 23.54

 0.25

 6.53

 25.73

 31.86

 22.05

 101.66

 Magnum Balanced

 35.40

 0.36

 9.29

 32.34

 37.06

 20.82

 261.02

 Pru ICICI Equit amp; Derivative Reg

 10.10

 0.07

 1.00

 1161.76

 Prudential ICICI Balanced

 34.82

 0.54

 10.16

 26.39

 27.91

 18.73

 495.37

 Prudential ICICI ChildCare-Gift

 40.80

 0.44

 11.26

 24.81

 26.16

 29.52

 105.53

 Tata Balanced

 49.45

 0.67

 11.30

 32.37

 27.69

 18.44

 153.07

 UTI Balanced

 55.49

 0.53

 4.03

 21.24

 20.90

 22.11

 1196.17

 Hybrid: Debt-oriented

 Escorts Opportunities*

 24.86

 -0.23

 3.26

 12.03

 11.57

 16.76

 72.66

 FT India 50s Plus Floating Rate

 13.53

 0.05

 3.29

 11.89

 12.69

 224.60

 HDFC Multiple Yield

 12.13

 0.03

 1.92

 5.85

 8.62

 321.66

 HDFC Multiple Yield Plan 2005

 11.00

 0.02

 1.75

 5.42

 6.88

 201.64

 Opti Inc Gro MMFoF 30% Equi*

 10.50

 -0.03

 3.73

 5.01

 64.43

 Prud ICICI Income Multiplier Reg

 14.41

 0.06

 4.32

 14.40

 13.65

 509.67

 Tata Young Citizens

 22.20

 0.17

 7.40

 21.19

 18.20

 16.29

 155.98

 Templeton India Pension

 43.65

 0.25

 6.43

 17.64

 15.08

 16.24

 135.71

 Unit Linked Insurance Plan 71

 15.69

 0.05

 3.05

 9.70

 11.71

 9.01

 3870.86

 UTI CCP Balanced

 15.00

 0.08

 2.27

 16.71

 12.94

 11.13

 2578.77

 UTI CRTS 81

 109.18

 0.25

 1.66

 8.68

 14.71

 14.05

 388.79

 UTI Mahila Unit Scheme-Gift

 27.53

 0.04

 4.33

 25.85

 19.85

 19.19

 85.38

 UTI Retirement Benefit Pension

 19.63

 0.05

 .12

 7.31

 12.93

 11.90

 460.40

 Hybrid: Asset Allocation

 Optimix Asset Allocator MMFoF*

 11.74

 -0.12

 2.68

 17.45

 218.05

 UTI Dynamic Equity

 36.50

 0.92

 15.84

 16.80

 32.98

 47.36

 149.50

 Debt: Medium-term

 Birla Income Plus

 30.44

 0

 1.55

 5.57

 2.89

 10.42

 233.71

 Birla Sun Life Income

 25.72

 0.01

 2.87

 7.67

 4.09

 10.05

 34.79

 DSPML Bond Retail

 24.79

 0

 1.21

 4.13

 2.97

 9.76

 57.70

 Grindlays SSI Inv

 16.79

 0

 1.38

 4.63

 2.45

 8.28

 61.55

 Grindlays SSI Medium-term

 11.76

 0

 1.78

 6.86

 4.27

 4.68

 359.71

 HDFC High Interest

 24.53

 0

 .58

 2.82

 2.15

 9.63

 44.78

 HDFC Income

 16.70

 0

 .90

 2.58

 2.24

 8.31

 237.89

 HSBC Income Investment

 12.37

 0

 1.38

 5.27

 3.36

 5.31

 32.45

 Kotak Bond Deposit

 18.61

 0

 1.59

 5.45

 3.74

 9.02

 54.30

 Kotak Bond Regular

 19.50

 0

 2.04

 6.69

 4.49

 9.74

 159.45

 Kotak Flexi Debt

 11.44

 0

 1.85

 7.17

 6.55

 442.27

 LICMF Bond

 19.88

 0

 .30

 4.80

 3.58

 9.35

 110.54

 Magnum Income

 19.76

 0

 1.25

 3.94

 2.55

 8.67

 81.28

 OptiMix Active Debt Multi FoF*

 10.04

 0

 .39

 107.79

 Principal Income

 17.40

 0

 1.32

 6.72

 4.16

 9.30

 662.15

 Prudential ICICI Income

 21.64

 0

 1.83

 6.04

 3.44

 9.43

 302.77

 Prudential ICICI Long-term

 15.38

 0

 1.53

 6.35

 7.78

 9.40

 33.04

 Reliance Income

 23.25

 0.01

 1.83

 6.06

 4.53

 9.77

 96.08

 Sund BNP Paribas Bond Saver

 22.69

 0

 1.18

 3.75

 2.02

 9.37

 66.25

 Tata Income

 24.85

 0

 1.27

 2.96

 4.76

 9.82

 45.01

 Templeton India Income

 25.63

 0

 1.36

 4.04

 2.77

 10.00

 190.39

 Templeton India Income Builder

 24.99

 0

 1.58

 3.73

 2.36

 10.05

 105.79

 UTI Bond

 21.58

 0

 1.21

 4.87

 4.97

 9.39

 324.11

 Hybrid: Monthly Income

 ABN AMRO MIP

 13.03

 0.06

 7.21

 13.63

 11.89

 53.72

 Birla MIP

 19.14

 0.05

 2.57

 9.36

 7.26

 11.13

 186.95

 Birla MIP II Wealth 25

 13.50

 0.05

 3.07

 11.10

 11.76

 108.25

 Birla Sun Life MIP

 25.34

 0.08

 3.37

 12.62

 8.38

 13.20

 130.93

 DSPML Savings Plus Aggressive

 13.72

 0.06

 4.27

 12.96

 12.78

 61.86

 DSPML Savings Plus Moderate

 15.14

 0.04

 3.47

 10.55

 8.75

 11.25

 199.87

 FT India MIP

 20.60

 0.04

 2.68

 9.44

 9.13

 12.18

 619.99

 HDFC MIP Long-term

 14.64

 0.03

 2.62

 12.02

 12.11

 13.11

 1141.50

 HDFC MIP Short-term

 12.88

 0.03

 1.78

 5.68

 7.71

 8.51

 366.07

 HSBC MIP Regular

 12.30

 0.03

 2.78

 8.87

 7.37

 53.18

 HSBC MIP Savings

 13.21

 0.06

 3.92

 10.86

 10.02

 77.33

 Kotak Income Plus

 13.08

 0.04

 2.57

 8.54

 7.99

 8.86

 105.10

 LICMF Floater MIP Plan A

 12.56

 0.05

 2.65

 10.76

 10.61

 70.61

 LICMF MIP

 24.10

 0.07

 3.10

 11.36

 9.66

 10.68

 194.97

 Magnum MIP

 16.65

 0.05

 1.53

 7.88

 6.68

 9.17

 130.09

 MMIP Floater

 10.77

 0.03

 1.83

 6.94

 6.87

 36.84

 Principal MIP

 15.08

 0.03

 2.02

 5.65

 5.96

 9.19

 61.75

 Prudential ICICI MIP

 19.00

 0.04

 3.52

 11.54

 9.16

 10.87

 669.94

 Reliance MIP

 13.86

 0.05

 3.39

 13.29

 11.33

 496.12

 Sundaram BNP Paribas MIP

 12.74

 0.03

 2.35

 7.51

 8.26

 52.58

 Tata MIP

 14.33

 0.03

 1.50

 4.30

 5.26

 11.40

 38.98

 Tata MIP Plus

 11.96

 0.06

 3.07

 6.11

 6.42

 58.24

 Templeton MIP-G

 19.84

 0.02

 2.49

 9.06

 7.90

 10.39

 144.96

 UTI MIS-Advantage Plan

 14.02

 0.05

 4.05

 11.92

 11.27

 11.61

 111.63

 UTI Monthly Income Scheme

 13.77

 0.04

 1.88

 8.47

 6.34

 7.80

 202.38

 Gilt: Medium amp; Long-term

 Birla Gilt Plus PF

 20.90

 0

 2.39

 5.54

 2.94

 10.69

 95.02

 Birla Gilt Plus Regular

 23.50

 0.01

 2.57

 7.31

 3.77

 12.49

 60.45

 Cangilt (PGS)

 18.36

 0

 1.29

 3.48

 2.30

 9.01

 79.49

 DSPML GSF Longer Duration

 23.29

 0

 1.82

 4.71

 3.47

 12.26

 33.68

 HDFC Gilt Long-term

 15.70

 0

 1.46

 2.47

 1.18

 8.56

 38.29

 Kotak Gilt Investment Regular

 23.93

 0

 1.78

 4.84

 3.39

 11.43

 33.88

 LICMF GSF

 18.86

 0.01

 1.19

 4.17

 2.58

 9.32

 58.40

 Magnum Gilt Long-term

 17.11

 0

 1.58

 4.53

 2.40

 9.27

 254.72

 Principal GSF Provident

 10.96

 0

 1.36

 4.79

 3.18

 65.13

 Prudential ICICI Gilt Investment

 22.59

 -0.01

 3.46

 7.88

 4.16

 11.59

 108.42

 Prud ICICI Gilt Investment PF

 11.97

 -0.01

 3.57

 9.94

 5.68

 5.85

 82.93

 Reliance Gilt Long-term

 12.81

 0

 2.42

 6.44

 6.33

 7.27

 40.59

 Tata GSF

 23.08

 0.01

 1.30

 3.62

 1.45

 11.89

 222.47

 Templeton IGSF Long-term

 16.59

 0

 2.38

 6.01

 4.32

 10.44

 56.47

 Templeton India GSF Composite

 24.27

 0.01

 1.98

 4.60

 2.88

 12.44

 135.86

 UTI Gilt Advantage Long-term

 15.28

 0

 1.80

 5.63

 3.52

 8.89

 52.05

 UTI G-Sec

 19.09

 0.01

 1.46

 4.65

 2.20

 9.18

 134.88

 Debt: Floating Rate Short-term

 HDFC Floating Rate Income ST

 12.39

 0

 1.83

 6.70

 5.64

 5.49

 972.02

 LICMF Floating Rate ST

 11.76

 0

 2.06

 7.27

 5.99

 1419.85

 Prudential ICICI Floating Rate A

 11.44

 0

 1.74

 6.45

 5.62

 1229.77

 Templeton Floating Rate ST

 13.25

 0

 1.78

 6.29

 5.46

 5.86

 953.03

 Debt: Floating Rate Short-term Inst

 Prudential ICICI Floating Rate B

 12.27

 0

 1.81

 6.72

 5.66

 5.54

 2157.35

 Debt: Floating Rate Long-term

 Templeton Floating Rate LT

 13.26

 0

 1.81

 6.28

 5.44

 5.87

 924.76

 Debt: Ultra Short-term

 ABN AMRO Cash Regular

 11.29

 0

 1.72

 5.90

 5.27

 839.23

 Birla Cash Plus Retail

 19.82

 0

 1.77

 6.60

 5.42

 7.40

 5537.49

 Birla Sun Life Cash Manager

 18.10

 0

 1.83

 6.55

 5.42

 7.08

 933.82

 DSPML Liquid Plus Retail

 1031.02

 0.2

 1.76

 3.10

 2935.96

 DSPML Liquidity

 18.04

 0

 1.75

 6.65

 5.60

 6.89

 2642.70

 DWS Insta Cash Plus

 12.37

 0

 1.82

 6.73

 5.55

 5.50

 1097.84

 DWS Money Plus

 10.62

 0

 1.88

 6.22

 2007.79

 HDFC Cash Mgmt Call

 12.71

 0

 1.94

 6.69

 5.11

 4.99

 1253.78

 HDFC Cash Mgmt Saving

 15.36

 0

 1.85

 6.80

 5.64

 6.84

 4769.91

 HDFC Cash Mgmt Saving Plus

 15.97

 0

 1.87

 6.60

 5.47

 6.76

 1068.43

 HDFC Liquid

 14.62

 0

 1.82

 6.60

 5.44

 6.28

 1800.73

 HSBC Cash

 12.40

 0

 1.75

 6.41

 5.39

 5.38

 2303.09

 HSBC Liquid Plus Regular

 10.18

 0

 1.84

 1809.20

 ING Vysya Liquid

 15.61

 0

 1.75

 6.38

 5.39

 6.54

 1708.19

 Kotak Liquid Regular

 14.57

 0

 1.66

 6.13

 5.09

 6.19

 4553.94

 LICMF Liquid

 13.38

 0

 1.97

 7.17

 5.94

 6.20

 6714.29

 Principal Cash Mgt Liquid

 14.48

 0

 1.73

 6.43

 5.33

 6.13

 4557.55

 Prudential ICICI Liquid

 18.05

 0

 1.73

 6.42

 5.35

 7.13

 10917.10

 Reliance Liquid Cash

 12.88

 0

 1.77

 6.09

 4.95

 5.09

 2445.52

 Reliance Liquid Treasury

 17.77

 0

 1.74

 6.10

 5.20

 6.73

 1734.52

 Sundaram BNP Paribas Money

 15.46

 0

 1.72

 6.38

 5.47

 6.56

 1005.12

 Tata Liquid

 1705.79

 0.36

 1.80

 6.56

 5.38

 6.58

 4443.90

 Templeton India TMA

 1832.50

 0.34

 1.73

 6.34

 5.37

 7.20

 3198.32

 UTI Liquid Cash Regular

 1206.28

 0.24

 1.80

 6.52

 5.53

 5.42

 8788.29

 Net asset value (NAV) as on January 11, 2007. Schemes marked with * indicate NAV from previous day. Change indicates gain/loss (in Rs) in NAV over previous trading day. Lifetime represents return (in per cent) since inception. 3-month and 1-year returns are absolute, 3-year and lifetime returns are annualised. Size indicates asset under management in Rs crore. Source: Value Research (www.valueresearchonline.com) 




</TEXT>
</DOC>