<DOC>
<DOCNO>1070904_business_story_8272905.utf8</DOCNO>
<TEXT>


The Telegraph - Calcutta : Business

 MUTUAL FUND

 FUND EQUITY:

DIVERSIFIED

 NAV

 Change

 RETURNS

 Size

 3-Month

 1-Year

 3-Year

 Lifetime

 ABN AMRO Opportunities

 25.36

 0.4

 5.96

 52.41

 46.66

 373.85

 AIG India Equity Regular

 10.45

 0.1

 4.46

 1139.77

 Birla Advantage

 140.47

 1.93

 5.64

 32.13

 42.13

 25.34

 512.67

 Birla Dividend Yield Plus

 47.62

 0.5

 3.19

 21.45

 30.19

 40.68

 367.39

 Birla Infrastructure

 14.99

 0.22

 13.05

 50.20

 30.44

 454.57

 Birla Mid Cap

 80.16

 0.9

 11.71

 50.14

 50.04

 52.58

 367.35

 Birla Sun Life Equity

 219.63

 2.18

 7.73

 48.94

 54.75

 40.82

 808.67

 Birla Top 100

 17.76

 0.2

 5.62

 28.36

 34.61

 466.53

 DSPML Equity Fund

 46.61

 0.47

 4.53

 43.96

 53.69

 28.64

 868.33

 DSPML Opportunities

 64.08

 0.63

 7.43

 35.76

 47.59

 28.52

 1501.78

 DSPML Small And Mid Cap Reg

 11.60

 0.17

 3.34

 16.03

 1404.55

 DSPML T.I.G.E.R. Reg

 40.36

 0.33

 9.45

 52.60

 54.71

 53.09

 1971.57

 DSPML Top 100 Equity Reg

 66.81

 0.73

 4.01

 38.79

 46.59

 52.03

 456.24

 Fidelity Equity

 24.84

 0.3

 5.08

 44.60

 46.67

 3126.91

 Fidelity India Special Situations

 14.40

 0.22

 4.54

 36.08

 30.84

 2231.69

 Fidelity Internation Opportunities

 10.18

 0.11

 1.00

 1.75

 1645.59

 Franklin India Bluechip

 149.52

 1.34

 6.79

 33.80

 43.13

 29.65

 2615.88

 Franklin India Flexi Cap

 23.98

 0.23

 7.03

 31.85

 40.65

 3491.61

 Frank India High Grow Com Fund

 10.19

 0.14

 1.92

 1486.52

 Franklin India Opportunities

 29.11

 0.39

 4.36

 35.00

 48.77

 41.98

 911.36

 Franklin India Prima

 231.97

 2.34

 6.45

 31.77

 41.18

 25.66

 1542.93

 Franklin India Prima Plus

 160.48

 1.34

 5.49

 41.98

 46.74

 23.92

 1365.78

 HDFC Capital Builder

 77.02

 0.69

 9.49

 42.11

 42.94

 16.19

 688.42

 HDFC Core amp; Satellite

 28.61

 0.17

 7.52

 26.99

 42.28

 597.38

 HDFC Equity

 170.66

 1.84

 5.41

 33.26

 47.84

 25.03

 4620.96

 HDFC Growth Fund

 58.50

 0.33

 9.75

 42.93

 46.35

 28.39

 509.09

 HDFC Premier Multi-Cap

 21.00

 0.08

 5.60

 32.01

 35.29

 682.50

 HDFC Top 200

 127.09

 0.89

 6.33

 31.97

 46.66

 28.38

 2048.81

 HSBC Advantage India

 14.53

 0.15

 8.58

 36.65

 26.32

 924.61

 HSBC Equity

 80.02

 0.5

 6.25

 33.17

 40.42

 54.88

 1004.27

 HSBC India Opportunities

 30.93

 0.28

 1.09

 31.55

 42.72

 37.36

 701.24

 ICICI Prudential Discovery

 27.74

 0.14

 -1.74

 9.08

 39.77

 39.04

 738.82

 ICICI Prudential Dynamic

 72.86

 0.64

 3.96

 37.00

 56.34

 50.23

 2415.83

 ICICI Prudential Emerging STAR

 32.91

 0.35

 6.16

 43.21

 50.53

 1117.38

 ICICI Prudential Growth

 104.20

 0.47

 4.36

 28.69

 45.48

 28.97

 481.17

 ICICI Prudential Infrastructure

 22.83

 0.16

 10.34

 52.91

 49.60

 2028.65

 ICICI Prudential Power

 92.01

 0.75

 3.10

 32.94

 48.00

 18.60

 1514.19

 ICICI Prud Services Industries

 17.54

 0.2

 2.57

 56.19

 36.83

 673.69

 JPMorgan India Equity

 10.96

 0.09

 9.60

 925.32

 Kotak 30

 78.65

 0.35

 6.71

 34.67

 46.36

 31.23

 488.14

 Kotak Lifestyle

 13.13

 0.17

 -.70

 38.24

 19.50

 332.11

 Magnum COMMA

 18.72

 0.15

 10.05

 35.85

 34.61

 442.99

 Magnum Contra

 44.49

 0.44

 6.77

 40.35

 60.83

 34.47

 1906.56

 Magnum Global

 48.04

 0.74

 5.37

 41.21

 62.58

 16.84

 1594.47

 Magnum Midcap

 26.24

 0.48

 9.65

 48.67

 47.88

 423.40

 Magnum MultiCap

 17.15

 0.23

 6.26

 27.79

 31.60

 1056.34

 Magnum Multiplier Plus

 64.24

 0.96

 13.02

 44.62

 60.42

 16.87

 926.02

 Reliance Equity

 13.18

 0.06

 6.12

 28.33

 20.31

 3493.68

 Reliance Equity Opportunities

 23.55

 0.31

 3.20

 30.91

 41.01

 2616.63

 Reliance Growth

 316.29

 4.51

 6.50

 45.01

 55.25

 33.63

 4082.03

 Reliance Vision

 215.36

 1.08

 7.11

 41.50

 49.69

 29.39

 3319.29

 SBI Bluechip

 12.64

 0.1

 3.35

 21.07

 15.57

 1563.42

 Stan Chartered Classic Equity

 18.28

 0.23

 8.21

 37.82

 32.56

 365.80

 Stan Chartered Premier Equity

 17.68

 0.24

 10.49

 64.50

 34.21

 371.55

 Sund BNP Pari CAPEX Opp.-D

 20.34

 0.27

 15.82

 53.94

 47.85

 396.22

 Sund BNP Paribas Rural India

 12.95

 0.14

 7.72

 25.23

 20.71

 577.43

 Sund BNP Paribas Select Focus

 68.66

 0.26

 8.55

 36.05

 44.88

 45.59

 337.87

 Sund BNP Paribas Select Midcap

 101.23

 1.37

 4.91

 29.83

 55.01

 57.04

 2091.92

 Tata Equity Opportunities

 68.39

 0.85

 6.61

 40.00

 47.80

 64.50

 468.61

 Tata Infrastructure

 29.53

 0.43

 14.26

 53.11

 49.37

 1558.01

 Tata Pure Equity

 71.62

 0.75

 7.34

 35.64

 45.74

 34.32

 332.13

 Templeton India Equity Income

 14.04

 0.08

 5.60

 39.74

 28.07

 1687.35

 Templeton India Growth

 75.70

 0.07

 2.72

 30.43

 38.38

 21.38

 333.61

 UTI Contra

 10.10

 0.09

 1.81

 9.07

 .69

 413.63

 UTI Dividend Yield

 18.60

 0.22

 5.50

 31.45

 30.41

 658.24

 UTI Equity

 35.96

 0.2

 2.92

 23.70

 35.12

 12.12

 1666.71

 UTI Infrastructure

 34.22

 0.44

 11.65

 52.84

 57.61

 47.34

 1176.48

 UTI Leadership Equity

 14.20

 0.12

 8.31

 38.81

 24.64

 1024.17

 UTI Master Growth

 49.70

 0.4

 5.72

 28.66

 36.85

 16.46

 376.40

 UTI Master Plus 91

 73.95

 0.35

 5.72

 35.34

 41.41

 16.28

 1019.39

 UTI Master Value

 31.63

 0.16

 2.00

 20.40

 26.67

 25.90

 585.11

 UTI Mastershare

 39.77

 0.16

 6.11

 33.01

 34.99

 22.12

 2181.56

 UTI Mid Cap

 23.09

 0.34

 3.31

 20.14

 31.13

 31.34

 404.44

 UTI Opportunities

 16.78

 0.16

 10.61

 25.98

 27.61

 500.21

 UTI Services Sector

 54.29

 0.63

 4.06

 39.28

 38.89

 33.85

 489.25

 Hybrid: Equity-oriented

 Birla Balance

 30.94

 0.17

 4.56

 24.76

 27.52

 15.33

 119.62

 Birla Sun Life95

 211.30

 1.53

 5.58

 38.91

 36.36

 27.90

 154.16

 Canbalance II

 41.91

 0.41

 6.53

 17.72

 37.50

 12.48

 98.89

 DSPML Balanced

 44.18

 0.37

 3.26

 30.22

 33.28

 19.57

 473.65

 FT India Balanced

 37.36

 0.26

 5.62

 30.55

 31.08

 18.57

 284.05

 HDFC Balanced

 33.00

 0.12

 3.11

 13.83

 24.81

 18.40

 122.34

 HDFC Childrens Gift-Inv

 27.58

 0.13

 3.61

 19.59

 26.09

 21.46

 139.53

 HDFC Prudence

 130.49

 0.59

 7.18

 32.78

 39.42

 23.41

 2676.14

 ICICI Pru Equit amp; Derivative Reg

 11.26

 0.07

 3.78

 12.60

 1141.11

 ICICI Prudential Balanced

 37.15

 0.31

 1.92

 21.48

 31.92

 18.04

 425.25

 ICICI Prudential ChildCare-Gift

 45.63

 0.37

 6.86

 32.61

 32.02

 28.36

 121.84

 Kotak Balance

 26.22

 0.22

 5.12

 22.83

 36.11

 21.73

 89.09

 LICMF ULIS

 12.35

 0.07

 8.56

 27.18

 28.03

 22.79

 62.38

 Magnum Balanced

 39.52

 0.35

 4.74

 28.27

 41.33

 20.70

 308.93

 Principal Balanced

 24.31

 0.11

 5.60

 21.98

 28.08

 12.23

 165.99

 Tata Balanced

 58.15

 0.6

 6.76

 36.06

 36.48

 18.97

 176.28

 UTI Balanced

 61.21

 0.35

 6.36

 21.23

 25.07

 21.81

 1157.78

 Hybrid: Debt-oriented

 Canbalance

 31.63

 0.18

 8.47

 23.12

 19.11

 18.78

 65.12

 Escorts Opportunities

 28.15

 0.42

 5.31

 20.35

 18.21

 17.20

 96.36

 FT India 50s Plus Floating Rate

 14.53

 0.03

 2.61

 12.73

 12.71

 12.49

 182.23

 HDFC Multiple Yield

 12.87

 0.07

 2.31

 8.88

 8.82

 131.31

 HDFC Multiple Yield Plan 2005

 11.63

 -0.01

 3.07

 8.27

 7.54

 74.13

 Tata Young Citizens

 24.31

 0.23

 4.52

 21.59

 23.56

 16.23

 166.60

 Templeton India Pension

 47.44

 0.18

 5.16

 19.15

 18.20

 16.09

 157.41

 Unit Linked Insurance Plan 71

 15.39

 0.05

 3.93

 13.96

 16.46

 9.07

 3708.62

 UTI CCP Balanced

 14.29

 0.04

 2.88

 11.33

 16.70

 10.97

 2627.42

 UTI CRTS 81

 117.78

 0.24

 4.83

 10.96

 17.88

 14.01

 400.73

 UTI Mahila Unit Scheme-Gift

 29.52

 0.07

 4.06

 13.22

 23.20

 18.38

 86.89

 UTI Retirement Benefit Pension

 19.18

 0.04

 3.79

 10.08

 17.05

 11.90

 494.51

 Hybrid: Asset Allocation

 Optimix Asset Allocator MMFoF*

 12.75

 0.16

 4.63

 17.54

 24.87

 97.40

 Debt: Medium-term

 ABN AMRO Flexi Debt Regular

 11.93

 0.01

 1.17

 8.54

 6.05

 172.83

 Birla Income Plus

 32.32

 0.03

 5.12

 8.91

 5.39

 10.38

 303.96

 Birla Sun Life Income

 27.46

 0.01

 3.80

 11.07

 6.37

 10.09

 41.19

 DSPML Bond Retail

 25.57

 0.03

 1.43

 5.26

 4.42

 9.45

 43.08

 DSPML Strategic Bond Regula

 1026.42

 0.66

 1.93

 2.64

 1473.14

 Grindlays SSI Inv

 17.60

 0.02

 3.05

 7.29

 4.39

 8.22

 44.25

 Grindlays SSI Medium-term

 12.30

 0.01

 2.29

 7.21

 5.31

 5.06

 136.03

 HDFC High Interest

 25.15

 0.02

 2.53

 3.85

 3.49

 9.27

 33.82

 HDFC Income

 17.18

 0.01

 2.98

 4.68

 3.49

 7.96

 219.37

 ICICI Prudential Flexible Income

 14.23

 0.01

 1.91

 8.29

 6.10

 7.38

 3812.75

 ICICI Prudential Income

 22.41

 0.02

 3.97

 7.22

 5.01

 9.15

 308.45

 Kotak Bond Deposit

 19.24

 0.01

 2.64

 6.02

 5.06

 8.71

 38.74

 Kotak Bond Regular

 20.39

 0.02

 3.10

 7.90

 6.08

 9.52

 159.45

 Kotak Flexi Debt

 12.05

 0.01

 2.02

 8.19

 7.00

 5710.83

 LICMF Bond

 21.01

 0.01

 3.36

 6.68

 5.64

 9.32

 86.78

 Magnum Income

 20.34

 0.01

 2.23

 5.27

 4.02

 8.37

 61.62

 OptiMix Active Debt Multi FoF*

 10.51

 0.01

 2.40

 5.06

 97.52

 Principal Income

 10.82

 0

 1.70

 6.34

 5.42

 8.95

 276.52

 Reliance Income

 24.03

 0.02

 2.68

 6.64

 5.53

 9.47

 46.68

 Sahara Income

 13.53

 0.01

 1.90

 8.74

 5.47

 5.60

 116.55

 Sund BNP Paribas Bond Saver

 23.34

 0.01

 1.33

 4.97

 3.38

 9.04

 56.56

 Tata Dynamic Bond A

 12.52

 0.01

 2.05

 7.73

 6.05

 5.77

 186.01

 Tata Income

 25.83

 0.02

 1.97

 6.26

 6.17

 9.59

 36.87

 Templeton India Income

 26.81

 0.02

 3.26

 6.82

 4.65

 9.83

 187.91

 Templeton India Income Builder

 25.58

 0.01

 2.51

 5.26

 3.56

 9.64

 90.74

 UTI Bond

 22.39

 0.06

 2.53

 5.97

 6.37

 9.14

 274.96

 Hybrid: Monthly Income

 ABN AMRO MIP

 13.54

 0.03

 1.88

 13.86

 10.64

 92.19

 Birla MIP

 20.62

 0.03

 4.88

 12.83

 9.96

 11.24

 139.55

 Birla MIP II Savings 5

 12.14

 0.01

 2.61

 8.27

 6.42

 5.96

 656.58

 Birla MIP II Wealth 25

 14.34

 0.04

 4.00

 11.91

 12.33

 11.38

 102.97

 Birla Sun Life MIP

 27.18

 0.07

 3.84

 13.79

 10.97

 13.06

 141.36

 DSPML Savings Plus Aggressive

 14.73

 0.05

 2.58

 13.60

 12.82

 12.55

 78.97

 DSPML Savings Plus Moderate

 15.90

 0.04

 1.83

 9.87

 10.19

 10.77

 143.15

 FT India MIP

 22.01

 0.06

 3.78

 11.88

 10.95

 12.05

 547.29

 HDFC MIP Long-term

 15.82

 0.03

 3.58

 13.53

 14.59

 13.04

 1158.73

 HDFC MIP Short-term

 13.34

 0.02

 1.01

 6.57

 8.42

 8.01

 177.63

 HSBC MIP Regular

 13.15

 0.02

 3.39

 11.22

 8.98

 8.00

 44.23

 HSBC MIP Savings

 14.35

 0.03

 4.04

 14.82

 12.00

 10.69

 70.69

 ICICI Prud Income Multiplier Reg

 15.05

 0.02

 2.36

 11.64

 14.59

 12.40

 464.69

 ICICI Prudential MIP

 19.79

 0.03

 2.60

 9.48

 10.49

 10.45

 573.32

 Kotak Income Plus

 13.54

 0.03

 1.51

 7.32

 10.02

 8.30

 55.33

 LICMF Floater MIP Plan A

 13.72

 0.04

 4.02

 13.75

 11.50

 59.96

 LICMF MIP

 26.00

 0.05

 4.65

 12.79

 12.14

 10.81

 180.61

 Magnum MIP

 17.31

 0.03

 2.32

 6.45

 8.45

 8.87

 97.40

 Principal MIP

 16.07

 0.03

 3.36

 10.33

 8.03

 9.32

 43.11

 Reliance MIP

 13.96

 0.03

 2.23

 6.22

 11.01

 9.48

 391.67

 Sundaram BNP Paribas MIP

 13.18

 0.01

 1.88

 6.72

 8.98

 7.74

 33.71

 Tata MIP Plus

 12.66

 0.03

 2.74

 9.96

 8.14

 6.92

 45.37

 Templeton MIP-G

 21.00

 0.05

 3.06

 10.20

 9.64

 10.29

 117.63

 UTI MIS-Advantage Plan

 14.88

 0.06

 2.96

 12.32

 13.25

 11.28

 84.41

 UTI Monthly Income Scheme

 14.60

 0.04

 2.76

 9.09

 8.29

 8.03

 163.34

 Gilt: Medium amp; Long-term

 Birla Gilt Plus PF

 21.32

 0.01

 2.19

 6.61

 4.43

 10.06

 66.60

 Birla Gilt Plus Regular

 24.56

 0.01

 3.71

 10.46

 6.02

 12.05

 51.78

 ICICI Prudential Gilt Investment

 23.42

 0.01

 3.25

 9.64

 5.78

 11.12

 109.44

 ICICI Prud Gilt Investment PF

 12.33

 0.01

 4.35

 9.25

 6.69

 5.67

 77.68

 Kotak Gilt Investment Regular

 24.23

 0.02

 2.06

 4.70

 4.17

 10.70

 40.09

 LICMF GSF

 19.51

 0.01

 1.71

 5.69

 3.87

 8.98

 52.15

 Magnum Gilt Long-term

 17.83

 0.01

 1.62

 7.01

 4.65

 9.01

 217.16

 Principal GSF Provident

 11.20

 0

 3.11

 4.85

 4.54

 3.23

 44.19

 Reliance Gilt Long-term

 13.22

 0.02

 2.45

 8.12

 6.54

 6.92

 37.54

 Tata GSF

 23.79

 0.03

 1.05

 5.85

 3.19

 11.31

 236.33

 Templeton IGSF Long-term

 16.94

 0.02

 1.45

 6.28

 4.29

 9.61

 65.55

 Templeton India GSF Composite

 24.79

 0.04

 1.39

 5.24

 3.74

 11.70

 122.27

 UTI Gilt Advantage Long-term

 15.63

 0.02

 1.41

 5.42

 5.08

 8.27

 55.02

 UTI G-Sec

 19.67

 0.03

 1.96

 5.67

 3.85

 8.82

 125.83

 Debt: Liquid Plus

 ABN AMRO Money Plus Reg

 11.37

 0.01

 1.92

 8.28

 7.12

 2494.04

 Birla Sun Life Liquid Plus Retail

 14.38

 0.01

 2.09

 7.40

 6.33

 6.49

 3933.06

 DSPML Liquid Plus Retail

 1076.32

 0.55

 1.49

 7.02

 6.96

 3843.22

 DWS Money Plus

 11.21

 0.01

 1.95

 8.28

 7.95

 4455.78

 HDFC Cash Mgmt Sav Plus Retail

 16.81

 0.01

 1.86

 8.02

 6.41

 6.89

 6078.12

 HSBC Liquid Plus Regular

 10.72

 0.01

 1.95

 7.24

 6429.63

 ING Liquid Plus Regular

 10.40

 0.01

 2.01

 4.01

 2836.13

 Lotus India Liquid Plus Retail

 10.51

 0.01

 1.92

 5.09

 4205.06

 Reliance Liquid Plus Retail

 1040.60

 0.65

 1.92

 4.06

 7255.58

 Sund BNP Pari Liquid Plus Retail

 10.31

 0.01

 1.94

 3.07

 2539.78

 UTI Liquid Plus

 1963.91

 1.13

 1.86

 6.69

 5.20

 8.63

 4105.33

 Debt: Floating Rate Short-term

 Reliance Floating Rate

 12.09

 0

 1.83

 8.26

 6.52

 6.50

 2365.56

 ICICI Prudential Floating Rate B

 12.93

 0.01

 1.88

 8.01

 6.47

 5.95

 2157.35

 Debt: Floating Rate Long-term

 Grindlays Floating Rate LT A

 11.91

 0.01

 1.82

 7.34

 5.83

 5.80

 5375.25

 Prin Float Rate Flexible Maturity

 12.12

 0.01

 2.05

 8.42

 6.64

 6034.97

 Tata Floater

 11.42

 0.01

 2.03

 8.04

 6.89

 3280.96

 Templeton Floating Rate LT Retail

 13.97

 0.01

 1.86

 8.07

 6.21

 6.16

 3925.51

 Debt: Ultra Short-term

 Birla Cash Plus Retail

 20.80

 0

 1.68

 7.52

 6.17

 7.43

 10727.35

 HDFC Cash Mgmt Saving

 16.15

 0

 1.74

 7.89

 6.40

 6.95

 5177.93

 HDFC Liquid

 15.37

 0

 1.70

 7.77

 6.26

 6.44

 4105.14

 HSBC Cash

 13.01

 0

 1.66

 7.44

 6.07

 5.69

 3499.63

 ICICI Prudential Liquid

 18.98

 0

 1.78

 7.66

 6.16

 7.20

 17581.23

 ING Liquid

 16.35

 0

 1.60

 7.30

 6.03

 6.61

 3140.50

 Kotak Liquid Regular

 15.24

 0

 1.56

 6.99

 5.75

 6.28

 8882.75

 LICMF Liquid

 14.05

 0

 1.67

 7.87

 6.57

 6.40

 8361.72

 Magnum InstaCash (Cash)

 17.32

 0

 1.49

 7.40

 6.11

 6.85

 4597.03

 Principal Cash Mgt Liquid

 15.17

 0

 1.58

 7.25

 5.99

 6.25

 5585.35

 Tata Liquid

 1791.44

 0.35

 1.75

 7.66

 6.14

 6.68

 8416.41

 Templeton India TMA

 1921.83

 0.43

 1.66

 7.41

 6.02

 7.24

 4310.80

 UTI Liquid Cash Regular

 1261.64

 0.25

 1.43

 7.23

 6.14

 5.69

 7739.27

 Net asset value (NAV) as on September 3, 2007. Schemes marked with * indicate NAV from previous day. Change indicates gain/loss (in Rs) in NAV over previous trading day. Lifetime represents return (in per cent) since inception. 3-month and 1-year returns are absolute, 3-year and lifetime returns are annualised. Size indicates asset under management in Rs crore. Source: Value Research (www.valueresearchonline.com) 




</TEXT>
</DOC>