<DOC>
<DOCNO>1070824_sports_story_8231507.utf8</DOCNO>
<TEXT>


The Telegraph - Calcutta : Sports

 7 for Saturdays main event 

 OUR TURF CORRESPONDENT

 Calcutta: In a seven-horse field vying for Saturdays main event, the 1,800m Roll N Twist Cup Paladin carried the topweight of 60-kg and Starlite 51kg. The first race start at 1.30 pm.ACCEPTANCES

 1. Espoir Handicap 1,000m Rt 20-70, 5-y- amp; over)1.30 pm: Acrostic 61; Grand Pere 55.5; Champion Crusader 54.5; Magic Mantra 53.5; Aptitude 53; Mozart 53; Fighting Force 51.5.

 2. Roll N Twist Cup 1,800m Rt 40-90 2 pm: Paladin 60; Thousand Stars 57.5; Imperialism 57; Mystro 55.5; Mythical Star 53.5; Red Apache 51.5; Starlite 51.

 3. Dorania Handicap 1,200m Rt 20-70 2.45 pm: Condrieu 60; Ecstatic Pride 57.5; Mani At Eighty 57.5; Secret Wish 55.5 Falaknuma 55; Athymia 54.5; El Cid 53; Dynamic Quest 52.

 4. Rising Bell Plate 1,000m Rt 00-30, 3-y- only 3.15 pm: Desire Lad 62; Ferdunji Cooverji 62; Our Dragon 61; Aishe 60.5; Lizzy Arden 60.5; Oriental Lass 60; Betelgeuse 59; Scorsese 58.5; Cheeky Girl 56.5.

 5. Fair Ray Handicap 1,400m Rt 00-50 3.45 pm: Glenbervie 61; King Is Born 59.5; Flicker 59; Flying Jaguar 57; Asmodeus 56; Canterbury Rocks 54.5; Alterio 54; Sweet Success 54; Megillah 53; Hint Of Glory 52.5.

 6. Prince Regent Cup 1,400m Rt 00-30 4.15 pm: Southern Belle 60.5; Dil Chahta Hai 60; Eveready Sir 59; Kinship 58.5; Avisholom 54.5; Elusive Adventure 54.5; Crystal Bounty 53.5; Handsome Grey 53; The Nonesuch 51; Sunlight King 50; Valintine Dancer 50; Ganga Bose 48.

 7. Gold Kale Handicap 1,200m Rt 00-50 4.45 pm: Dance Music 60; Fast Love 57.5; Royal County Down 57.5; Vieille 57; Appetent 56; Devilish 55.5; Schumacher 55.5; Lusitania 55; Ocean Haze 54; Romantic Stars 54; Silent Hunter 54; Swing Lucky 51.5; Rock Superstar 50.

 Jackpot: 3, 4, 5, 6 amp; 7. Treble: (i) 2, 3 amp; 4; (ii) 5, 6 amp; 7.




</TEXT>
</DOC>