<DOC>
<DOCNO>1070110_sports_story_7242217.utf8</DOCNO>
<TEXT>


The Telegraph - Calcutta : Sports

 Seven events in Thursday card 

 OUR TURF CORRESPONDENT

 Calcutta: Active Asset heads the scales at 60kg in the 2,000m Pearson Surita Memorial Cup, the main event in Thursdays seven-event card. The first race starts at 12.45 pm.

 ACCEPTANCES

 1. Pearson Surita Memorial Cup 2,000m (Rt 40-90) 12.45 pm: Active Asset 60; .Presidium 56.5; Mystro 53.5; Starlite 52.5.

 2. Baqlava Cup 2,000m (Rt 20-70) 1.15 pm: Clockwork 61.5; Rosenkavalier 60.5; Local Thriller 59.5; Remarquable 57.5; King Is Born 50; Regal Romance 49.5; Salinger 49.5.

 3. Favorite Handicap 1,100m (Rt 00-50) 1.55 pm: Charulata 60; Candle Light 59; Romantic Escape 58.5; Trainership 58.5; Glenbervie 54; Star Cluster 53; Sunlight King 52.

 4. Star Contender Handicap 1,400m (Rt 00-50) 2.30 pm: Spectacular Star 61; Traditional Style 55.5; Vanila Glory 55.5; Legacy Of Love 54.5; Schumacher 54; Wild Mystery 52.5; Blazing Ability 52.

 5. Tambourine Man Plate 1,400m (Terms, 3-year-olds only) 3.05 pm: Red Sails 57; Blood Rayne 54.5; Blue Chalice 54.5; Mezzano 54.5; Rapid Return 54.5; Secret Trooper 54.5; Siddh Raj 54.5; Treasure Tree 54.5; Cool Magic 53; Dancing Magic 53.

 6. Romantic Eve Handicap 1,200m. (Rt 20-70, 5yo amp; over) 3.40 pm: Silver Grey 61.5; Ano-kato 61; Charleston 60.5; Sea Legend 59.5; Boogie Nights 57; Acrostic 55; Syrian Spice 52.5; Fighting Force 52.

 7. Vibrant Handicap 1,100m (Rt 00-30) 4.15 pm: Magical Romance 60; Over The Rainbow 59; Satluj 59; Still In Love 59; Valintine Dancer 58.5; Magical World 58; Secret Desire 57; Premium Princess 52.5; Vancouver 52; Thoughtful 51.

 Jackpot: 3; 4; 5; 6 amp; 7. Treble: (i) 2; 3 amp; 4; (ii) 5; 6 amp; 7.




</TEXT>
</DOC>