<DOC>
<DOCNO>1070708_sports_story_8031073.utf8</DOCNO>
<TEXT>


The Telegraph - Calcutta : Sports

 SCORE CARD

West Indies

C. Gayle

c amp;b Plunkett

82

D. Smith

c Bell b Anderson

13

S. Cpaul

c Pietersen b Plunkett

33

M. Samuels

c Prior b Plunkett

9

R. Morton

not out

82

D. Bravo

b Anderson

42

D. Smith

not out

4

Extras: (b-5, lb-6, w-9, nb-4)

24

Total: (for 5 wkts in 50 overs)

289

Fall of wkts: 1/16, 2/93, 3/108, 4/193, 5/285

Bowling: Anderson 10-0-51-2, Plunkett 10-0-59-3, Broad 9-0-71-0, Panesar 6-0-28-0, Mascarenhas 8-0-28-0, Collingwood 7-0-41-0

England

A. Cook

c Dwayne b Powell

18

M. Prior

c Ramdin b Powell

1

I. Bell

c Dwayne b Edwards

27

K. Pietersen

c Devon b Powell

0

O. Shah

c Ramdin b Dwayne

51

P. Cwood

b Bravo

44

D. Mhas

c Gayle b Edwards

5

L. Plunkett

c Samuels b Edwards

2

S. Broad

c Gayle b Powell

5

M. Panesar

lbw Rampaul

13

J. Anderson

not out

11

Extras (b-4, lb-3, w-8, nb-4)

19

Total (all out in 44.2 overs)

196

Fall of wkts: 1/6, 2/29, 3/33, 4/72, 5/144, 6/162, 7/162, 8/168, 9/171

Bowling: Powell 10-2-40-4, Rampaul 7.2-0-25-1, Dwayne 10-0-60-1, Edwards 10-1-30-3, Gayle 2-0-11-0, Bravo 5-0-23-1




</TEXT>
</DOC>