<DOC>
<DOCNO>1070425_calcutta_story_7690601.utf8</DOCNO>
<TEXT>


The Telegraph - Calcutta : Metro

 Cinema

 ENGLISH

 ERAGON: Hind (12.15, 3.15, 6.15, 9), Inox (Forum; 10.10 am, 4.05 pm), Inox (City Centre; 10.10 am, 4.30 pm)

 MR. BEANS HOLIDAY: Inox (Forum; 11.50 am, 2.40 pm, 6.30 pm), Inox (City Centre; 11.50 am, 2 pm, 5.55 pm), 89 Cinemas (Swabhumi; 10.05 am, 12.50 pm, 4.20 pm, 6.50 pm), Fame (Hiland Park; 10 am, 1.20 pm, 4.50 pm, 9 pm)

 PERFECT STRANGER (A): Inox (Forum; 2 pm), Inox (City Centre; 2.25 pm), 89 Cinemas (Swabhumi; 12 noon), Fame (Hiland Park; 12.20 pm)

 THE NAMESAKE (U/A): Inox (Forum; 8 pm), Inox (City Centre; 12.15 pm, 7.40 pm), 89 Cinemas (Swabhumi; 4.30 pm, 10.05 pm), Fame (Hiland Park; 4.30 pm)

 THE PURSUIT OF HAPPYNESS: Inox (Forum; 12.25 pm, 8.10 pm), Inox (City Centre; 10 am, 8.25 pm), 89 Cinemas (Swabhumi; 2.15 pm, 7.50 pm), Fame (Hiland Park; 2.20 pm, 10.10 pm)

 THE REAPING (A): New Empire (12.30 pm, 3 pm, 6 pm, 8.30 pm), Inox (Forum; 12.10 pm, 6.10 pm, 10.25 pm), Inox (City Centre; 12.10 pm, 6.30 pm, 9.55 pm)

 HINDI

 ANACONDA RETURNS: Roxy, Basusree, Mayur, Radha, Malancha

 AUR PAPPA PASS HO GAYA: Elite amp; Jagat (4 shows), Menoka (noon, mat., eve.)

 BHEJA FRY: Inox (Forum; 10 am, 1.35 pm, 6 pm, 10.20 pm), Inox (City Centre; 10 am, 1.30 pm, 6 pm, 10.30 pm), 89 Cinemas (Swabhumi; 10.10 am, 2.30 pm, 6 pm, 9.20 pm), Fame (Hiland Park; 11.35 am, 3 pm, 6.30 pm, 8.20 pm, 10.35 pm)

 BIG BROTHER: Paradise, Mitra, Ashoka

 HATTRICK: Chaplin (12.30, 3, 6)

 HONEYMOON TRAVELS PVT. LTD.: Nandan (1.45 pm, 4 pm)

 KYA LOVE STORY HAI (U/A): Jyoti, Priya (5, 7.15, 9.15), Navina (12.30, 3.30, 6.30), Inox (Forum; 10.30 am, 1 pm, 3.20 pm, 5.40 pm, 7.55 pm, 10.30 pm), Inox (City Centre; 10.30 am, 1 pm, 3.20 pm, 5.40 pm, 7.55 pm, 10.25 pm), 89 Cinemas (Swabhumi; 10.40 am, 1 pm, 3.20 pm, 5.40 pm, 8 pm, 10.20 pm), Fame (Hiland Park; 10.05 am, 1 pm, 3.15 pm, 5.35 pm, 6.45 pm, 7.55 pm, 10.15 pm), Star Theatre, Jaya

 NAMASTEY LONDON: Metro, Inox (Forum; 3.30 pm, 7.50 pm), Inox (City Centre; 3.30 pm, 7.50 pm), 89 Cinemas (Swabhumi; 10.15 am, 2.05 pm, 6.45 pm, 10.35 pm), Fame (Hiland Park; 10.30 am, 3.10 pm, 7.45 pm, 10.15 pm)

 PROVOKED (A): Priya (2.45 pm), Inox (Forum; 4.20 pm, 10.15 pm), Inox (City Centre; 3.45 pm, 10.20 pm), 89 Cinemas (Swabhumi; 4.40 pm, 8.30 pm), Fame (Hiland Park; 5.40 pm)

 SHAKA LAKA BOOM BOOM (U/A): Inox (Forum; 10 am), 89 Cinemas (Swabhumi; 11.45 am), Fame (Hiland Park; 10 am)

 BENGALI

 BIDHATAR LEKHA: Prachi, Darpana, Bharati, Pushpasree (Behala), Fame (Hiland Park; 12.20 pm), Padmasree, Narendra (Dum Dum), Ananya

 KAAL (A): Talkie Show House

 PREM ROG (A): Metro, Aruna, Radha, Purna, Parbati, Leela (Baruipur), Piccadily (Salkia), Roma (Birati)

 SAMSAY: Nandan (6.30 pm)

 SANGHARSHA: Ragini, Khatoon Mahal, Binodini, Lila (Dum Dum)

 TULKALAM: Minar, Bijoli, Chhabighar (3, 5.45, 8.15), Mahua (Garia), Ellora, Chetna, Arati, Sonali, Bijoya




</TEXT>
</DOC>