<DOC>
<DOCNO>1070412_sports_story_7637719.utf8</DOCNO>
<TEXT>


The Telegraph - Calcutta : Sports

 Super 8 Standings 

 M

 W

 T

 L

 NR/R

 P

 NZ

 4

 4

 0

 0

 1.73

 8

 Aus

 4

 4

 0

 0

 1.51

 8

 SL

 4

 3

 0

 1

 1.55

 6

 SA

 5

 3

 0

 2

 -0.2

 6

 Eng

 4

 1

 0

 3

 -0.06

 2

 WI

 5

 1

 0

 4

 -1.21

 2

 Ban

 4

 1

 0

 3

 -1.78

 2

 Ire

 4

 0

 0

 4

 -1.39

 0

 Note: Updated till Tuesday.

 The table reflects the match and the carried over points (if

 any) from the group rsquo;s other qualifier.

 Source : World Cup official

 website. 




</TEXT>
</DOC>