<DOC>
<DOCNO>1070309_business_story_7492583.utf8</DOCNO>
<TEXT>


The Telegraph - Calcutta : Business

 MUTUAL FUND

 FUND EQUITY:

DIVERSIFIED

 NAV

 Change

 RETURNS

 Size

 3-Month

 1-Year

 3-Year

 Lifetime

 ABN AMRO Future Leaders

 8.93

 0.19

 -14.84

 -10.71

 279.88

 Birla Advantage

 116.78

 3.62

 -6.81

 10.57

 29.36

 24.57

 475.06

 Birla Dividend Yield Plus

 39.02

 0.87

 -5.59

 -3.42

 20.56

 39.59

 415.89

 Birla Infrastructure

 11.06

 0.32

 -8.97

 10.25

 474.08

 Birla Sun Life Equity

 169.16

 5.38

 -6.50

 15.56

 42.56

 39.29

 506.37

 Birla Top 100

 14.77

 0.47

 -7.76

 11.11

 31.08

 440.00

 DSPML Equity

 36.59

 0.84

 -5.31

 18.97

 38.60

 27.10

 695.41

 DSPML Opportunities

 51.16

 1.67

 -8.65

 13.07

 34.34

 26.64

 1356.20

 DSPML Small And Mid Cap Reg

 9.58

 0.22

 -8.16

 -4.19

 1444.38

 DSPML T.I.G.E.R.

 30.64

 1.05

 -6.74

 18.24

 49.45

 1481.34

 DSPML Top 100 Equity

 54.47

 1.58

 -4.19

 20.75

 32.15

 52.07

 299.47

 Fidelity Equity

 20.03

 0.62

 -3.47

 22.40

 44.55

 2501.97

 Fidelity India Special Situations

 11.65

 0.39

 -8.84

 16.48

 2021.77

 Franklin India Bluechip

 122.48

 4.76

 -6.50

 16.93

 29.80

 28.95

 2259.40

 Franklin India Flexi Cap

 19.35

 0.68

 -7.64

 12.57

 37.48

 3364.79

 Franklin India Opportunities

 23.14

 0.96

 -12.15

 18.97

 39.28

 737.00

 Franklin India Prima

 185.48

 5.09

 -11.87

 -.58

 34.83

 24.60

 1583.62

 Franklin India Prima Plus*

 126.59

 -1.09

 -6.57

 16.31

 34.74

 22.62

 878.70

 HDFC Capital Builder

 58.09

 1.31

 -7.94

 .87

 34.68

 14.36

 657.84

 HDFC Core amp; Satellite

 23.34

 0.65

 -10.13

 6.55

 40.53

 646.03

 HDFC Equity

 138.77

 3.6

 -3.99

 15.10

 37.15

 24.04

 3907.14

 HDFC Growth Fund

 43.91

 1.54

 -8.02

 15.15

 31.78

 25.22

 379.40

 HDFC Premier Multi-Cap

 17.13

 0.52

 -6.42

 8.25

 31.51

 673.81

 HDFC Top 200

 101.67

 3.29

 -7.12

 12.56

 34.36

 27.16

 1621.10

 HSBC Advantage India

 11.53

 0.39

 -10.67

 9.13

 13.70

 1216.90

 HSBC Equity

 66.47

 2.09

 -7.43

 15.96

 32.03

 55.94

 936.53

 HSBC India Opportunities

 26.15

 0.96

 -8.19

 22.79

 37.45

 36.83

 607.88

 HSBC Midcap Equity

 17.75

 0.45

 -8.17

 1.60

 36.44

 311.51

 Kotak 30

 64.30

 2.13

 -4.78

 15.67

 34.41

 30.14

 432.01

 Kotak Lifestyle

 11.38

 0.3

 -.22

 13.21

 384.15

 Magnum COMMA

 14.17

 0.53

 -11.49

 9.17

 24.02

 457.58

 Magnum Contra

 34.96

 1.24

 -6.55

 17.79

 55.60

 32.80

 1448.78

 Magnum Emerging Businesses

 27.50

 0.79

 -6.94

 4.48

 50.58

 267.94

 Magnum Equity

 26.39

 0.9

 -4.80

 24.68

 33.20

 17.20

 274.47

 Magnum Global

 40.51

 0.84

 -6.98

 20.60

 60.34

 15.96

 1230.21

 Magnum Midcap

 20.38

 0.52

 -7.07

 13.66

 43.39

 427.81

 Magnum MultiCap

 14.20

 0.48

 -10.58

 9.40

 26.86

 1079.18

 Magnum Multiplier Plus

 49.58

 1.69

 -6.52

 13.98

 46.06

 15.36

 745.07

 Principal Growth

 45.71

 1.46

 -8.69

 3.30

 32.50

 26.89

 273.38

 Prin Infras amp; Services Industries

 10.81

 0.3

 -7.84

 5.46

 7.48

 266.92

 Principal Resurgent India Equity

 69.58

 2.12

 -4.09

 15.93

 25.78

 33.07

 260.89

 Prudential ICICI Discovery

 24.03

 0.51

 -11.46

 2.96

 40.00

 921.29

 Prudential ICICI Dynamic

 61.72

 1.48

 -3.37

 26.35

 45.11

 51.39

 1809.58

 Prudential ICICI Emerging STAR

 25.76

 0.59

 -5.19

 10.99

 47.80

 1110.89

 Prudential ICICI Growth

 87.28

 2.95

 -6.68

 16.73

 30.18

 28.19

 411.22

 Prudential ICICI Infrastructure

 17.05

 0.62

 -7.44

 22.49

 40.81

 1562.32

 Prudential ICICI Power

 76.36

 2.03

 -5.46

 17.60

 35.80

 17.63

 1401.87

 Prud ICICI Services Industries

 14.61

 0.47

 1.74

 32.34

 33.82

 424.02

 Reliance Equity

 10.94

 0.34

 -5.45

 9.37

 4455.25

 Reliance Equity Opportunities

 19.84

 0.57

 -6.10

 17.33

 40.79

 2214.79

 Reliance Growth

 253.48

 7.68

 -2.22

 17.53

 48.16

 32.70

 3243.92

 Reliance Vision

 168.43

 6.41

 -5.50

 16.21

 35.60

 28.04

 2415.31

 SBI Bluechip

 10.59

 0.34

 -9.80

 3.42

 5.21

 1936.34

 Stan Chartered Classic Equity

 14.62

 0.51

 -5.71

 9.16

 25.88

 372.11

 Sund BNP Pari CAPEX Opp.-D

 14.29

 0.41

 -12.49

 7.97

 32.87

 350.26

 Sund BNP Pari India Leadership

 26.83

 0.93

 -9.68

 4.37

 43.73

 273.44

 Sund BNP Paribas Rural India

 10.55

 0.37

 -10.66

 5.50

 821.50

 Sund BNP Paribas Select Focus

 56.27

 1.58

 -6.53

 18.30

 32.11

 45.13

 291.47

 Sund BNP Paribas Select Midcap

 84.67

 1.51

 -6.35

 21.78

 51.59

 58.50

 1962.29

 Tata Equity Opportunities

 53.25

 1.76

 -7.20

 5.99

 33.30

 64.25

 440.12

 Tata Infrastructure

 21.38

 0.78

 -11.32

 13.77

 41.08

 1187.91

 Tata Pure Equity

 57.73

 1.85

 -6.18

 11.41

 32.75

 33.25

 292.23

 Templeton India Equity Income

 11.46

 0.26

 -1.12

 14.60

 1749.86

 Templeton India Growth

 61.06

 1.7

 -5.47

 11.91

 24.94

 20.00

 290.87

 UTI Contra

 8.76

 0.3

 -12.14

 -12.40

 640.04

 UTI Dividend Yield

 14.94

 0.35

 -4.29

 5.51

 24.28

 516.88

 UTI Equity

 30.13

 0.81

 -8.50

 -.20

 24.65

 11.21

 1451.73

 UTI Infrastructure

 25.31

 0.93

 -10.34

 18.55

 41.81

 738.68

 UTI Leadership Equity

 11.61

 0.4

 -6.67

 13.27

 14.52

 1027.84

 UTI Master Growth

 40.69

 1.18

 -8.99

 8.88

 24.22

 15.42

 346.95

 UTI Master Plus 91

 61.43

 2.13

 -8.09

 17.66

 29.16

 15.43

 863.52

 UTI Master Value

 27.00

 0.62

 -9.85

 -6.28

 19.69

 25.24

 647.68

 UTI Mastershare

 32.19

 1.05

 -6.64

 8.97

 22.59

 21.44

 1828.60

 UTI Opportunities

 12.92

 0.44

 -9.01

 -10.84

 16.99

 497.79

 UTI Services Sector

 46.08

 1.3

 -6.98

 17.94

 30.46

 33.49

 445.38

 Hybrid: Equity-oriented

 Birla Balance

 26.78

 0.43

 -5.07

 11.26

 19.18

 14.18

 115.53

 Birla Sun Life95

 170.28

 1.58

 -3.57

 16.13

 25.94

 26.89

 128.58

 Canbalance II

 35.30

 0.65

 11.58

 83.93

 DSPML Balanced

 36.65

 0.62

 -4.06

 12.67

 25.23

 18.06

 391.08

 FT India Balanced

 31.80

 0.67

 -2.09

 18.05

 22.88

 17.31

 253.76

 HDFC Balanced

 28.66

 0.54

 -11.37

 4.79

 18.40

 17.36

 106.31

 HDFC Childrens Gift-Inv

 23.52

 0.61

 -5.82

 2.15

 17.73

 20.19

 118.00

 HDFC Prudence

 107.43

 2.02

 -4.18

 18.09

 31.96

 22.55

 2104.78

 Kotak Balance

 22.46

 0.49

 -3.99

 6.94

 30.51

 20.77

 95.84

 Magnum Balanced

 33.64

 0.69

 -5.56

 13.34

 34.98

 19.97

 263.77

 Pru ICICI Equity amp; Derivative Reg

 9.97

 0.16

 -.30

 1138.16

 Prudential ICICI Balanced

 33.05

 0.82

 -3.62

 12.68

 26.91

 17.48

 463.30

 Prudential ICICI ChildCare-Gift

 38.76

 0.53

 -3.99

 10.90

 24.37

 27.43

 106.16

 Tata Balanced

 47.43

 1.1

 -3.34

 11.74

 26.71

 17.74

 155.89

 UTI Balanced

 51.87

 1.11

 -7.24

 5.17

 19.43

 21.11

 1098.38

 Hybrid: Debt-oriented

 Canbalance

 26.54

 0.48

 -6.02

 -.41

 10.15

 17.59

 57.35

 Escorts Opportunities*

 23.34

 -0.17

 -8.56

 -4.38

 9.84

 15.10

 74.46

 FT India 50s Plus Floating Rate

 13.49

 0.09

 .12

 8.69

 11.80

 216.04

 HDFC Multiple Yield

 12.00

 0.03

 -.27

 3.57

 7.61

 220.64

 HDFC Multiple Yield Plan 2005

 10.98

 0.02

 .45

 4.61

 6.07

 165.44

 Prud ICICI Income Multiplier Reg

 14.27

 0.06

 -.45

 10.99

 12.54

 486.71

 Tata Young Citizens

 21.55

 0.31

 -2.44

 8.68

 17.64

 15.75

 152.24

 Templeton India Pension

 42.92

 0.54

 -1.44

 12.11

 14.59

 15.78

 137.09

 Unit Linked Insurance Plan 71

 15.16

 0.13

 -3.37

 1.59

 10.58

 8.87

 3654.27

 UTI CCP Balanced

 14.43

 0.14

 -3.32

 8.10

 12.09

 10.69

 2489.98

 UTI CRTS 81

 107.65

 0.59

 -.86

 2.86

 15.08

 13.90

 382.10

 UTI Mahila Unit Scheme-Gift

 26.96

 0.19

 -.44

 19.36

 19.69

 18.23

 83.19

 UTI Retirement Benefit Pension

 19.13

 0.15

 -2.41

 .68

 12.74

 11.50

 453.46

 Hybrid: Asset Allocation

 Optimix Asset Allocator MMFoF*

 11.00

 0

 -12.03

 9.98

 191.43

 UTI Dynamic Equity

 31.26

 0.82

 -10.15

 -6.91

 27.56

 38.58

 128.27

 Debt: Medium-term

 ABN AMRO Flexi Debt Regular

 11.52

 0

 1.87

 8.88

 5.81

 234.99

 Birla Income Plus

 30.28

 -0.01

 -.49

 5.20

 2.78

 10.22

 219.09

 Birla Sun Life Income

 25.76

 -0.02

 .34

 7.91

 4.13

 9.90

 32.84

 DSPML Bond Retail

 25.00

 0

 1.16

 5.38

 3.34

 9.70

 57.18

 Grindlays SSI Inv

 16.76

 0

 -.38

 4.73

 2.44

 8.05

 57.97

 Grindlays SSI Medium-term

 11.90

 0

 1.79

 7.43

 4.59

 4.81

 154.75

 HDFC High Interest

 24.29

 -0.02

 -1.27

 2.96

 1.86

 9.37

 41.47

 HDFC Income

 16.53

 -0.01

 -1.31

 2.89

 1.93

 7.94

 224.64

 HSBC Income Investment

 12.28

 0

 -.38

 4.40

 3.21

 4.94

 27.28

 Kotak Bond Deposit

 18.56

 0

 -.02

 5.26

 3.74

 8.79

 51.47

 Kotak Bond Regular

 19.51

 0

 .41

 6.69

 4.55

 9.53

 159.45

 Kotak Flexi Debt

 11.57

 0

 1.88

 7.50

 6.64

 514.36

 LICMF Bond

 19.90

 0

 -.60

 4.66

 3.58

 9.17

 102.98

 Magnum Income

 19.78

 -0.04

 -.02

 5.24

 2.62

 8.52

 74.46

 OptiMix Active Debt Multi FoF*

 10.06

 0

 .56

 78.47

 Principal Income

 17.49

 0

 .48

 6.96

 4.38

 9.16

 679.16

 Prudential ICICI Income

 21.44

 0

 -1.27

 5.70

 3.18

 9.14

 249.78

 Reliance Income

 23.12

 -0.01

 -.24

 5.26

 4.39

 9.54

 88.68

 Sund BNP Paribas Bond Saver

 22.72

 0

 .16

 4.17

 2.13

 9.22

 64.15

 Tata Income

 24.92

 0

 .29

 4.66

 4.97

 9.69

 42.90

 Templeton India Income

 25.65

 0

 -.13

 5.15

 2.79

 9.85

 201.26

 Templeton India Income Builder

 24.90

 -0.04

 -.93

 4.61

 2.30

 9.85

 101.54

 UTI Bond

 21.58

 0

 .05

 5.01

 4.98

 9.21

 301.98

 Hybrid: Monthly Income

 ABN AMRO MIP

 12.87

 0.03

 .58

 10.77

 10.56

 62.27

 Birla MIP

 18.84

 0.06

 -1.85

 6.85

 6.72

 10.57

 167.61

 Birla MIP II Wealth 25

 13.19

 0.06

 -2.52

 6.01

 10.17

 120.24

 Birla Sun Life MIP

 24.98

 0.03

 -1.04

 8.52

 7.49

 12.71

 129.62

 DSPML Savings Plus Aggressive

 13.80

 0.01

 1.08

 10.54

 12.25

 67.29

 DSPML Savings Plus Moderate

 15.11

 0.01

 .29

 7.82

 8.57

 10.75

 178.43

 FT India MIP

 20.35

 0.14

 -1.48

 7.15

 8.47

 11.66

 598.05

 HDFC MIP Long-term

 14.63

 0.08

 .39

 8.97

 11.98

 12.41

 1161.55

 HDFC MIP Short-term

 12.70

 0.04

 -1.44

 3.36

 7.16

 7.63

 252.98

 HSBC MIP Regular

 12.20

 0.05

 -.70

 7.84

 6.69

 6.70

 49.84

 HSBC MIP Savings

 13.00

 0.09

 -1.40

 8.58

 8.98

 8.94

 69.54

 Kotak Income Plus

 12.97

 0.08

 -.50

 4.66

 8.05

 8.15

 77.81

 LICMF Floater MIP Plan A

 12.57

 0.09

 .28

 5.93

 9.94

 74.67

 LICMF MIP

 23.81

 0.17

 -1.04

 5.36

 9.05

 10.34

 224.10

 Magnum MIP

 16.50

 0.09

 -.55

 5.83

 6.48

 8.76

 120.52

 MMIP Floater

 10.63

 0.06

 -.74

 4.71

 4.90

 28.53

 Principal MIP

 14.90

 0.07

 -1.14

 4.10

 5.41

 8.61

 57.00

 Prudential ICICI MIP

 18.79

 0.06

 -.92

 8.20

 9.06

 10.40

 648.54

 Reliance MIP

 13.47

 0.04

 -2.41

 8.76

 10.14

 9.79

 508.56

 Sundaram BNP Paribas MIP

 12.61

 0.04

 -.38

 4.18

 7.78

 7.50

 48.86

 Tata MIP

 14.58

 0.04

 1.70

 5.39

 5.90

 11.40

 36.60

 Tata MIP Plus

 11.78

 0.07

 -1.15

 2.62

 5.54

 52.64

 Templeton MIP-G

 19.65

 0.11

 -.87

 6.95

 7.36

 10.01

 133.87

 UTI MIS-Advantage Plan

 13.74

 0.09

 -2.05

 6.33

 10.61

 10.35

 105.44

 UTI Monthly Income Scheme

 13.66

 0.07

 -1.10

 5.61

 6.05

 7.34

 191.07

 Gilt: Medium amp; Long-term

 Birla Gilt Plus PF

 20.60

 -0.01

 -1.63

 4.86

 2.52

 10.24

 74.33

 Birla Gilt Plus Regular

 23.26

 -0.04

 -1.45

 6.99

 3.49

 12.07

 56.53

 DSPML GSF Longer Duration

 22.96

 -0.05

 -1.54

 2.93

 3.10

 11.79

 31.76

 HDFC Gilt Long-term

 15.59

 -0.05

 -.55

 2.24

 1.02

 8.18

 35.39

 Kotak Gilt Investment Regular

 23.45

 -0.01

 -2.38

 3.96

 2.83

 10.93

 32.23

 LICMF GSF

 18.88

 0

 .12

 4.77

 2.74

 9.13

 54.40

 LICMF GSF PF

 10.89

 0

 .11

 4.76

 2.74

 2.69

 30.00

 Magnum Gilt Long-term

 17.14

 -0.03

 -.11

 5.14

 2.52

 9.07

 231.03

 Principal GSF Provident

 10.77

 0

 -2.10

 3.29

 2.42

 2.44

 39.24

 Prudential ICICI Gilt Investment

 22.31

 0

 -1.38

 7.29

 3.71

 11.16

 106.38

 Prud ICICI Gilt Investment PF

 11.68

 0

 -2.98

 7.68

 4.77

 4.80

 80.87

 Reliance Gilt Long-term

 12.70

 -0.02

 -.58

 5.81

 6.03

 6.71

 45.28

 Tata GSF

 23.13

 0

 -.49

 4.44

 1.70

 11.66

 218.49

 Templeton IGSF Long-term

 16.54

 -0.03

 -.48

 6.03

 4.10

 10.06

 56.28

 Templeton India GSF Composite

 24.19

 -0.02

 -.28

 4.68

 2.92

 12.13

 135.97

 UTI Gilt Advantage Long-term

 15.18

 -0.02

 -.71

 4.63

 3.45

 8.47

 62.04

 UTI G-Sec

 19.02

 -0.03

 -.21

 4.54

 2.08

 8.93

 130.77

 Debt: Floating Rate Short-term

 DBS Chola ST Floating Rate

 11.09

 0

 2.00

 7.33

 6.79

 1222.86

 HDFC Floating Rate Income ST

 12.53

 0

 1.87

 7.00

 5.81

 5.58

 909.50

 LICMF Floating Rate ST

 11.91

 0

 2.07

 7.51

 6.11

 2177.45

 Prudential ICICI Floating Rate A

 11.56

 0

 1.78

 6.68

 5.72

 1058.37

 Reliance Floating Rate

 11.61

 0

 1.97

 7.17

 6.08

 1847.86

 Templeton Floating Rate ST

 13.40

 0

 1.84

 6.64

 5.63

 5.91

 936.70

 Debt: Floating Rate Short-term Inst

 Prudential ICICI Floating Rate B

 12.41

 0

 1.84

 6.94

 5.81

 5.61

 2157.35

 Debt: Ultra Short-term

 Birla Cash Plus Retail

 20.05

 0

 1.83

 6.86

 5.59

 7.41

 8320.37

 DSPML Liquid Plus Retail

 1042.64

 0.21

 1.79

 4.26

 2770.09

 DSPML Liquidity

 18.23

 0

 1.74

 6.78

 5.73

 6.90

 2601.45

 DWS Insta Cash Plus

 12.51

 0

 1.85

 6.96

 5.71

 5.58

 1099.07

 DWS Money Plus

 10.75

 0

 1.89

 7.45

 1612.90

 HDFC Cash Mgmt Saving

 15.54

 0

 1.90

 7.12

 5.81

 6.87

 6036.28

 HDFC Cash Mgmt Saving Plus

 16.16

 0

 1.90

 6.97

 5.73

 6.79

 857.13

 HDFC Liquid

 14.79

 0

 1.91

 6.96

 5.63

 6.32

 3049.13

 HSBC Cash

 12.54

 0

 1.80

 6.69

 5.54

 5.45

 2762.48

 HSBC Liquid Plus Regular

 10.30

 0

 1.89

 3.03

 2666.64

 ING Vysya Liquid

 15.79

 0

 1.81

 6.73

 5.55

 6.56

 3413.98

 JM High Liquidity

 20.47

 0

 1.89

 6.71

 5.34

 8.11

 1002.24

 Kotak Liquid Regular

 14.73

 0

 1.71

 6.40

 5.25

 6.21

 5660.02

 LICMF Liquid

 13.54

 0

 1.97

 7.37

 6.07

 6.26

 5868.40

 Magnum InstaCash (Cash)

 16.72

 0

 1.90

 6.83

 5.61

 6.81

 2104.01

 Principal Cash Mgt Liquid

 14.64

 0

 1.77

 6.68

 5.48

 6.16

 4210.52

 Prudential ICICI Liquid

 18.25

 0

 1.80

 6.71

 5.51

 7.14

 19980.27

 Reliance Liquid Treasury

 17.97

 0

 1.77

 6.43

 5.35

 6.75

 1913.15

 Sundaram BNP Paribas Money

 15.63

 0

 1.76

 6.64

 5.60

 6.58

 1300.44

 Tata Liquid

 1725.48

 0.36

 1.84

 6.87

 5.55

 6.61

 4392.98

 Tata Liquidity Management

 1073.74

 0.22

 1.94

 7.29

 7.23

 809.01

 Templeton India TMA

 1852.43

 0.38

 1.76

 6.67

 5.51

 7.21

 3081.99

 UTI Liquid Cash Regular

 1219.97

 0.24

 1.82

 6.81

 5.69

 5.51

 10162.88

 Net asset value (NAV) as on March 8, 2007. Schemes marked with * indicate NAV from previous day. Change indicates gain/loss (in Rs) in NAV over previous trading day. Lifetime represents return (in per cent) since inception. 3-month and 1-year returns are absolute, 3-year and lifetime returns are annualised. Size indicates asset under management in Rs crore. Source: Value Research (www.valueresearchonline.com) 




</TEXT>
</DOC>