<DOC>
<DOCNO>1070814_sports_story_8191392.utf8</DOCNO>
<TEXT>


The Telegraph - Calcutta : Sports

 FOOTBALL

 PREMIER LEAGUE

 Sunday Manchester United 0 Reading 0 Chelsea 3 (Claudio Pizarro 18, Florent Malouda 31, Mickael Essien 50) Birmingham City 2 (Mikael Forssell 15, Olivier Kapo 36) Arsenal 2 (Robin van Persie 83pen, Alexandr Hleb 90) Fulham 1 (David Healy 1)

 CFL PREMIER DIVISION

 CALCUTTA (Monday) Mohammedan Sporting 4 (Basudeb Mondal 18, Raman Vijayan 56, 76, K. Kulothangan 63) CPT 2 (Souvik Biswas 43, Chukwukere Henry 88)

 GOLF

 PGA Championship 

 TULSA, Final Round (Sunday) 272 Tiger Woods (US) 71 63 69 69 274 Woody Austin (US) 68 70 69 67 275 Ernie Els (Rsa) 72 68 69 66 279 Arron Oberholser (US) 68 72 70 69, John Senden (Aus) 69 70 79 71 280 Simon Dyson (Gbr) 73 71 72 64, Trevor Immelman (Rsa) 75 70 66 69, Geoff Ogilvy (Aus) 69 68 74 69 281 Scott Verplank (US) 70 66 74 71, Kevin Sutherland (US) 73 69 68 71, Boo Weekley (US) 76 69 65 71 282 Anders Hansen (Den) 71 71 71 69, Stuart Appleby (Aus) 73 68 72 69, Justin Rose (Gbr) 70 73 70 69, Adam Scott (Aus) 72 68 70 72, K.J. Choi (Kor 71 71 68 72, Stephen Ames (Can) 68 69 69 76 284 Pat Perez 70 69 77 68, Hunter Mahan 71 73 72 68, Joe Durant 71 73 70 70, Brandt Snedeker 74 71 69 70, Ken Duke 73 71 69 71 285 Retief Goosen (Rsa) 70 71 74 70, Kenny Perry (US) 72 72 71 70, Heath Slocum (US) 72 70 72 71, Camilo Villegas (Col) 69 71 74 71, Ian Poulter (Gbr) 71 73 70 71, Steve Stricker (US) 77 68 69 71, Steve Flesch (US) 72 73 68 72, Peter Hanson (Swe) 72 71 69 73, Nathan Green (Aus) 75 68 67 75

 TENNIS

 ATP MONTREAL MASTERS

 Singles final (Sunday) Novak Djokovic (3, Ser) bt Roger Federer (1, Sui) 7-6(2), 2-6, 7-6(2)

 WTA LOS ANGELES 

 Singles final (Sunday) Ana Ivanovic (3, Ser) bt Nadia Petrova (4, Rus) 7-5, 6-4




</TEXT>
</DOC>