<DOC>
<DOCNO>1070913_sports_story_8311285.utf8</DOCNO>
<TEXT>


The Telegraph - Calcutta : Sports

 SCORE CARD

Kenya 

M. Ouma

b Bond

0

D. Obuya

hit wicket b Gillespie

0

T. Mishra

c Oram b Bond

0

S. Tikolo

lbw Gillespie

0

C. Obuya

st McCullum b Vettori

18

T. Odoyo

c Taylor b Martin

18

N. Odhiambo

c Taylor b Martin

0

A. Obanda

b Vettori

4

J. Kamande

b Gillespie

14

R. Bhudia

not out

11

P. Ongondo

b Gillespie

0

Extras (lb-2, w-6)

8

Total (all out in 16.5 ovs)

73

Fall of wickets: 1/0, 2/0, 3/0, 4/1, 5/37, 6/39, 7/42, 8/46, 9/73, 10/73

Bowling: Bond 4-1-12-2, Gillespie 2.5-0-7-4, Oram 2-0-20-0, Martin 4-1-14-2, Vettori 4-0-18-2

New Zealand

L. Vincent

c D. Obuya b Odoyo

27

B. McCullum

not out

16

P. Fulton

not out

21

Extras (lb-5, w-4, nb-1)

10 

Total (1 wkt in 7.4 ovs)

74

Fall of wickets: 1/40 

Bowling: M. Odoyo 3-0-22-1, Ongondo 3-0-22-0, Odhiambo 1-0-8-0, Bhudia 0.4-0-17-0




</TEXT>
</DOC>