<DOC>
<DOCNO>1070216_calcutta_restadd.utf8</DOCNO>
<TEXT>


The Telegraph - Calcutta : Metro

 RESTAURANTS

BENGALI

Aaheli

22280301Peerless Inn, 12 JL Nehru Road, Cal 13. (Open: 12.30 pm-3 pm; 7.30 pm-11 pm)

Bhojohori Manna (Ekdalia Rd)

24401933,98303043329/18 Ekdalia Road, Cal 19 (Open: 11.30 am-10 pm)

Bhojohori Manna (Hindustan Rd)

24663941, 2466768618A Hindustan Road, Cal 29

Bhojohori Manna (Priyanath Mullick Rd)

9836377512, 24545922,3293447123A Priyanath Mullick Road, Cal 26

Bhojohori Manna (Salt Lake)

30960607,9339872195,32960607CF-206,Sector-1,Salt Lake,Cal 64

Bhoomi

9830820436Vedic Village, 24 Parganas(North) Rajarhat, Shikharpur, P.O. Bagu Cal 135

Dawat

22523271, 225203889A Marquis Street Cal 16

Kasturi

225234937A Marquis Street, Cal 16 (Open: 8 am-11 pm)

Kewpie's

24759880, 24748962, 247699292 Elgin Lane, Cal 20. (Open: 12.30pm - 3pm, 7 pm-11 pm)

Oh! Calcutta

22837161-4Forum, 4th floor, 10/3 Elgin Road, Cal 20. (Open: 12.30 pm-3 pm;)

Royal Bengal Room

23583720City Centre,A310,DC 1,Sector I Salt Lake Cal 64

Sonargaon

22233939(extn 3301/3185)Taj Bengal,34B Belvedere Road, Cal 27 (Open 12.30pm - 3pm; 7.30pm-11.45pm)

6 Ballygunge Place

30909743, 246039226 Ballygunge Place Cal 19. (Open: 12.30 pm-3.30 pm; 7.30pm-10.30pm)

Suruchi

22291763,2229329289 Elliot Road, Cal 16 (Open: weekdays 10 am-5.45 pm; Saturday 10 am-4.45 pm; Sunday 10 am-2.45 pm).

Tero Parbaon

2463201649C Purnadas Road Cal 29

Bay of Bengal

246589736, Dr SN Roy (near Menoka cinema), Cal 29

MUGHLAI

Aminia

22441318, 224437076A SN Banerjee Road, Cal 87 (Open: 10.30 am-10.30 pm)

Arsalan

22848556/58, 22844010Marina Garden Court, 191 Park Street, Cal 17. (Open: 10.30 am-11.30 pm).

Chef's Cuisine

24003761/2/5850 Block P, New Alipore, Cal 53

Kadai

24657040/70474 Hindustan Park, Cal 29

Khawab- Survey Park

241881051050/1 Bengal Ambuja Complex, EM Bypass, Cal 75 (Open 12pm-3pm, 5pm-10pm; Monday closed)

Khawab(takeaway)

9230514249Geeta Bhawan, 166A Sarat Bose Road, Cal 29

La Terrasse

22492323The Oberoi Grand 15 J.L. Nehru Rd Cal 13 (Open 11.00am - 3.30pm)

Moghul Room

22492323The Oberoi Grand 15 JL Nehru Road, Cal 13

New Aliah

22488858, 2243780231 Bentinck Street, Cal 69 (Open: 10 am-11 pm; home delivery)

On Track

22273955/5625B Park street, Cal 16

Peshawri

23454545ITC Sonar Bangla Sheraton and Towers, 1 Haldane Avenue, Cal 46 (Open: 12.30 pm-2.45 pm;7 pm-11.45 pm), Ph ext 4320/4551

Rahmania

22812683, 2287798156 Park Street, Cal 17 (Open: 5 am-11 pm; closed on Friday from noon-1 pm;home delivery)

Royal India Hotel

22681073, 28603659147 Rabindra Sarani, Cal 73 (Open: 10 am-11.30 pm)

Sabir

28611356, 221298313 and 5 Biplabi Anukul Chandra Street, Cal 72

Shiraz (Park Street)

2280500656 Park Street, Cal 17(Open: 5 am-11 pm; home delivery);C/2, 79 Survey Park,Ajaynagar, Cal 25 (Open: 12.30 pm-10.30 pm); Keshtapur, Rabindra Palli,Cal 101; 128 Raja SC Mullick Road, Bagha Jatin, Cal 86; HA8 SectorIII, Saltlake, Cal 79; 46 Raja SC Mullick Road, Cal 32

Shiraz (Survey Park)

3253008C/2, 79 Survey Park,Ajaynagar, Cal 25 (Open: 12.30 pm-10.30 pm); Keshtapur, Rabindra Palli,Cal 101; 128 Raja SC Mullick Road, Bagha Jatin, Cal 86; HA8 SectorIII, Saltlake, Cal 79; 46 Raja SC Mullick Road, Cal 32

Shiraz (Keshtapur)

32947579Keshtapur, Rabindra Palli,Cal 101; 128 Raja SC Mullick Road, Bagha Jatin, Cal 86; HA8 SectorIII, Saltlake, Cal 79; 46 Raja SC Mullick Road, Cal 32

Shiraz (Bagha Jatin)

32535001128 Raja SC Mullick Road, Bagha Jatin, Cal 86;

Shiraz (Saltlake)

32535004HA8 SectorIII, Saltlake, Cal 79; 46 Raja SC Mullick Road, Cal 32

Shiraz (Jadavpur)

2429907946 Raja SC Mullick Road, Cal 32

Sonargaon

22233939Taj Bengal, 34 belvedere Road, Cal 27(Open 12:30 pm- 3pm and 7:30pm-12am), Ph ext - 3301

Trincas The Other Room

22298947/782517B Park Street, Cal 16

Tandoori Hut

24574908H-20, New Alipore,Cal 53

Treats

22847105, 28652240151 Park Street, Cal 17 (Open: 11am - 11pm, home delivery)

Zeeshan

2280684217 Syed Amir Ali Avenue, Cal 17

CHINESE

Bengal Intelligence Park

23570326, 32921928Building B, Salt Lake, Sector V Cal 91 (Open: 12.30pm - 3.30pm; 7.30pm - 11.30pm)

Beijing

23281011/399877/1 Christopher Road, Cal 46

China Bistro

NA119A MA Ahmed Street, Cal 16

China Bowl

24640042122A Southern Avenue, Cal 29

China Haus

23282273/7644/3 B Matheswartala Road, Cal 46

China Moon

24003761-2/5P850 New Alipore, Cal 53

China Valley

22831864/9611/1 Sarat Bose Road, Cal 20

Chinoiserie

22233939 Fax: 22231766Taj Bengal, 34B Belvedere Road, Cal 27. (Open: 12.30 pm-3 pm; 7.30 pm-11.45 pm)

Chung Wah

2237700313A and B Chittaranjan Avenue, Cal 72

Eau Chew

2237826012 Ganesh Chandra Avenue, Cal 13 (Open: Monday-Saturday 11.30 am-2.30 pm, 6 pm-10 pm; Sunday 6 pm-10 pm)

Flavours of China

22298885/783343 Park Street, Cal 16

Golden Dragon

2229350740 Park Mansion, Cal 16

Hatari (Rashbehari)

24643339113/1B Rashbehari Avenue, Cal 29.

Hong Kong (Prince Anwar Shah Road)

24170179188/9 Prince Anwar Shah Road, Cal 45

Haka

23581359City Centre, E 205, Block E 2nd Floor Salt Lake, Sector I Block DC Cal 64

Jimmy's Kitchen (AJC Bose Road)

228004867/1A AJC Bose Road, Cal 17 (Open: noon-11 pm)

Jimmy's Kitchen (Lindsay Street)

2252716514D Lindsay Street, Cal 87 (Open: noon-10 pm).

Jong's

22499744, 2490369/0370/974426 Jawaharlal Nehru Road, Cal 87

Kim Ling

2865099613 South Tangra Road, Cal 46 (Open: noon-10.30 pm)

Krystal Chopstick

2464344971H Hindustan Park, Cal 29 (Open: noon-10.30 pm)

Mainland China

22837964/65/663A Gurusaday Road, Cal 19 (Open: 12.30 pm-3.15 pm;7 pm-11 pm)

Mandarin

24662276217 Sarat Bose Road, Cal 29 (Open: Monday-Friday 12.30 pm-10 pm; Saturday and Sunday 12.30 pm-10.30 pm)

Marco Polo in China

22273939, 983101772724 Park Street, Cal 16

Oriental

22802323Hotel Hindustan International, 235/1 AJC Bose Road, Cal 20

Oriental Wok

24003761-2850 New Alipore, Block-P; Near Rasoi Dalda Factory, Cal 53

Peiping

222991121/1 Park Street, Cal 16

Red Hot Chilli Pepper

24559560, 2474410826/2 Ballygunge Circular Road, Cal 19 (Open: 12.30 pm-3.30 pm, 7.30 pm-11.30 pm)

Shanghai

24739313, 9831169769255/2 Jodhpur Park, Cal 68

Song Hay

22480974, 224204763 Waterloo Street, Cal 69

Tangra Kaizen

2476223533B Sarat Bose Road, Cal 20

The Grub Club (Southern Avenue)

24645062131/2 Southern Avenue, Cal 29.

Treats

22847105, 28652240151 Park Street, Cal 17 (Open: 11 am-11 pm, home delivery)

Trincas (Ming Room)

22298947/782517B Park Street, Cal 16

Tung Fong

22174969/89/6563-425B Park Street, Cal 16 (Open: noon-11 pm)

Waldorf

2227113113D Russel Sreet, Cal 71 (Open: 11am-11pm)

Hatari (Garia)

2435681630 Garia Main Road, Cal 84

Hong Kong (Kankurgachhi)

23558785P16/1 CIT Road, Scheme VII M, Kankurgachhi, Cal 54.

The Grub Club (Chittaranjan Avenue)

2236371141 Chittaranjan Avenue, Cal 12

ITALIAN

Domino's (Judges Court Rd)

24491161-49A Judges Court Road, Cal 27 (Open: 11 am-11 pm)

Domino's (Salt Lake)

23594981-4BF 193, Sector 1, Salt Lake, Cal 64 (Open: 11 am-11 pm)

Domino's (New Empire)

22171243-44, 32402552New Empire, 3A Humayun Place, Cal 87 (Open: 11 am-11 pm)

Domino's (Ballygunge)

24742747-5062/7 Ballygunge Circular Road, Cal 19 (Open: 11 am-11 pm)

Domino's (Russell St)

22176085-86/902 Russell Street,Shop No. 7, Cal 71(Open: 11 am-11 pm)

Domino's (Gariahat Rd)

24837471/74-61/432 Gariahat Road, Cal 68 (Open: 11 am-11 pm)

Don Giovanni's (Jodhpur Park)

24133243114 Jodhpur Park, Cal 68 (Open: 11 am-10.30 pm)

Don Giovanni's ( Park St)

22299797/6575/3759/287622 Park Street, Cal 16 (Open: 11 am-10.30 pm)

Don Giovanni's (D H Rd)

24398822, 2448174735 Diamond Habour Road, Cal 27 (Open: 11 am-10.30 pm)

Don Giovanni's (Salt Lake)

23597680, 2337104835 Diamond Habour Road, Cal 27 (Open: 11 am-10.30 pm)

Fire and Ice

22884057/4073Kanak Building, 41 JL Nehru Road, Cal 71 (entrance on Middleton Street)

La Cucina

23351234Hyatt Regency, JA-1, Sector III, Salt Lake, Cal 98

Little Italy

22825152/53Fort Knox, 8th floor 6 Camac Street Cal 17 (Open: 12.30pm - 3pm; 7.00pm - 11pm)

Pizza Hut ( Camac St)

22814328/ 434322 Camac Street, Cal 16 (Open: 11 am-11 pm)

Pizza Hut ( Ballygunge)

24860241, 24864241/42/4310C Ballygunge Circular Road, Cal 19 (Open: 11 am-11 pm)

Pizza Hut ( Forum)

22814327Forum, 10/3 Elgin Road, Cal 20 (Open: 11 am-11 pm)

Pizza Hut ( City Centre)

23580984/8Forum, 10/3 Elgin Road, Cal 20 (Open: 11 am-11 pm)

The Hub

22233939Taj Bengal, 34B Belvedere Road, Cal 27. (Open: 24 hours) Ph Ext - 3310

MULTI-CUISINE

Amazon

24292577, 325155251/434, Gariahat Road, Cal 69

Amber (Waterloo St)

22486520/347711 Waterloo Street, Cal 69(Open: 11 am-11.30 pm, home delivery)

Amber (Southern Av.)

24636514/5964131/1 Southern Avenue, Cal 29 (Open: 12 noon-10 pm, home delivery).

Ambrosia

23587373/0809Hotel Aayash, DD-24A, Sector I, Salt Lake, Cal 64

Around the Corner

22836607,2283660727 Shakespeare Sarani, Cal 17 (Open: 10 am-10 pm)

Ar Salan

2281392128 Circus Avenue, Cal 17(Open 12.30 pm-3.30pm, 7pm-11pm)

Badshah Bar and Restaurant

224941855 Lindsay Street, Cal 87 (Open: 10 am-10.30 pm)

Banzara

2483094186 Ibrahimpur Road, Jadavpur, Cal 32. (Open: noon-10.30 pm)

Bar-B-Q

22299916/907843, 47 and 55 Park Street, Cal 16(Open: 11 am-4.30 pm, 7 pm-11 pm)

Bawarchi

24149486A/3 CIT Market, 1st floor, Jadavpur, Cal 32

BB's

40061999, 40061960IBM Building, Millennium City, DN 62, Salt Lake, Sector V, Cal 91 (Open: 11am-10.30pm)

Bedwin

24644615, 2463403146/2/1A Gariahat Road, Cal 29

Bouquet Garni

32597593, 32545984The Enclave, Food Bazaar Building, 17/1F Alipore Road, Cal 27 (Open: 12 noon-3.30pm, 7pm-11pm)

Bowler's Den

23578101-2Sector IV, Salt Lake, (next to Nicco Super Bowl), Cal 91 (Open: 11 am-midnight)

Cinnamon Restuarant Lounge

22274974. 55502207/0824, Park Street Centre Building Cal 16 (Lunch: 12 to 3pm, weekends 3.30, Dinner 7pm to 11pm)

Caught n Bowled

65101000/23580333City Centre, B Block, 4th floor, Salt Lake, DC I, Sector I Cal 64

Charnock's

23351349/1086KB-26, Sector III, Salt Lake, Cal 98 (Open: noon-3.30 pm, 7 pm- 10.30 pm)

Crystal Cuisine Restuarant

30917209Queens Mansion, 12 Park Street Cal 16

Copper Chimney

22834161Jasmine Tower, 31 Shakespeare Sarani, Cal 17(Open: noon-3.30 pm,7.30 pm-10 pm)

Copper Grill

24635271/234A Manoharpukur Road, Cal 29 (Open: noon -11 pm)

Crystal Cuisine Restaurant

30917209, 22275206Queens Mansion, 12 Park Street, Cal 16

Dissolve

24003761,24003762,24003765P850 New Alipore Cal 53

Eden Pavilion

23454545ITC Sonar Bangla Sheraton and Towers, 1 Haldane Avenue, Cal 46 (Open: 24 hours), Ph ext 4330/4550

Extacy - The Launch Cafe

329712303D, Ray Street, Cal-20

Flavours of India

22401972/65746/3A AJC Bose Road, Cal 17(Open: 11 am-11 pm)

Floriana

2217519013D Russell Street, Cal 71(Open: 11 am-11 pm)

Food Court- Burp

22831396Forum, 5th floor, 10/3 Elgin Road, Cal 20

Ivory

22811313Block D, 5th floor, 22 Camac Street, Cal 71. (Open: 12.30 pm-3 pm, 7.30 pm-11 pm)

Indus Valley

2281780553 Syed Amir Ali Avenue, Cal 19(Open: 11 am-10.30 pm)

Kipling's Klub

23358382Abcos, IB-172, Sector III, Salt Lake, Cal 91

Klub Karaoke

23203903/23205487Swabhumi,EM Bypass, Cal 54

Kebab e que

22429957The Astor Hotel 15 Shakespeare Sarani Cal 71

Kurry Klub(Sarat Bose Rd)

24661979176 Sarat Bose Road, Cal 29

Kurry Klub (CIT)

23550354P 53, CIT Scheme VII M, Cal 54 (Lunch 12.30 pm to 3.30pm, Dinner 7.30pm to 10.30 pm)

Kwality (Gariahat)

246070792A Gariahat Road,Cal 19(Open: 11 am-11 pm)

Kaafila

40063210, 40063211B303, City Centre, Salt Lake Sector 1, Cal 64

La Terrasse

22492323The Oberoi Grand, 15 JL Nehru Road, Cal 13. (Open: 5.30 am-1.30 am)

Magnolia

2229899712K Park Street, Cal 16 (Open: 11 am-11 pm)

Maharaja

22826614King Edward Court,55 Chowringhee Road, Cal 71(Open: noon-10.45 pm)

Manthan

22489577/04423 Waterloo Street,Cal 69

Marco Polo

24630909205 Sarat Bose Road, Cal 29 (Open: 12.30 pm-11 pm)

Mishra's

23344641, 23216127Udayachal Tourist Lodge,Block DG, Salt Lake, Cal 91(Open: 7 am-11 pm)

Mocambo

22464300, 22290095, 22175372/6525B Park Street, Cal 16(Open: 11 am-11.30 pm)

Moulin Rouge

22299397, 2229895031 Park Street, Cal 16 (Open: 11am-11pm)

McDonald's

22262455, 2226245655 Park Street, Cal 16 (Open: 10am-11pm)

New Cathay

22491952, 2217261817/1 JL Nehru Road, Cal 13

Oasis

2229903333 Park Street, Cal 16

Olympia

2229930621 Park Street, Cal 16(Open: 11 am-11 pm)

Orko's

23584274City Centre, E 306, DC 1, Sector I, Salt Lake, Cal 64

One Step Up

22295339, 983013580918A Park Street, Cal 71 (Open: noon-11 pm)

Palm Court

22802323Hotel Hindustan International, 235/1 AJC Bose Road, Cal 20 (Open: 24 hours)

Pakwan

24653476/347370B Purna Das Road, Cal 29

Pan Asian

23454545 ext 4371/4380ITC Sonar Bangla Sheraton and Towers, 1 Haldane Avenue, Cal 46 (Open: 12.30 pm-2.45 pm, 7.30 pm-11.45 pm)

Peter Cat

22298841, 2217294218 Park Street, Cal 16(Open: noon-11.30 pm)

Peshawri-North West Frontier Cuisine

23454545 (Extn: 4320/4551)ITC Hotel, Sonar Bangla Sheraton Towers, 1 Haldane Avenue Cal 46d

Peter Cat

22298841, 2217294218 Park Street, Cal 16.

Princess

2252471512 Free School Street, Cal 16

Regent Restaurant

224914426A Chowringhee Place, Cal 13 (Open: 10am-9.30pm)

Rallis

2460150856 Ballygunge Garden, Cal 19

Sagar

22377979, 302810331 Meredith Street, Cal 72

Seven Heavens

228325011/A Victoria Terrace, Camac Street, Cal 17 (opp. Industry House)

Sher-E-Punjab

25672848/4848/5444Jessore Road, Sukantanagar, North 24-Parganas(Open: 11 am-midnight)

Shradha

22806670102 A and B New Park Street, Cal 17

Sonargaon

22233939Taj Bengal, 34B Belvedere Road, Cal 27. (Open: noon-3 pm; 7.30 pm-11 pm) Ph ext 3301

Sourav's The Food Pavilion

22274646/47/4820G Park Street, Cal 16

Spice Garden

25732340137 VIP Road, Cal 52

Starlit Cafe

228244463 Lord Sinha Road, Cal 71 (Open: noon-9.30 pm)

Starstruck

30901030/1664Forum, 4th floor, 10/3 Elgin Road, Cal 20 (Open; 12.15 pm-11.15 pm)

Silver Grill

22174649, 2229454918E Park Street, Cal 71

Taaja's

24767334, 2485291529/1A Ballygunge Circular Road, Cal 19 (Open; Tuesday-Friday noon-4 pm, 7 pm-11 pm; weekend noon-4 pm, 7 pm-11.30 pm; closed on Monday; home delivery)

Tandoor Park

24734845, 2429968228/4 Gariahat Road (South), Cal 31

Tamarind

30954226, 2485119964 Sarat Bose Road Cal 25

Tangerine

22815450/602/1 Outram Street, Cal 17

Tasty Corner

2289559722 Riflerange Road Cal 19 (Home Delivery)

The Atrium

22493121The Park, 17 Park Street,Cal 16

The Bistro

9831163653244A Purna Das Road, Cal 29 (Open: 11 am-10 pm, closed on Monday)

The Pen and Ink

23358382/8359Abcos, IB-172, Sector III, Salt Lake, Cal 91

The Sheriff

983088682015C Sarat Bose Road, Cal 20 (Open: 12.30 pm-10.30 pm,home delivery within 2 km)

The Silver Oak

24669356, 24646000200 Sarat Bose Road, Cal 29

The Social

309069255P MG Road, HMC Stadium Complex, Howrah Maidan 711001

Tit-Bits

228261231 AJC Bose Road, Cal 20

Trincas

22297825/894717B Park Street, Cal 16(Open: 11 am-midnight)

Fusion

22883939The Golden Park, 13 Ho Chi Minh Sarani, Cal 71. (Open: 24 hours)

Zaranj

22495572/0361/037026 JL Nehru Road, Cal 87(Open; 12.30 pm-3 pm, 7.30 pm-11 pm; Jong's closed on Tuesday, Zaranj open for dinner)

Zen

22493121The Park, 17 Park Street, Cal 16 (Open: 12.30 pm-2.45 pm, 7.30 pm-11.45 pm)

Kurry Klub (CIT)

2320344489C, Narkeldanga Main Road, Cal 54

Kwality (Park St)

2229784917 Park Street, Cal 16 (Open: 9.30am-midnight)

West view Bar Grill- The Western Grill

23454545ITC Sonar Bangla Sheraton towers, 1 Halden Avenue, Cal 46 (Open:bar 12:30pm-7:30pm; bar grill 7:30pm-11:45pm; Sunday bar, grill lunch 12:30 pm-11:45 pm) Ph ext - 4350/4450

Yagna

9830820436Vedic Village, 24 Parganas(North), Rajarhat, Shikarpur, PO - Bagu, Cal-135

Yummy- Food Court

24613502Gariahat Mall 5th Floor, Near Bijon Setu/ Ballygunge Station.

PUNJABI

Azad Hind Dhaba

24864742, 24866475, 2486565212/1 Ballygunge Circular Road,Cal 19 (Open: 5 pm-1 am, home delivery)

Dilli Darbar

23555290/2381Uttarapan Complex, S8 to F13, BS5, first floor, Maniktala, Cal 54

Dum Pukht

23454545ITC Sonar Bangla Sheraton and Towers, 1 Haldane Avenue, Cal 46 (Open: 7.30 pm-11.45 pm) Ph ext 4340/4341

Golden Harvest

22831864, 22831896Ideal Plaza, 11/1 Sarat Bose Road, Cal-20

Golden Spoon

222935021 Middleton Row, Cal 71

Guchhi

23351234Hyatt Regency, JA-1, Sector III, Salt Lake, Cal 98(Open: noon-3 pm, 7 pm-10.30 pm)

Honey-Da Dhaba

23556801-4P54, CIT Scheme VII M, VIP Road, Kankurgachhi, Cal 54(Open: 11 am-11 pm)

Kalash

22802323Hotel Hindusthan International, 235/1 AJC Bose Road, Cal 20(Open: 7.30 pm-11 pm)

La-Zeez

22230157/325483 Chowringhee Road, Cal 20

Mirch Masala

246189009/2 Gariahat Road, Cal 19(Open: noon-3 pm, 7 pm-10.30 pm, delivery within 3 km)

Saffron

22493121The Park, 17 Park Street, Cal 16 (Open: 12.30 pm-2.45 pm, 7.30 pm-11.45 pm)

Sanjha Chulha

23455419, 3091257688 Uttar Panchannagram, (near Science City), Cal 100 (Open: noon-midnight)

Sonar Gaon

22233939/1766/8805Taj Bengal, 34B Belvedere Road, Cal 27(Open: 12.30 pm-2.45 pm; 7.30 pm-11.45 pm)

Tandoor House

2466411824 Southern Avenue, Cal 26

The Dhaba

24615227/5171P23 Ashutosh Chowdhury Avenue, Cal 19 (Open: 11.30 am-11.15 pm,home delivery upto 2 km)

THAI

Ar-Han-Thai

2243676631 Bentick Street, Cal 69

Baan Thai

22492323The Oberoi Grand, 15 JL Nehru Road, Cal 13. (Open: 12.30 pm-2.30 pm, 7.30 pm-11.30 pm)

Twinkle Fung Shway

98317075441/1 Dover Lane, Cal 29

TIBETAN

Momo Plaza

228782602B Suburban Hospital Road, Cal 20

Orchid

228791272B Suburban Hospital Road, Cal 20

UDIPI

Anand

22129757, 2212834419 Chittaranjan Avenue, Cal 72(Open: 9 am-9.30 pm,Sunday 7 am-9.30 pm,closed on Wednesday)

Banana Leaf

24641960/094173 and 75 Rashbehari Avenue, Cal 26

Chennai Kitchen

22488509, 22435271P15/1 Chowringhee Square,Cal 69 (Open: noon-10 pm)

Jyoti Vihar

228297913A/1 Ho Chi Minh Sarani, Cal 71 (Open: 10 am-6 pm, closed on Monday)

Madras Restaurant

2237976425B Chittaranjan Avenue, Cal 72 (Open: 8.30 am-9.30 pm, Tuesday closed)

Malgudi Jn

22804889, 3028475724 Camac Street, Cal 16(Open: 11 am-10 pm)

Raj Restaurant

2475434410/2 Manoharpukur Road,Cal 26

Tamarind

30954226, 2485119964 Sarat Bose Road, Cal 20

Tripti

24666917197 Sarat Bose Road, Cal 29

VEGETARIAN

Blossoms

2448946317 The Enclave, Second Floor 17/1F Alipore Road, Cal 27 (12.30pm-10.30pm)

Flavours

983088682015C Sarat Bose Road, Cal 20

Gangaur

22264191/50092 Russell Street, Cal 71(Open: 7.30 am-10.30 pm)

Gangotri

23373072, 23597209CF-334, Sector I, Salt Lake, Cal 64

Gokul (CIT Rd)

23200644/45P 6, CIT Road, Scheme VI M, Phoolbagan, Cal 54

Gokul (New Alipore)

24782622174B, Block G, New Alipore, Cal 53 (Open: 7am - 10pm, home delivery)

Gokul (AJC Bose Rd)

22821365/8011/81701AJC Bose Road, Cal 20 (Open: 7.30am - 11pm)

Govinda's

24866922122 Gurusaday Road, Cal 19

Gupta Brothers ( New Alipore)

24557161, 24071761198, Block J, New Alipore, Cal 53 (Open: 7 am-10 pm)

Gupta Brothers ( Ballygunge)

2280057622 Ballygunge Park Road, Cal 19 (Open: 7 am-9.30 pm)

Gupta Brothers ( Sambhunath Pandit St)

2455632882A Sambhunath Pandit Street, Cal 20 (Open: 9 am-10.30 pm)

Gupta Brothers ( Chetla Rd)

24797605/198152 Chetla Road, Cal 27 (Open: 6 am-11 pm)

Gupta Brothers ( Park St)

22161634, 2283763042A Park Street ( Park Mansion), Cal 16

Haldiram's Pure Food (VIP Rd)

9830011129P420 Kazi Nazrul Islam Avenue, VIP Main Road, Teghoria, Cal 52 (Open: 7am - 10.30pm)

Haldiram's Pure Food (Jagmohan Mullick Lane)

98300111357Jagmohan Mullick Lane, Cal 7

Haldiram's Pure Food (Kankurgachhi)

9830011138P 20, CIT Scheme VII M, Kankurgachhi, Cal 54

Haldiram's Pure Food (SP Mukherjee Rd)

983001113751 A SP Mukherjee Road, Cal 26

Haldiram's Pure Food (Jackson Lane)

983001113910A Jackson Lane, Cal 1

Haldiram's Pure Food (EM Bypass)

9830011134C5, EM Bypass, Cal 26

Haveli

23597997/7627CK-2, Sector II, Salt Lake, Cal 91

Jharokha

22161633/3442A Park Mansion, Park Street, Cal 16. (Open: 12.30 pm-4 pm, 7 pm-10.30 pm)

Just Rolls

228244463 Lord Sinha Road, Cal 71

Krishna Vilas

22283068, 2861088448 JL Nehru Road, Cal 13

Mission Cafe

22370997/942620 Ganesh Chandra Avenue, Cal 13 (Open: 10 am-9 pm)

Shree Vatika

28702074,2466408916A Lake View Road, Cal 29

Teej

22170730, 222641912 Russell Street, Cal 71. (Open: noon-3.30 pm, 7 pm-10.45 pm)

BAR

Blue and Beyond

22522237/8Hotel Lindsay, 8A 8B Lindsay Street, Cal 87

Chowringhee Bar

22492323The Oberoi Grand, 15 JL Nehru Road, Cal 13(Open: 11 am-11.30 pm)

Cloud Nine

22829950/57-9/17/6215The Astor, 15 Shakespeare Sarani, Cal 71 (Open: 6pm-12.30am Friday and Saturday 6pm-2pm)

Corn and Kebab

24613533/34Gariahaat Mall, 5th floor, 13 Jamir Lane, Cal 19

Dissolve

24003761-2P850 New Alipore, Cal 53

Polo Club

22802323Hotel Hindustan International, 235/1 AJC Bose Road, Cal 20(Open: 11 am-midnight, Saturday 11 am-2 pm)

Roxy

22493121/9000The Park, 17 Park Street, Cal 16 (6pm onwards)

The Bar

23351234Hyatt Regency, JA-1, Sector III, Salt Lake, Cal 98(Open: noon-midnight)

The Junction

22233939Taj Bengal, 34B Belvedere Road, Cal 27(Open: 11.30 am-midnight)

Trincas The Tavern

22297825/894717B Park Street, Cal 16

Green Palace

24552981/793642B, Ashutosh Mukherjee Road, Calcutta-20

Raul's Bar Restaurant

2454396163, SP Mukherjee Road, Calcutta - 26

ICE CREAM

Baskin Robbins

23584038City Centre, C007, Salt Lake,Sector 1, DC 1,Cal 64

India Hobby Centre

222619101A Russell Street, Cal 71

Mama Mia

2458655759 Ballygung Circular Road, Cal 19

COFFEE/TEA

Barista

55347587New Empire Cinema, 1A Humayun Palce, Ground floor, Cal 87

By The Way

22233939/3302/3311Taj Bengal, 34B Belvedere Road,Cal 27

Cafe Bollywood

2440679122 Camac Street, Cal16

Cafe Coffee Day (Sec V)

32954673Millennium Tower, Millennium City, IBM Building, DN 62, Sector V, Salt Lake City, Cal 91

Cafe Coffee Day (Camac St.)

32954772c/o Nik-nish, Ground floor, 22 Camac Street, Cal 16

Cafe Coffee Day (Rowdon St.)

3959789542A,Express Tower, Rowdon Street, Shakespeare Sarani, Cal 17

Cafe Coffee Day (Binani Building)

39597895Binani Building, 13 Woodburn Park Road, Cal 20

Cafe Coffee Day (New Alipore)

3959863523N, Nalini Ranjan Avenue, Block B, Cal 53

Cafe Coffee Day (Hungerford St.)

3259892312/2, Hungerford Street, Ground floor, Cal 17

Cafe Coffee Day (City Center)

32954671Shop no A214, City Centre, DC Block, Sector 1, Salt lake, Cal 64

Cafe Coffee Day (Ballygung)

32954673Tripura Enclave, 59 Ballygung Circular Road, Cal 19

Coffee Pai

9831292372/7624 Camac Street , Cal 16

Dreams Cafe

9830489602Praty's Restaurants Pvt Ltd., 28A Suren Tagore Road, Cal 16

Flury's

2229766418 Park Street , Cal 16

India Coffee House

223756495 Chittarajan Avenue , Cal 72

Indian Coffee House

24736476CIT Market , Jadavpur, Cal 32

Mission Cafe

22379426/ 2237099720 Ganesh Chandra Avenue, Cal 13

The Sweet Valley Tea Co.

246634485, Lake Road, Cal 29

T3, The Tea Table

22273958, 5550212257A Park Street, Cal 16

CONFECTIONERY

Baker's Square

22831890Express Towers, 42 A Shakespeare Sarani, Cal 17

Belgique Chocolates

23584004City Centre, C104, Sector 1, Sallt Lake, Cal 64

Cakes

244067913C PC Sorcar Sarani (Old Ekdalia Road), Gariahat, Cal 19

Kookie-Jar

24490863, 55444547The Enclave, Ground floor, 17/1F Alipore Road, Cal 27

Mithai Shop - The Gourmet Deli

23454545ITC Sonar Bangla Sheraton Towers, 1 Haldane Avenue, Cal 46

BENGALI SWEETS

Balaram

248694902 Padmapukur Road, Cal 20

Balaram (Park St)

NA22 Park Street, Cal 16

Banchcharam

24402132-319 Gariahat Road, Cal 19

Bhim Chandra Nag

2258037846 Strand Road, Cal 7

Chittaranjan Mistanna Bhandar

25556025, 2554827034B Shyambazar Street, Cal 5

Gobinder Mishti

2407169719 Banamali Naskar Road, Behala, Cal 60

Hindustan Sweets

24122797/98/1604887A Ibrahimpur Road, Jadavpur, Cal 32

Nandalal Ghosh Sons

2350872531 Mahendra Sreemany Street, Cal 9

Nani Lal Ghosh

2554737445 Durga Charan Mitra Street, Cal 6

Sen Mahasay(Rashbehari)

24406373171H Rashbehari Avenue, Cal 19

Sen Mahasay (AM Rd)

2455113540A Ashutosh Mukherjee Road, Cal 20

Sen Mahasay (Shyambazar)

25555022/33191/1C Shibdas Bhaduri Street, Cal 4

K.C Das(Esplanade)

2248592011 A B Esplanade East, Cal -69

K.C Das(Lake Town)

25343193Lake Town B Block, Cal 89

K.C Das(Menoka Cinema)

24658973Near Menoka Cinema

K.C Das(Bagbazar)

2530053341A Bagbazar Street, Cal-3

K.C Das(Rippon St)

2227587057 Rippon Street, Cal-16

NON-BENGALI SWEETS

Haldiram Bhujiawala

2282135958 Chowringhee Road, Cal 71

Candy Treats

3052744113 Forum, 10/3 Elgin Road, Cal 20

Sharma's

2460191838 Mandeville Gardens, Cal 19

Tewari Confectioners(CIT Road)

23558373,23558373P38 CIT Road, Cal 54

Tewari Confectioners (AJC Bose Rd)

22871161/5613233/5 AJC Bose Road, Cal 20

Tewari Confectioners (JM Lane)

22683020/89133A, Jagmohan Mullick Lane, Cal 7

Tewari Sweets

22689392144 Cotton Street, Cal 7




</TEXT>
</DOC>