<DOC>
<DOCNO>1070619_sports_story_7942994.utf8</DOCNO>
<TEXT>


The Telegraph - Calcutta : Sports

 SCORE CARD

West Indies 

First innings 287

England 

First innings (overnight 121/4)

A.Strauss

c Ramdin b Edwards

77

P.Cwood

b Cmore

128

I.Bell

c Morton b Powell

11

M.Prior

c Smith b Edwards

62

S.Harmison

c Ganga b Powell

9

R.Sidebottom

not out

26

M.Panesar

b Powell

4

Extras (b-5, lb-8, w-15, nb-23)

51

Total (all out, 100 ovs)

400

Fall of wickets: 1/37, 2/110, 3/119, 4/121, 5/133, 6/165, 7/334, 8/369, 9/369

Bowling: Edwards 23-1-112-5, Powell 32-6-89-3, Collymore 29-5-116-2, Gayle 9-3-25-0, Bravo 2-0-10-0, Samuels 5-0-35-0

West Indies

Second innings

C.Gayle

batting

52

D.Smith

lbw Hoggard

0

D.Ganga

c Prior b Hoggard

6

R.Morton

b Panesar

7

S.Cderpaul

batting

16

Extras (b-1, w-1)

2

Total (three wkts, 19.2 ovs)

83

Fall of wickets: 1/7, 2/15, 3/38 

Bowling: Sidebottom 6-1-24-0, Hoggard 5-1-18-2, Harmison 3-0-22-0, Panesar 4-0-16-1, Pietersen 1.2-0-2-0




</TEXT>
</DOC>