<DOC>
<DOCNO>1070414_sports_story_7646890.utf8</DOCNO>
<TEXT>


The Telegraph - Calcutta : Sports

 Super 8 Standings 

 M

 W

 T

 L

 NR/R

 P

 Aus

 5

 5

 0

 0

 2.3

 10

 SL

 5

 4

 0

 1

 1.35

 8

 NZ

 5

 4

 0

 1

 1.27

 8

 SA

 5

 3

 0

 2

 -0.2

 6

 Eng

 5

 2

 0

 3

 -0.08

 4

 WI

 5

 1

 0

 4

 -1.21

 2

 Ban

 5

 1

 0

 4

 -1.43

 2

 Ire

 5

 0

 0

 5

 -1.97

 0

 Note:Updated till Australia rsquo;s win on 

 Friday. The table reflects the match 

 and the carried over points (if any) 

 from the group rsquo;s other qualifier.

 Source : World Cup official

 website. 




</TEXT>
</DOC>