<DOC>
<DOCNO>1070709_sports_story_8034514.utf8</DOCNO>
<TEXT>


The Telegraph - Calcutta : Sports

 SCORE CARD

India

First innings (overnight 281/3)

R. Dravid

retired hurt

57

Laxman

c Mgomerie b Saqlain

95

Y. Singh

st Hodd b Rayner

31

M.S. Dhoni

lbw Rayner

5

A. Kumble

c Mgomerie b Saqlain

2

Sreesanth

not out

7

Extras (b-12, lb-6, w-3, nb-1)

22

Total (for 7 wkts decl. in 130.5 ovrs)

388

Fall of wkts: 4/357, 5/367, 6/375, 7/388

Bowling: Lewry 21-6-53-0, Kirtley 24-7-69-0, Martin-Jenkins 21-5-48-1, Liddle 15-1-48-0, Mushtaq 29.5-4-71-3, Yardy 9-1-33-1, Rayner 8-0-34-2, Hopkinson 3-0-14-0

Sussex

First innings

C. Nash

c Kthik b Ranadeb

28

R. Mmerie

c Kthik b Ssanth

18

M. Yardy

c Laxman b Kumble

53

C. Hopkinson

lbw Singh

5

M. Thornley

b Kumble

2

A. Hodd

batting

21

R. M-Jkins

batting

0

Extras (b-4, lb-5, w-9, nb-1)

19

Total (for 5 wkts, 47 ovs)

146

Fall of wicket: 1/30, 2/66, 3/75, 4/105, 5/144

Bowling: Singh 10-2-32-1, Sreesanth 12-5-24-1, Ranadeb 12-4-41-1, Kumble 11-2-28-2, Yuvraj 2-0-17-0




</TEXT>
</DOC>