<DOC>
<DOCNO>1070426_sports_story_7699400.utf8</DOCNO>
<TEXT>


The Telegraph - Calcutta : Sports

 SCORE CARD

SOUTH AFRICA 

G. Smith 

b Bracken

2

AB de Villiers 

c Gilchrist b Tait

15

J. Kallis 

b McGrath

5

H. Gibbs 

c Gilchrist b Tait

39

A. Prince 

c Gilchrist b McGrath

0

M. Boucher 

c Hayden b McGrath

0

J. Kemp 

not out

49

A. Hall 

c Gilchrist b Tait

3

S.Pollock 

c and b Hogg

5

A. Nel

c Clarke b Tait

8

C. Lveldt 

b Watson

6

Extras (lb-4, w-13)

17

Total (all out, 43.5 ovs)

149

Fall of wickets: 1/7, 2/12, 3/26, 4/27, 5/27, 6/87, 7/93, 8/103, 9/130

Bowling: Bracken 7-2-15-1, McGrath 8-1-18-3, Tait 10-0-39-4, Watson 8.5-0-49-1, Hogg 10-2-24-1

(Message incomplete)




</TEXT>
</DOC>