<DOC>
<DOCNO>1070116_sports_story_7268191.utf8</DOCNO>
<TEXT>


The Telegraph - Calcutta : Sports

 Fawn Princess wins Derby 

 OUR TURF CORRESPONDENT

 The Robert Foley-trained hot-favourite, Fawn Princess, easily lifted the 2,400m The Hindu South India Derby Stakes at the Chennai races on Monday. B. Prakash partnered the winner.

 RESULTS

 (With inter-state dividends)

 1. Tamilnadu Commemoration Gold Cup 1,800m: (4-3-5) Only For Gold (Prakash) 1; First Emperor 2; Irish Noble 3. Won by: 2; 1-3/4; (2-9.36). Tote: Win Rs 10; Place: 11; 33; Quinella: 66; Shp: 51; Tanala: 107. Fav: Only For Gold (4).

 2. Kashmir Gold Cup 1,000m: (4-1-2) Moon Emperor (Prakash) 1; Magical Sunset 2; Supreme Princess 3. Won by: 2-1/2; 1-1/2; (1-4.12). Tote: Win Rs 10; Place: 10; 17; 17; Quinella: 27; Shp: 43; Tanala: 89. Fav: Moon Emperor (4).

 3. Dr.M.A.Chidambaram Gold Cup 1,400m: (1-2-3) Star Angel (Prakash) 1; Great Strides 2; Dance With Dreams 3. Won by: 5; 1/2; (1-33.43). Tote: Win Rs 11; Place: 11; 24; 22; Quinella: 71; Shp: 73; Tanala: 283. Fav: Star Angel (1).

 4. Kumararajah M.A.M. Muthiah Gold Cup 1,400m: (3-7-4) Numeric (Rajendra S.) Mystical Sunset 2; Polish Emperor 3. Won by: 4; 2-1/2; (1-32.97). Tote: Win Rs 66; Place: 21; 26; 17; Quinella: 331; Shp: 99; Tanala: 2,268. Fav: Imperial Echo (1).

 5. The Hindu South India Derby Stakes 2,400m: (5-8-6) Fawn Princess (Prakash) 1; Sunshine Coast 2; Mystic Dragon 3. Won by: 4-1/2; 1-3/4; (2-54.16). Tote: Win Rs 10; Place: 11; 12; 15; Quinella: 18; Shp: 17; Tanala: 53. Fav: Fawn Princess (5).

 6. Turf Authority Cup 1,000m: (1-2-9) Regal Shot (Manohar) 1; Elezibeth Arden 2; Olympian 3. Not run: Royal Recreation (11). Won by: 1/2; 1/2; (1-1.97). Tote: Win Rs 47; Place: 19; 19; 21; Quinella: 83; Shp: 32; Tanala: 1,178. Fav: Olympian (9).

 7. Pune Plate, Div-I 1,400m: (2-6-1) Red Chief (Kabdhar) 1; Super Value 2; Secret Dance 3. Won by: 1-1/2; 2; (1-29.66). Tote: Win Rs 147; Place: 39; 23; 48; Quinella: 375; Shp: 94; Tanala: 8,910 (C.). Fav: Chief Celebrity (7).

 8. Pune Plate, Div-II 1,400m: (7-4-2) Russian Valour (Prem) 1; Roman Spirit 2; Seaport 3. Won by: 1-1/4; 1; (1-30.77). Tote: Win Rs 49; Place: 23; 76; 57; Quinella: 838; Shp: 405; Tanala: 9,460 (Carried over). Fav: Supreme General (11).

 9. Pune Plate, Div-III 1,400m: (4-10-13) Royal Amaretto (Rajendra S.) 1; Combative 2; Magical Strike 3. Won by: 2; 1/2; (1-30.50). Tote: Win Rs 51; Place: 22; 43; 70; Quinella: 388; Shp: 125; Tanala: 27,650 (Carried over). Fav: Far Storm (3). 

 Jackpot: Rs 7,266 (Carried over); (C) Rs 1,868. Treble: (i) Rs 10; (ii) Rs 349; (iii) 1,842.




</TEXT>
</DOC>