<DOC>
<DOCNO>1070716_calcutta_story_8058770.utf8</DOCNO>
<TEXT>


The Telegraph - Calcutta : Metro

 Cinema

 ENGLISH

 DIE HARD 4.0 (U/A): Inox (Forum; 10.05 am, 5.55 pm, 10.40 pm), Inox (City Centre; 10,05 am, 6 pm, 10.35 pm), 89 Cinemas (Swabhumi; 10.05 am, 8.10 pm, 10.35 pm), Fame (Hiland Park; 12.20 pm, 5.15 pm)

 HARRY POTTER AND THE ORDER OF THE PHOENIX (U/A): Nandan-1 (1.45, 4.15, 6.45), New Empire (12.15, 3, 6, 8.45), Inox (Forum; 10.10 am, 12.20 pm, 3 pm, 5.40 pm, 8.10 pm, 10.40 pm), Inox (City Centre; 10.10 am, 12.20 pm, 3 pm, 5.40 pm, 8.10 pm, 10.45 pm), 89 Cinemas (Swabhumi; 10 am, 12.35 pm, 2.45 pm, 5.20 pm, 7.55 pm, 10.30 pm), Fame (Hiland Park; 10 am, 12.35 pm, 2.35 pm, 5.10 pm, 7.50 pm, 9 pm, 10.30 pm), Menoka (eve.), Ashoka (noon amp; mat.), Malancha (mat. amp; night), Inox (Darjeeling)

 THE BONG CONNECTION (A): Priya (5.15 pm, 9.15 pm), Star Theatre (4.30 pm), Inox (Forum; 12.25 pm, 8.20 pm), Inox (City Centre; 12.30 pm, 5.10 pm), 89 inemas (Swabhumi; 12.30 pm, 8.15 pm), Fame (Hiland Park; 10 am, 7 pm)

 HINDI

 AAP KAA SURROOR (U/A): Elite, 89 Cinemas (Swabhumi; 10.25 am, 2.50 pm), Basusree (eve., night), Radha, Ragini, Milan (Baruipur), Bangabasi amp; Rakhi (noon), 89 Cinemas (Duragpur; 10.10 am, 5.40 pm)

 APNE: Jyoti, Priya (2.10 pm), Inox (Forum; 2.45 pm, 5.10 pm, 10.30 pm), Inox (City Centre; 2.50 pm, 7.30 pm, 10.40 pm), 89 Cinemas (Swabhumi; 12.45 pm, 5.10 pm, 10.35 pm), Fame (Hiland Park; 4 pm, 9.30 pm), Kamal (6 pm), Narayani, Parbati, Gupta, Swapna (Chandernagore), 89 Cinemas (Durgapur; 2.45 pm), Chitra, Urvashi (Siliguri), Denzong (Gangtok), Inox (Darjeeling)

 AWARAPAN (U/A): Paradise, Inox (Forum; 10 am), Inox (City Centre; 10 am), Park Show, Jaya (noon)

 BOMBAY TO GOA: Roxy (noon, eve., night), Inox (Forum; 12.20 pm), Inox (City Centre; 12.20 pm), Fame (Hiland Park; 11.20 am), Taswir Mahal (2.30, 5.30), Kamal (3.15, 9.15)

 HARRY POTTER AND THE ORDER OF THE PHOENIX (U/A): Mitra (noon, eve. amp; night), Basusree (noon, mat.), Purabi, Prafulla (noon, mat., eve.), Bata Cinema, Navbharat, Parijat, Lok Sanskriti Mancha

 JHOOM BARABAR JHOOM: Fame (Hiland Park; 2.40 pm)

 NAQAAB (U/A): Metro, Menoka (12.30, 3.15, 9), Inox (Forum; 10 am, 12.50 pm, 3.15 pm, 5.45 pm, 8.20 pm, 10.50 pm), Inox (City Centre; 10 am, 12.50 pm, 3.15 pm, 5.45 pm, 8.20 pm, 10.50 pm), 89 Cinemas (Swabhumi; 10 am, 12.20 pm, 3.10 pm, 5.35 pm, 8 pm, 10.25 pm), Fame (Hiland Park; 10 am, 12.15 pm, 3.10 pm, 5.30 pm, 7.55 pm, 10.25 pm), Navina (12.30 pm, 3.30 pm, 6.30 pm, 9 pm), Star Theatre (12, 2.15, 9), Jaya, Mrinalini, Jagat, Vaishali, Moonlight, Ashoka (Behala; 5, 8), Malancha (5 pm), National, Pari, Atindra, Rathindra, Sonali, Bangabasi, Rakhi, Liluah Cinema, Lipi, Gitanjali (eve.), Krishti (eve.), Sushma (Sheoraphuli), Jyoti (Chandernagore), Auro (Chinsurah), 89 Cinemas (Durgapur; 12.35, 3.40 pm, 6.05, 8.30), Durgapur Cinema, Manoj (Asansol), Inox (Darjeeling), Vazra, Sridayal, Norgey

 OLD IS GOLD: Chaplin (12.30 pm, 3 pm, 6 pm)

 BENGALI

 ANURANAN: Priya (12.10, 7.20), Star Theatre (6.45), Mitra (3.15), Inox (Forum; 3 pm, 8.20 pm), Inox (City Centre; 3 pm, 8.25 pm), 89 Cinemas (Swabhumi; 3.50 pm, 6 pm), Fame (Hiland Park; 2 pm, 7.35 pm), Jaya (Lake Town; 2.15, 4.30, 7), Geetanjali (Bolpur; 6.30)

 BANDHU: Minar, Bijoli, Chhabighar (2.45, 5.45, 8.30), Ellora, Mahua, Narendra, Bejoya, Kalika (Habra), Baruipur Show House, Pushpasree (Kadamtolla), Mini Rathindra, Amala (Barrackpore)

 JAI JAGANNATH: Aruna, Purna, Netro (Dum Dum), Sarama (Barasat), Serampore Talkies, Shankar (Habra)

 MAHAGURU: Prachi, Darpana, Bharati, Aleya, Padmasree, Pushpasree (Behala), Chetna, Arati (Baguihati), Chhayabani, Shanti, Padma, Maya (Salkia), Debjani (Basirhat)




</TEXT>
</DOC>