<DOC>
<DOCNO>1070317_sports_story_7529504.utf8</DOCNO>
<TEXT>


The Telegraph - Calcutta : Sports

 SCORE CARD

Ireland

W. Pfield

c Sibanda b Mpofu

0

J. Bray

not out

115

E. Morgan

c Chigumbura b Brent

21

N. OBrien

c Taylor b Chigumbura

1

A. Botha

b Chigumbura

1

K. OBrien

c Taylor b Rainsford

10

A. White

lbw b Brent

28

D. Johnston

run out

20

K. McCallan

st Taylor b Williams

0

D. Lford

c Taylor b Mpofu

15

Extras (b-1, lb-1, w-5, nb-3)

10

Total (for 9 wkts in 50 overs)

221

Fall of wkts: 1/0, 2/43, 3/44, 4/64, 5/89, 6/145, 7/182, 8/182, 9/221

Bowling: Mpofu 10-3-58-2, Rainsford 7-0-44-1, Chigumbura 6-2-21-2, Brent 10-1-40-2, Utseya 10-0-29-0, Williams 6-1-21-1, Matsikenyeri 1-0-6-0.

Zimbabwe

T. Duffin

c Niall b Rankin

12

V. Sibanda

hit wicket white

67

J. Chibhabha

c Langford b Johnston

12

S. Williams

c Rankin b McCallan

14

S. Mkenyeri

not out

73

E. Chibura

c Bray b McCallan

4

B. Taylor

run out

24

G. Brent

lbw Botha

3

P. Utseya

c Morgan b Kevin

1

C. Mpofu

run out

0

E. Rainsford

run out

1

Extras (lb-1, w-7, nb-2)

10

Total (all out in 50 ovs)

221

Fall of wickets: 1/26, 2/92, 3/107, 4/128, 5/133, 6/203, 7/212, 8/213, 9/213

Bowling: Langford-Smith 9-0-34-0, Rankin 7-0-43-1, Botha 10-2-32-1, Johnston 10-2-32-1, McCallan 9-1-56-2, White 3-1-15-1, Kevin Obrien 3-1-8-1




</TEXT>
</DOC>