<DOC>
<DOCNO>1070317_sports_story_7529522.utf8</DOCNO>
<TEXT>


The Telegraph - Calcutta : Sports

 India-Bangla highs and lows

The following is a quick look at some of the highs and lows of India-Bangladesh clashes: 

HIGHEST TEAM SCORES 

 For Ind 348/5 (50 ovs) Dhaka, Dec. 27, 2004 

 For Bangla 257/9 (50 ovs) Dhaka, Dec. 27, 2004 

LOWEST TEAM SCORES 

 For Ind 214 (47.5 ovs) Dhaka, Dec. 26, 2004 

 For Bangla 76 (27.3 ovs) Dhaka, April, 11, 2003 

HIGHEST INDIVIDUAL SCORES 

 For Ind: 135* Sourav Ganguly, Dhaka, May 30, 2000 

 For Bangla: 82 Rajin Saleh, Dhaka, Dec. 27, 2004 

BEST BOWLING 

 For Ind: 5/23 Jawagal Srinath, Dhaka, Jan. 10, 1998 

 For Bangla: 3/62 Khaled Mahmud, Dhaka, Dec. 27, 2004 




</TEXT>
</DOC>