<DOC>
<DOCNO>1070421_sports_story_7676489.utf8</DOCNO>
<TEXT>


The Telegraph - Calcutta : Sports

 SCORE CARD

Australia

M. Hayden

c amp;b Styris

103

A. Gilchrist

c Gillespie b Franklin

1

R. Ponting

c Taylor b Patel

66

M. Clarke

b Franklin

49

M. Hussey

c Styris b Franklin

37

A. Symonds

c Mason b Patel

11

S. Watson

not out

65

B. Hogg

not out

0

Extras: (lb-1, w-5, nb-10)

16

Total: (for 6 wkts in 50 overs)

348

Fall of wkts: 1/7, 2/144, 3/216, 4/233, 5/257, 6/334

Bowling: Mason 3-0-27-0, Franklin 8-0-74-3, Patel 10-0-48-2, Vettori 10-0-60-0, Styris 10-0-50-1, Gillespie 6-0-67-0, McMillan 3-0-21-0




</TEXT>
</DOC>