<DOC>
<DOCNO>1070321_sports_story_7544778.utf8</DOCNO>
<TEXT>


The Telegraph - Calcutta : Sports

 Delhi results 

 1st race: Avtaar (Suresh) 1; Wise Prince 2; Siberean Girl 3. 2nd race: Beyond Dreams (Narain Singh) 1; Mountain Breeze 2; Silver Shine 3. 3rd race: Baira (Ramandeep) 1; Inner Voice 2; Daggers Point 3. 4th race: Coco Chanel (K. P. Appu) 1; Vrikodara 2; Reign Of Fire 3. 5th race: Blue Fin (Ramlal) 1; Vieille 2; Protection 3. 6th race: Snow Deer (K. P. Appu) 1; Rich Treat 2; Yare 3. Jackpot: Rs 8,057 (Carried over); (C) Rs 2,072. Treble: (i) Rs 6,850 (C.); (ii) Rs 284.




</TEXT>
</DOC>