<DOC>
<DOCNO>1070208_sports_story_7365383.utf8</DOCNO>
<TEXT>


The Telegraph - Calcutta : Sports

 SCORE CARD

Pakistan

I. Nazir

lbw Langeveldt

57

K. Akmal

lbw Pollock

0

Y. Khan

c Langeveldt b Smith

93

M. Yousuf

not out

101

I. Haq

run out 

13

S. Afridi

not out

77

Extras (lb-5, nb-1, w-4)

10

Total (for 4 wkts, 50 ovs)

351

Fall of wickets: 1/1, 2/80, 3/204, 4/222

Bowling: Pollock 10-1-53-1, Ntini 9-1-71-0, Nel 10-0-82-0, Langeveldt 9-0-61-1, Kallis 5-0-43-0, Smith 7-0-36-1




</TEXT>
</DOC>