<DOC>
<DOCNO>1070214_sports_story_7391052.utf8</DOCNO>
<TEXT>


The Telegraph - Calcutta : Sports

 Sania up 3 spots to No. 46

Sania Mirza moved up three spots to No. 46 in the WTA rankings list on Monday. The Indian, who lost in the semi-finals of the Pattaya Open last week, has 478 points. In doubles, she slipped two spots to No. 26.

TOP TEN

 (Entry Point)

 ATP Tour: 1. Roger Federer (Sui, 8,120 pts); 2.

 Rafael Nadal (Esp 4,775); 3. Nikolay Davydenko (Rus, 2,825); 4. Andy Roddick

 (US), 2,715); 5. Fernando Gonzalez (Chi, 2,685); 6. James Blake (US, 2,605);

 7. Tommy Robredo (Esp, 2,555); 8. Ivan Ljubicic (Cro, 2,270); 9. Mario Ancic

 (Cro, 2,075); 10. Tommy Haas (Ger, 2,020).

 WTA Tour: 1. Maria Sharapova (Rus, 3,978 pts); 2. Justine Henin (Bel, 3,436);

 3. Amelie Mauresmo (Fra, 2,830); 4. Kim Clijsters (Bel, 2,577); 5. Svetlana

 Kuznetsova (Rus, 2,554); 6. Martina Hingis (Sui, 2,359); 7. Nadia Petrova (Rus,

 2,283); 8. Elena Dementieva (Rus, 1,908); 9. Nicole Vaidisova (Cze, 1,742);

 10. Jelena Jankovic (Ser, 1,626). 

 (AGENCIES) 




</TEXT>
</DOC>