<DOC>
<DOCNO>1070918_sports_story_8329967.utf8</DOCNO>
<TEXT>


The Telegraph - Calcutta : Sports

 SCORE CARD

Pakistan

S. Butt

b Fernando

12

I. Nazir

c Mubarak b Vaas

7

Md. Hafeez

b Fernando

10

Y. Khan

c Dilshan b Malinga

51

S. Malik

c Dilshan b Malinga

57

S. Afridi

b Malinga

17

K. Akmal

not out

10

M. Haq

not out

16

Extras (lb-3, w-4, nb-2)

9

Total (6 wkts in 20 ovs)

189

Fall of wickets: 1/22, 2/22, 3/33, 4/134, 5/152, 6/170 

Bowling: Vaas 4-0-23-1, Fernando 4-1-17-2, Malinga 4-0-43-3, Jayasuriya 4-0-64-0, Wijekoon 4-0-39-0




</TEXT>
</DOC>