<DOC>
<DOCNO>1070225_sports_story_7438426.utf8</DOCNO>
<TEXT>


The Telegraph - Calcutta : Sports

 FOOTBALL

 NATIONAL LEAGUE

 Calcutta: East Bengal 0 Dempo 0

 GOLF

 USPGA MAYAKOBA CLASSIC

 Round II: 131 Cameron Beckman (US) 64 67, Boo Weekley (US) 64 67, Fred Funk (US) 62 69 132 Bill Haas (US) 66 66, Jose Coceres (Arg) 67 65, Brian Gay (US) 65 67 133 Peter Lonard (Aus) 65 68, Ryan Armour (US) 68 65, John Merrick (US) 64 69 134 John Cook (US) 68 66, Fabrizio Zanotti (Par) 71 63, Michael Putnam (US) 66 68, Mark Brooks (US) 69 65, Bob Tway (US) 71 63, George McNeill (US) 64 70 135 Chris Riley (US) 69 66, Tommy Armour III (US) 69 66, Gavin Coles (Aus) 69 66, Craig Kanada (US) 67 68, Brent Geiberger (US) 73 62, Scott Gutschewski (US) 66 69, Kevin Stadler (US) 66 69, Bubba Dickerson (US) 68 67.

 WGC MATCHPLAY MEET

 Round III: Nick Hern (Aus) bt Tiger Woods (US) at hole 20 Henrik Stenson (Swe) bt Aaron Baddeley (Aus) 4 amp; 3 Justin Rose (GBR) bt Charles Howell III (US) 3 amp; 2 Trevor Immelman (RSA) bt Ian Poulter (GBR) 2 amp; 1 Paul Casey (GBR) bt Shaun Micheel (US) by 2 holes Geoff Ogilvy (Aus) bt Niclas Fasth (Swe) 2 amp; 1.

 TENNIS

 WTA DUBAI OPEN

 Semi-finals: Amelie Mauresmo (2, Fra) bt Jelena Jankovic (5, Ser) 6-2, (Jankovic retired) Justine Henin (1, Bel) bt Svetlana Kuznetsova (3, Rus) 1-6, 6-4, 6-0

 WTA COPA BOGOTA MEET

 Quarter finals: Flavia Pennetta (2, Ita) bt Nathalie Vierin (Ita) 6-2, 4-2 (retired) Tathiana Garbin (1, Ita) bt Barbora Zahlavova Strycova (Cze) 6-2, 7-5 Roberta Vinci (6, Ita) bt Emilie Loit (4, Fra) 6-3, 4-6, 6-2 Lourdes Dominguez (3, Esp) bt Klara Zakopalova (7, Cze) 4-6, 6-3, 6-3.

 ATP ROTTERDAM INDOOR MEET

 Quarter finals: Nikolay Davydenko (1, Rus) bt Philipp Kohlschreiber (Ger) 6-7 (6-8), 6-4, 6-4 Ivan Ljubicic (3, Cro) bt Florian Mayer (Ger) 6-4, 6-2 Novak Djokovic (5, Ser) bt Tommy Robredo (2, Esp) 4-6, 6-4, 7-5 Mikhail Youzhny (Rus) bt David Ferrer (6, Esp) 6-2, 7-5.

 ATP MEMPHIS INTERNATIONAL

 Quarter finals: Andy Roddick (1, US) bt Lu Yen-Hsun (Tai) 6-4, 7-6 (9-7) Andy Murray (3, GBR) bt Stefan Koubek (Aut) 6-3, 6-2 Tommy Haas (2, Ger) bt Sam Querrey (US) 6-2, 6-2 Mardy Fish (4, US) bt Teimuraz Gabashvili (Rus) 6-2, 4-1 (Gabashvili retired).

 WTA MEMPHIS INTERNATIONAL

 Semi-finals: Venus Williams (7, US) bt Raluca Olaru (Rom) 6-3, 6-2 Shahar Peer (1, Isr) bt Meilen Tu (US) 6-4, 7-5.

 ATP BUENOS aires OPEN

 Quarter final: Nicolas Almagro (4, Esp) bt Juan Ignacio Chela (7, Arg) 6-4, 6-3 Juan Monaco (Arg) bt Luis Horna (Per) 4-6, 6-2, 6-3 Diego Hartfield (Arg) bt Nicolas Devilder (Fra) 6-4, 7-5 Alessio Di Mauro (Ita) bt Albert Montanes (Esp) 1-6, 6-4, 6-2.




</TEXT>
</DOC>