<DOC>
<DOCNO>1070224_sports_story_7435215.utf8</DOCNO>
<TEXT>


The Telegraph - Calcutta : Sports

 Bangalore results 

 1st race: Renascent 1; Give Me The Money 2; Mountain Bear 3. 2nd race: Ocean Crest 1; Paint Me Red 2; Bliss 3. 3rd race: Stage Coach 1; Aspen Bay 2; Brave Bheem 3. 4th race: Tribal Fantasy 2; Steelium 2; Aura 3. 5th race: Stone Of Destiny 1; My Turn 2; Secret Fury 3. 6th race: Sneak Preview 1; Forza 2; Worth A Gold 3. 7th race: Young Indian 1; Royal Filly 2; Destiny Dame 3. Jackpot: Rs 33,054; (C) Rs 6,761.Treble: (i) Rs 425; (ii) Rs 3,847.




</TEXT>
</DOC>