<DOC>
<DOCNO>1070724_calcutta_story_8091989.utf8</DOCNO>
<TEXT>


The Telegraph - Calcutta : Metro

 Cinema

 ENGLISH

 DIE HARD 4.0 (U/A): Inox (City Centre; 10 am), Fame (Hiland Park; 12.20 pm), Inox (Darjeeling)

 HARRY POTTER AND THE ORDER OF THE PHOENIX (U/A): New Empire (12.15, 3, 6, 8.45), Inox (Forum; 10.05 am, 12.20 pm, 2.50 pm, 7.50 pm, 10.35 pm), Inox (City Centre; 10.05 am, 12.20 pm, 2.55 pm, 7.50 pm, 10.20 pm), 89 Cinemas (Swabhumi; 10.05 am, 12.35 pm, 2.40 pm, 5.10 pm, 7.40 pm), Fame (Hiland Park; 10 am, 1.15 pm, 4.45 pm, 7.25 pm, 10.05 pm), Menoka (eve.), Ashoka (noon amp; mat.), Inox (Darjeeling), 89 Cinemas (Durgapur; 10 am, 12.30 pm, 3 pm, 5.30 pm)

 THE BONG CONNECTION (A): Priya (4.45 pm), Star Theatre (5 pm), Inox (Forum; 10 am, 8.15 pm), Inox (City Centre; 10 am, 5.50 pm), 89 inemas (Swabhumi; 10.10 am, 2.35 pm), Fame (Hiland Park; 10 am, 2.45 pm), Debasree, Pushpasree (Kadamtolla), Krishti (Memari; 12.30 pm), Geetanjali (Bolpur; 3.15 pm)

 HINDI

 AAP KA SURROOR: Elite, Bangabasi, Rakhi, Padmasree (Jadavpur), Arati (Baguihati), Narendra (Dum Dum), Shanti (Kadamtolla), Milan (Baruipur), Mini Sushma

 APNE: Jyoti, Inox (Forum; 3 pm), Inox (City Centre; 12.40 pm), 89 Cinemas (Swabhumi; 9.25 pm), Radha, Narayani, Sarama, Jayanti (Rishra), Serampore Tks, Laxmi (Titagarh), Sanskriti Lok Mancha (Burdwan)

 HARRY POTTER AND THE ORDER OF THE PHOENIX (U/A): Mitra (noon, eve. amp; night), Basusree (noon, mat.), Purabi, Prafulla (mat., eve.), Sanskriti Lok Mancha

 JHOOM BARABAR JHOOM: Fame (Hiland Park; 10.40 am)

 NAQAAB (U/A): Metro (12, 3, 6, 9), Menoka (12.30, 3.15, 9), Inox (Forum; 10 am, 12.20 pm, 2.45 pm, 5.25 pm, 10.30 pm), Inox (City Centre; 12.20 pm, 2.45 pm, 5.30 pm, 10.25 pm), 89 Cinemas (Swabhumi; 10.05 am, 12.20 pm, 3.05 pm, 7.10 pm, 10.10 pm), Fame (Hiland Park; 12.30 pm, 3.40 pm, 7.55 pm, 10.20 pm), Jaya, Ashoka (Behala; 5, 8), Park Show, Atindra, Sonali (noon), Narayani (night), 89 Cinemas (Durgapur; 10.45, 3.10, 5.25, 8.40), Bombay (Kharagpur), Inox (Darjeeling), Vazra, Sridayal, Norgey

 PARTNER (U/A): Paradise, Crown, Priya (2.15 pm, 9.15 pm), Navina (12.30 pm, 3.30 pm, 6.30 pm, 9 pm), Star Theatre (12 noon, 2.30 pm, 9.15 pm), Inox (Forum; 10.10 am, 12.55 pm, 3.40 pm, 5.05 pm, 6.30 pm, 7.55 pm, 9.20 pm, 10.40 pm), Inox (City Centre; 10.10 am, 12.55 pm, 3.40 pm, 5.05 pm, 6.30 pm, 7.50 pm, 9.15 pm, 10.40 pm), 89 Cinemas (Swabhumi; 10.35 am, 1.20 pm, 4 pm, 5.20 pm, 6.40 pm, 8 pm, 9.20 pm, 10.40 pm), Fame (Hiland Park; 10.10 am, 12.50 pm, 3.35 pm, 5 pm, 6.20 pm, 7.45 pm, 8.55 pm, 10.30 pm), Jaya (12, 2.30, 5, 7.30), Indira, Jagat, Moonlight, Taswir Mahal, Pushpasree (Behala), National, Kamal, Sonali, Ragini, Vaishali, Mrinalini, Navbharat, Parijat, Chandan, Lipi, Rathindra, Gupta, Lali, Milan, Jyoti (Chandernagore), Kalyani Cinema, Sri Laxmi, Surendra, Monoroma, 89 Cinemas amp; Anuradha (Durgapur), Chitra, Bhawani, Navin, Asha, Urvashi amp; Vishal (Siliguri), Denzong (Gangtok), Inox (Darjeeling)

 BENGALI

 ANURANAN: Priya (12 noon, 7 pm), Star Theatre (7.15 pm), Mitra (3.15 pm), Inox (Forum; 12.40 pm, 6.05 pm), Inox (City Centre; 3.45 pm, 8.10 pm), 89 Cinemas (Swabhumi; 12.30 pm, 5 pm), Fame (Hiland Park; 2.40 pm, 5.55 pm), Jaya (2.30 pm, 5 pm), Geetanjali (Bolpur; 6.15 pm)

 BANDHU: Minar, Bijoli, Chhabighar (2.45, 5.45, 8.30), Ellora, Mahua, Bejoya, Kalika (Habra), Baruipur Show House, Mini Rathindra, Amala (Barrackpore), Rabindra (Tarakeswar), Falguni (Basirhat), Burdwan Cinema

 MAHAGURU: Prachi, Darpana, Bharati, Chhayabani, Padma, Debjani (Basirhat), Rupkatha (Habra), Krishna (Baruipur), Roma (Birati), Kairi (Chinsurah), Udayan (Sheoraphuli), Mimi (Krishnagar), Liluah Cinema

 RAAT PARIR ROOPKATHA: Chaplin (12.30 pm, 3 pm, 6 pm)




</TEXT>
</DOC>