<DOC>
<DOCNO>1070415_sports_story_7649981.utf8</DOCNO>
<TEXT>


The Telegraph - Calcutta : Sports

 Strawberry wins thrilling finish 

 OUR TURF CORRESPONDENT

 M. K.Jadhavs trainee, Strawberry Fields, won the Cursetjee Dhunjishaw Trophy in a thrilling finish from Nanjing at the Mumbai races on Saturday. Neeraj Rawal partnered the Placerville filly to victory.

 RESULTS

 (With inter-state dividends)

 1. Inner Secret Plate 1,400m: (4-1-6) Oh What A Babe (Rajendra) 1; Return Of The King 2; Game Of Power 3. Won by: 3-1/4; Sh; (1-25.66). Tote: Win Rs 23; Place: 17; 37; Quinella: 80; Shp: 54; Tanala: 313. Fav: Oh What A Babe (4).

 2. Mahogany Plate, Div-II 1,200m: (3-1-4) Wild Cat (Nadeem) 1; Acton Town 2; Adams Pleasure 3. Won by: 1/2; Sh; (1-13.83). Tote: Win Rs 198; Place: 33; 13; 11; Quinella: 353; Shp: 26; Tanala: 2,076. Fav: Adams Pleasure (4).

 3. Osman Chotani Plate 1,200m: (2-5-3) Tribal Warrior (C.Jodha) 1; Regina 2; Teaser 3. Won by: 1-1/4; 1/2; (1-13.99). Tote: Win Rs 119; Place: 42; 16; 24; Quinella: 173; Shp: 39; Tanala: 2,396. Fav: Red Revelation (1).

 4. Mahogany Plate, Div-I 1,200m: (1-4-3) Capriani (C.Jodha) 1; Catalunya 2; Esprit De Liberte 3. Won by: 3/4; 1-1/2; (1-13.33). Tote: Win Rs 14; Place: 11; 14; 16; Quinella: 39; Shp: 38; Tanala: 75. Fav: Capriani (1).

 5. Littleover Trophy 1,400m: (1-10-7) Elusive Study (Mallesh) 1; Sleight Of Hand 2; Dominatrix 3. Won by: 1-1/4; 3/4; (1-26.33). Tote: Win Rs 12; Place: 11; 21; 30; Quinella: 53; Shp: 47; Tanala: 327. Fav: Elusive Study (1).

 6. Cursetjee Dhunjishaw Trophy 1,400m: (7-5-1) Strawberry Fields (Neeraj) 1; Nanjing 2; Oprah 3. Won by: Sh; 6-1/2; (1-23.47 Record). Tote: Win Rs 24; Place: 11; 12; 20; Quinella: 25; Shp: 42; Tanala: 184. Fav: Nanjing (5).

 7. M.D.Petit Plate 2,000m: (1-7-3) Flo Nightingale (C.Jodha) 1; Pursuit Of Power 2; Cavalry Brigade 3. Won by: Hd; 5-3/4; (2-7.72). Tote: Win Rs 101; Place: 28; 16; 15; Quinella: 247; Shp: 40; Tanala: 1,816. Fav: Amenable (2).

 Jackpot: Rs 6,031; (C) Rs 199.Treble: (i) Rs 6,926; (ii) Rs 341.




</TEXT>
</DOC>