<DOC>
<DOCNO>1070701_sports_story_8000132.utf8</DOCNO>
<TEXT>


The Telegraph - Calcutta : Sports

 On top of the world

 Sachin Tendulkar and Sourav Ganguly 

Sachin Tendulkar and Sourav Ganguly stitched together their 17th 100-plus first-wicket partnership in ODIs on Friday. They went past Matthew Hayden and Adam Gilchrist, who have 16. Following is the list of Sachin and Souravs ODI century stands for the opening wicket: 

 258 vs Ken in Paarl, 2001-02 

 252 vs SL in Colombo (Premadasa), 1997-98 

 197* vs Zim in Sharjah, 1998-99 

 193 vs SA in Joburg, 2001-02 

 175 vs Aus in Kanpur, 1997-98 

 169 vs NZ in Bangalore, 1996-97 

 159 vs Pak in Dhaka, 1997-98 

 157 vs Zim in Kanpur, 2000-01 

 153 vs SA in Vadodara, 1999-2000 

 141 vs NZ in Nairobi, 2000-01 

 134 vs SA in Belfast, 2007 

 133 vs WI in Harare, 2001 

 126 vs SA in Jaipur, 1996-97 

 116* vs WI in Port of Spain, 1996-97 

 115 vs SL in Colombo (Premadasa), 1997-98 

 102 vs Zim in Cuttack, 2000-01 

 101 vs SA in East London, 2001-02 

 Compiled by Mohandas Menon 




</TEXT>
</DOC>