<DOC>
<DOCNO>1070426_sports_story_7699436.utf8</DOCNO>
<TEXT>


The Telegraph - Calcutta : Sports

 SCORE CARD

Sri Lanka

U. Tharanga

b Vettori

73

S. Jsuriya

b Franklin

1

K. Skkara

c Fleming b Franklin

18

M. Jaydene

not out

115

C. Silva

lbw Bond

21

T. Dilshan

lbw Oram

30

R. Arnold

not out

14 

Extras (lb-3, w-9, nb-5)

17 

Total (5 wkts, 50 ovs)

289

Fall of wickets: 1/13, 2/67, 3/111, 4/152, 5/233

Bowling: Franklin 9-1-46-2, Bond 10-1-59-1, Oram 10-0-60-1, Vettori 10-0-51-1, Patel 10-0-62-0, Styris 1-0-8-0

New Zealand

P. Fulton

c Silva b Jayasuriya

46

S. Fleming

lbw Malinga

1

R. Taylor

lbw Vaas

9

S. Styris

c Jaydene b Dilshan

37

J. Oram

c amp;b Muralidharan

3

B. McCullum

c Silva b Muralidharan

0

C. McMillan

b Jayasuriya

25

D. Vettori

lbw Muralidharan

0

J. Franklin

not out

30

S. Bond

b Muralidharan

2

J. Patel

c Fernando b Dilshan

34 

Extras (b-5, lb-2, w-8, nb-6)

21 

Total (all out, 41.4 ovs)

208

Fall of wickets: 1/ 2, 2/32, 3/105, 4/114, 5/114, 6/115, 7/116, 8/144, 9/149

Bowling: Vaas 8-1-25-1, Malinga 7-2-21-1, Fernando 5-0-45-0, Muralidharan 8-0-31-4, Jayasuriya 9-0-57-2, Dilshan 4.4-0-22-2




</TEXT>
</DOC>