<DOC>
<DOCNO>1070801_sports_story_8133676.utf8</DOCNO>
<TEXT>


The Telegraph - Calcutta : Sports

 SCORE CARD

England

First innings 198

India 

First innings 481

England

Second innings 355

India

Second innings (overnight 10/0)

W. Jaffer

c Psen b Tremlett

22

D. Karthik

c Prior b Tremlett

22

R. Dravid

not out

11

S. Tendulkar

c Cook b Tremlett

1

S. Ganguly

not out

2

Extras (b-4, lb-6, w-2, nb-3)

15

Total (three wkts in 24.1 ovs)

73

Fall of wickets: 1/47, 2/55, 3/62

Bowling: Anderson 9-2-23-0, Sidebottom 8-0-28-0, Tremlett 7.1-2-12-3




</TEXT>
</DOC>