<DOC>
<DOCNO>1070119_sports_story_7282590.utf8</DOCNO>
<TEXT>


The Telegraph - Calcutta : Sports

 7 for Saturdays Sprint event 

 OUR TURF CORRESPONDENT

 Calcutta: In a seven-horse field vying for Saturdays main attraction the Calcutta Champions Sprint Trophy Aristotle heads the scales at 61kg. There are eight events on the cards and the first race starts at 12.15 pm. ACCEPTANCES

 1. Aazish Handicap 1,600m (Rt 20-70) 12.15 pm: Local Thriller 60; El Cid 56.5; Dramatikos 54.5; Dancing Storm 47.

 2. Romantic Dancer Handicap 2,000m (Rt 00-50) 12.45 pm: Regal Romance 60; Asmodeus 55.5; Indigo 55.5; Dil Chahta Hai 54.5.

 3. Relevance Cup 1,100m (Terms, maiden 3-year-olds only) 1.20 pm: Dance Music 55; Evere-ady Sir 55; Ferdunji Cooverji 55; Mezzano 55; Appetent 53.5; Fast Love 53.5; Southern Belle 53.5.

 5. Bold Chieftan Cup 1,200m (Rt 60 and over) 2 pm: Exploding Wonder 60; Retained Asset 59; Chill Pill 57.5; Imperial Str-ide 57.5; Ardella 52.5.

 5. Twilight Lady Handicap 1,100m (Rt 20-70) 2.35 pm: Anokato 61.5; Golden Image 61; Moment Of Hope 60; Zephyr 58.5; Ciraja 57; Candle Light 54; Elusive Glow 53; The Polynesian 50.5.

 6. Calcutta Champions Sprint Trophy 1,200m (Terms, 4-year-olds and over) 3 10 pm: Aristotle 61; Proteus 57; Pure Valour 52; Romantic Fire 52; Mr Darcy 50; Water Wood 50; Best Of The Blues 49.

 7. Police Commissioners Cup 1,200m (Rt 40-90) 3.40 pm: Flag Bearer 60; Aptitude 59; Silver Grey 57.5; Grand Ceremony 57.

 8. Mauritius Belle Handicap 1,200m (Rt 00-30) 4.15 pm: Tip Toes 62; Arrayal 60 5; Magical Romance 59; Valintine Dancer 59; Satluj 57; Over The Rainbow 56.5; Avish-olom 55.5; Finders Keepers 54; Dancing Mystery 53.5; Vanco-uver 51.5; Time To Dream 51.

 Jackpot: 4; 5; 6; 7 amp; 8. Treble: (i) 1; 2 amp; 3; (ii) 3; 4 amp; 5; (iii) 6; 7 amp; 8.




</TEXT>
</DOC>