<DOC>
<DOCNO>1070202_sports_story_7339024.utf8</DOCNO>
<TEXT>


The Telegraph - Calcutta : Sports

 Ganga Jal triumphs 

 OUR TURF CORRESPONDENT

 I. Parmer-trained Ganga Jal won the Galloping Acres Stud Farm Cup in Delhi on Thursday.

 RESULTS

 (With inter-state dividends)

 1st race: Cacoethes (Shadab) 1; Rose Velt 2; Charg Away 3. Won by: Dist; 1-1/4; (1-27.96). Win Rs 12; (P) 10; 79; 17; (Q) 147; (T) 559. 

 2nd race: Duke Ellington (Imran) 1; First Crush 2; Wild Bird 3. Won by: 7-1/2; 1-3/4; (1-42.82). Win Rs 19; (P) 13; 66; 14; (Q) 343; (T) 2,658. 

 3rd race: Dont Look Twice (D.Singh) 1; Delightful Message 2; Sheer Excellence 3. Not run: Siberean Girl. Won by: 3-3/4; Nk; (1-8.59). Win Rs 22; (P) 13; 30; 25; (Q) 116; (T) 375. 

 4th race: Daggers Point (Shekhawat) 1; Misteriosa 2; Challenge 3. Won by: 2; Sh; (1-9.78). Win Rs 483; (P) 65; 13; 48; (Q) 475; (T) 20,621. 

 5th race: Ganga Jal (Pawan) 1; Irawant 2; Real Scotch 3. Won by: 5-3/4; 1-3/4; (1-16.19). Win Rs 19; (P) 13; 25; 16; (Q) 65; (T) 165. 

 6th race: Mountain Flame (Shekhawat) 1; Diamond Cut 2; Running Fantasy 3. Won by: 2-3/4; 2-1/4; (1-1.72). Win Rs 65; (P) 17; 10; 19; (Q) 35; (T) 364. 

 7th race: Angel Of Night (Gurpreet) 1; Benvenuta 2; True Beauty 3. Won by: NK; 2; (1-2.47). Win Rs 44; (P) 16; 77; 43; (Q) 846; (T) 7,121. 

 Jackpot: Rs 8,118; (C) Rs 2,435. Treble: (i) Rs 2,153; (ii) Rs 437.




</TEXT>
</DOC>