<DOC>
<DOCNO>1070512_calcutta_story_7763507.utf8</DOCNO>
<TEXT>


The Telegraph - Calcutta : Metro

 Cinema

 ENGLISH

 MR. BEANS HOLIDAY: Inox (Forum; 10 am), Fame (Hiland Park; 10.20 am)

 SPIDER-MAN 3 (U/A): New Empire (12, 3, 6, 8.30), Priya (11.45 am, 7 pm), Inox (Forum; 10.10 am, 12 noon, 2.40 pm, 5.20 pm, 7.10 pm, 8.05 pm, 10.45 pm), Inox (City Centre; 10.05 am, 12.40 am, 3.20 pm, 4.50 pm, 6 pm, 7.40 pm, 10.45 pm), 89 Cinemas (Swabhumi; 10 am, 12.05 pm, 2.45 pm, 5.25 pm, 6.45 pm, 8.05 pm, 10.45 pm), Fame (Hiland Park; 10 am, 12.25 pm, 2.20 pm, 4.55 pm, 7.35 pm, 10.10 pm), 89 Cinemas (Durgapur; 10.20 am, 1 pm, 3.40 pm, 6.20 pm, 7.40 pm), Denzong (Gangtok), Inox (Darjeeling), Dinabandhu Mancha (Siliguri)

 HINDI

 BHEJA FRY: Inox (Forum; 10.10 am, 3.05 pm), Inox (City Centre; 12.45 pm, 2.55 pm, 9.35 pm), 89 Cinemas (Swabhumi; 10.20 am, 2.45 pm), Fame (Hiland Park; 2.55 pm, 10.30 pm)

 GOOD BOY BAD BOY: Roxy (12, 3, 6, 9), Inox (Forum; 10.10 am, 12.50 pm, 2.10 pm, 5 pm, 9.50 pm), Inox (City Centre; 10.20 am, 2.35 pm, 4.45 pm, 8.40 pm, 10.20 pm), 89 Cinemas (Swabhumi; 10 am, 12.35 pm, 2 pm, 4.35 pm, 9.30 pm), Moonlight, Taswir Mahal, Vaishali, Padmasree (Jadavpur), Bangabasi, Parijat, Liluah Cinema, Milan (Hooghly), Jyoti (Chandernagore), Mini Rathindra (Sodepur), Debasree (Barrackpore), Srilaxmi (Kanchrapara), 89 Cinemas (Durgapur; 11 am, 1.10 pm, 3.20 pm, 5.30 pm), Chitra (Asansol; 2 shows), Navin (Malda), Urvashi (Siliguri), Bhawani (Cooch Behar)

 LIFE IN A...METRO (A): Paradise, Priya (2.15, 4.45, 9.15), Navina (12.30, 3,30, 6.30), Inox (Forum; 12.20 pm, 2.50 pm, 4.25 pm, 5.45 pm, 7.05 pm, 8.25 pm, 10.55 pm), Inox (City Centre; 10 am, 12.30 pm, 3 pm, 5.30 pm, 6.55 pm, 8.15 pm, 10.50 pm), 89 Cinemas (Swabhumi; 12.10 pm, 2.40 pm, 4.05 pm, 5.30 pm, 6.55 pm, 8.20 pm, 10.45 pm), Fame (Hiland Park; 10 am, 12.25 pm, 2.50 pm, 5.20 pm, 7.50 pm, 10.20 pm), Star Theatre (12, 2.45, 5.45, 8), Jaya, 89 Cinemas (Durgapur; 10 am, 12.30 pm, 3 pm, 5.30 pm, 8 pm), Inox (Darjeeling)

 NAMASTEY LONDON: Inox (Forum; 11.40 am), Inox (City Centre; 10.15 pm), 89 Cinemas (Swabhumi; 11.15 am), Fame (Hiland Park; 10 am)

 SPIDER-MAN 3: Metro, Basusree, Radha, Purabi, Jaya (7 pm), Sonali (11.30 am, 1.30 pm), Pushpasree (Behala), Ashoka (11.30 am), Kamal, Rakhi, Pushpasree, Lipi, Narendra (Dum Dum), Rathindra, Atindra, Lali, Swapna (Chandernagore), Jayanti (Rishra), Auro (Chinsurah), Sushma (Sheoraphuli), Manoj, Durgapur Cinema, Geetanjali (Bolpur), Sankriti Lok Mancha (Burdwan)

 TA RA RUM PUM: Fame (Hiland Park; 12.30 pm, 3.30 pm, 4.40 pm, 6.35 pm, 7.40 pm, 9.45 pm), Hind, Elite, Menoka, Mitra, Malancha, Ashoka (Behala), Jaya (Lake Town), Mrinalini, Gupta (Barrackpore), Ananya

 YATRA (U/A): Nandan-1 (1.45, 4.15, 6.45), Jyoti (noon), Inox (Forum; 9.40 pm), Inox (City Centre; 12.30 pm)

 BENGALI

 RUDRA THE FIRE: Darpana (2.45, 5.45, 8.30), Aruna (1, 4, 7), Bharati (3, 6, 8.45), Leela (Baruipur), Bidhan (Barasat), Amtala Talkies

 TULKALAM: Minar, Bijoli, Chhabighar (3, 5.45, 8.15), Aleya, Mahua (Garia), Ellora, Chetna, Arati, Sonali, Bejoya, Shanti, Kalika (Habra), Padma (Sodepur), Kairi (Chinsurah), Udayan (Sheoraphuli), Krishna (Baruipur), Falguni (Basirhat), Burdwan Cinema




</TEXT>
</DOC>