<DOC>
<DOCNO>1070401_sports_story_7592739.utf8</DOCNO>
<TEXT>


The Telegraph - Calcutta : Sports

 SCORE CARD

England

E.Joyce

b Rankin

1

M. Vaughan

c N OBrien b Rankin

6

I. Bell

c N OBrien b K OBrien

31

K. Pietersen

c Portfield b McCallan

48

P. Cwood

run out

90

A. Flintoff

b Johnston

43

P. Nixon

c Morgan b Botha

19

R. Bopara

not out

10

S. Mahmood

not out

0

Extras (lb-2, w-13, nb-3)

18

Total (for 7 wkts, 50 ovs)

266

Fall of wickets: 1/6, 2/23, 3/89, 4/113, 5/194, 6/245, 7/258

Bowling: Langford-Smith 7-0-38-0, Rankin 7-1-28-2, Johnston 10-0-70-1, Botha 10-1-56-1, K OBrien 4-0-26-1, McCallan 10-0-38-1, White 2-0-8-0

Ireland

W. Porfield

c Bell b Flintoff

31

J. Bray

c Bopara b Anderson

0

E. Morgan

run out

2

N. OBrien

st Nixon b Vaughan

63

A. Botha

c Flintoff b Panesar

18

K. OBrien

lbw Panesar

12

T. Johnston

b Flintoff

27

A. White

c Nixon b Collingwood

38

W. McCallan

b Flintoff

5

D. L-Smith

lbw Flintoff

1

B. Rankin

not out

4

Extras (lb-3, w-9, nb-5)

17

Total (all out, 48.1 ovs)

218

Fall of wickets: 1/6, 2/11, 3/72, 4/116, 5/139, 6/139, 7/197 8/209, 9/210

Bowling: Anderson 7-1-35-1, Mahmood 8-2-34-0, Flintoff 8.1-1-43-4, Collingwood 6-0-38-1, Panesar 10-1-31-2, Vaughan 9-0-34-1




</TEXT>
</DOC>