<DOC>
<DOCNO>1070421_sports_story_7676498.utf8</DOCNO>
<TEXT>


The Telegraph - Calcutta : Sports

 SCORE CARD

West Indies 

C. Gayle 

lbw Syed Rasel 

1 

D. Smith 

b Mortaza 

5 

S. Chanpaul 

b Ahmed 

50 

M. Samuels 

c Rahim b Hasan 

31 

R. Sarwan 

not out 

91 

B. Lara 

c Omar b Razzak 

33 

D. Bravo 

not out 

9 

Extras (lb-3, w-7) 

10 

Total (for 5 wkts in 50 ovs) 

230 

Fall of wickets: 1/8, 2/8, 3/55, 4/136, 5/196 

Bowling: Mortaza 10-2-39-1, Rasel 10-2-48-1, Razzak 10-0-44-1, Rafique 10-0-46-0, Hasan 8-0-38-1, Ahmed 2-0-12-1

Bangladesh

J. Omar

c Gayle b Powell

16

T. Iqbal

run out

7

A. Ahmed

c Ramdin b Collymore

6

S. Hasan

c Ramdin b Collymore

0

M. Ashraful

c Samuels b Powell

2

H. Bashar

c Bravo b Powell

12

M. Rahim

not out

38

M. Mortaza

b Bravo

37

M. Rafique

lbw Gayle

0

A. Razzak

c Lara b Bravo

1

S. Rasel

b Gayle

2

Extras (lb-1, w-7, nb-2)

10

Total (all out in 43.5 overs)

131

Fall of wkts: 1/13, 2/21, 3/23, 4/34, 5/35, 6/52, 7/110, 8/111, 9/114

Bowling: Collymore 7-1-11-2, Powell 10-0-38-3, Taylor 8-0-25-0, Bravo 10-3-28-2, Gayle 8.5-0-28-2




</TEXT>
</DOC>