<DOC>
<DOCNO>1070605_business_story_7877495.utf8</DOCNO>
<TEXT>


The Telegraph - Calcutta : Business

 MUTUAL FUND

 FUND EQUITY:

DIVERSIFIED

 NAV

 Change

 RETURNS

 Size

 3-Month

 1-Year

 3-Year

 Lifetime

 Birla Advantage

 131.45

 -1.52

 12.49

 33.34

 45.72

 25.23

 502.50

 Birla Dividend Yield Plus

 46.15

 0

 15.17

 25.99

 32.70

 42.44

 385.62

 Birla Infrastructure

 13.18

 -0.08

 17.26

 40.06

 24.20

 441.34

 Birla Mid Cap

 71.26

 -0.5

 16.70

 38.32

 51.19

 52.18

 282.78

 Birla Sun Life Equity

 201.51

 -2.36

 18.73

 46.88

 57.76

 40.81

 659.23

 Birla Top 100

 16.67

 -0.14

 13.54

 31.34

 35.48

 492.74

 DSPML Equity

 44.39

 -0.2

 18.92

 46.52

 57.31

 28.81

 761.23

 DSPML Opportunities

 59.14

 -0.51

 14.64

 35.48

 48.58

 28.20

 1408.09

 DSPML Small And Mid Cap Reg

 11.17

 -0.06

 13.30

 11.70

 1490.61

 DSPML T.I.G.E.R.

 36.58

 -0.3

 17.85

 47.14

 53.48

 1562.10

 DSPML Top 100 Equity

 63.82

 -0.42

 17.76

 45.33

 48.67

 54.12

 365.18

 Fidelity Equity

 23.47

 -0.16

 16.73

 46.62

 49.38

 2843.85

 Fidelity India Special Situations

 13.70

 -0.08

 15.28

 42.51

 32.87

 2199.91

 Franklin India Bluechip

 138.75

 -1.27

 14.88

 36.94

 43.81

 29.55

 2474.23

 Franklin India Flexi Cap

 22.21

 -0.2

 14.83

 33.22

 41.15

 3597.38

 Franklin India Opportunities

 27.61

 -0.28

 16.83

 42.74

 51.81

 43.50

 854.60

 Franklin India Prima

 216.42

 -1.5

 12.70

 24.70

 46.81

 25.54

 1540.13

 Franklin India Prima Plus

 151.24

 -0.89

 15.83

 48.62

 49.21

 23.87

 1096.15

 HDFC Capital Builder

 70.71

 0.37

 17.68

 29.13

 47.54

 15.77

 700.38

 HDFC Core amp; Satellite

 26.47

 -0.14

 12.08

 23.35

 42.81

 644.98

 HDFC Equity

 160.88

 -1.02

 14.49

 40.15

 51.44

 25.00

 4195.38

 HDFC Growth Fund

 53.05

 -0.25

 19.11

 41.95

 47.98

 27.73

 415.97

 HDFC Premier Multi-Cap

 19.70

 -0.19

 13.98

 33.47

 36.00

 693.52

 HDFC Top 200

 118.46

 -1.06

 15.70

 35.70

 48.55

 28.29

 1856.47

 HSBC Advantage India

 13.28

 -0.1

 14.79

 31.22

 23.40

 1105.14

 HSBC Equity

 74.75

 -0.56

 13.05

 35.12

 43.57

 56.30

 1009.99

 HSBC India Opportunities

 30.43

 -0.16

 15.39

 38.52

 48.62

 40.01

 690.29

 HSBC Midcap Equity

 20.76

 -0.11

 12.02

 27.66

 41.89

 301.45

 ICICI Prudential Discovery

 28.24

 0.01

 14.33

 20.63

 44.01

 913.85

 ICICI Prudential Dynamic

 69.92

 -0.16

 11.93

 41.36

 60.70

 52.20

 2218.33

 ICICI Prudential Emerging STAR

 30.86

 -0.14

 14.17

 37.40

 52.68

 1099.26

 ICICI Prudential Growth

 98.99

 -0.86

 14.19

 33.41

 47.62

 29.14

 465.45

 ICICI Prudential Infrastructure

 20.73

 0.04

 20.45

 51.20

 49.93

 1711.81

 ICICI Prudential Power

 88.52

 -0.72

 14.74

 37.69

 51.61

 18.64

 1450.51

 ICICI Prud Services Industries

 17.01

 -0.09

 14.39

 54.50

 41.11

 508.50

 Kotak 30

 73.19

 -0.51

 14.61

 30.49

 47.81

 31.16

 435.36

 Kotak Lifestyle

 13.20

 -0.03

 15.51

 44.44

 24.20

 350.41

 Magnum COMMA

 16.98

 -0.03

 17.92

 30.72

 32.92

 439.56

 Magnum Contra

 41.34

 -0.33

 17.48

 38.12

 68.17

 34.47

 1701.88

 Magnum Equity

 29.59

 -0.12

 13.20

 38.87

 47.00

 17.74

 272.56

 Magnum Global

 45.33

 -0.26

 8.57

 31.89

 71.50

 16.66

 1504.48

 Magnum Midcap

 23.79

 -0.14

 12.22

 35.09

 47.85

 426.08

 Magnum MultiCap

 15.97

 -0.17

 11.91

 26.15

 31.38

 1130.04

 Magnum Multiplier Plus

 56.29

 -0.55

 12.29

 34.67

 61.35

 16.11

 794.64

 Optimix Multi Manager Equity*

 10.68

 0.05

 6.80

 305.51

 Principal Growth

 52.01

 -0.42

 12.58

 25.54

 41.60

 28.27

 278.80

 Principal Large Cap

 18.82

 -0.04

 18.14

 41.40

 47.78

 275.31

 Reliance Equity

 12.33

 -0.09

 13.02

 29.93

 18.34

 4061.18

 Reliance Equity Opportunities

 22.78

 -0.05

 12.08

 36.15

 44.33

 2533.56

 Reliance Growth

 297.06

 0.08

 14.44

 37.97

 62.53

 33.74

 3555.73

 Reliance Vision

 199.20

 -1.87

 17.50

 41.59

 53.60

 29.23

 2740.65

 SBI Bluechip

 12.12

 -0.11

 13.48

 24.31

 15.07

 1878.52

 Stan Chartered Classic Equity

 16.70

 -0.19

 13.89

 34.14

 31.16

 383.62

 Sund BNP Pari CAPEX Opp.-D

 17.38

 -0.18

 17.56

 34.47

 42.90

 357.95

 Sund BNP Pari Rural India

 11.95

 -0.07

 13.04

 22.27

 17.17

 823.68

 Sund BNP Pari Select Focus

 62.85

 -0.39

 11.88

 32.84

 45.52

 45.75

 344.33

 Sund BNP Paribas Select Midcap

 95.93

 -0.57

 9.98

 22.02

 63.37

 58.94

 2163.16

 Tata Equity Opportunities

 63.86

 -0.29

 17.91

 34.19

 50.45

 66.70

 453.85

 Tata Infrastructure

 25.70

 -0.15

 17.69

 37.39

 47.02

 1318.60

 Tata Pure Equity

 66.27

 -0.45

 14.51

 33.64

 47.68

 34.26

 320.24

 Templeton India Equity Income

 13.25

 -0.05

 14.63

 39.05

 28.48

 1774.09

 Templeton India Growth

 72.69

 -1

 18.24

 35.65

 40.86

 21.47

 319.14

 UTI Contra

 9.88

 -0.04

 11.14

 10.39

 -1.00

 645.05

 UTI Dividend Yield

 17.54

 -0.09

 13.90

 36.82

 30.89

 553.30

 UTI Equity

 34.80

 -0.14

 14.36

 24.11

 38.20

 12.09

 1532.21

 UTI Index Select Equity

 36.07

 -0.22

 12.68

 32.42

 41.24

 21.93

 274.48

 UTI Infrastructure

 30.34

 -0.31

 17.96

 40.92

 61.14

 46.24

 916.42

 UTI Leadership Equity

 12.99

 -0.12

 12.56

 39.08

 21.51

 1042.70

 UTI Master Growth

 46.70

 -0.31

 14.40

 31.11

 38.57

 16.26

 346.06

 UTI Master Plus 91

 69.30

 -0.65

 13.51

 36.31

 43.04

 16.08

 912.12

 UTI Master Value

 31.19

 0.18

 12.40

 16.82

 32.43

 26.51

 629.68

 UTI Mastershare

 37.36

 -0.12

 15.81

 36.15

 35.61

 22.04

 1959.11

 UTI Mid Cap

 22.45

 0.1

 9.78

 4.37

 37.89

 33.00

 412.92

 UTI Opportunities

 15.05

 -0.12

 15.41

 15.41

 24.38

 518.84

 UTI Services Sector

 51.87

 -0.3

 12.27

 42.34

 41.36

 34.31

 471.60

 Hybrid: Equity-oriented

 Birla Balance

 29.55

 -0.04

 9.77

 27.76

 28.40

 15.17

 116.68

 Birla Sun Life95

 199.39

 -0.74

 15.47

 34.31

 38.18

 27.93

 135.09

 Canbalance II

 39.32

 -0.02

 10.08

 16.85

 37.24

 12.21

 91.58

 DSPML Balanced

 42.66

 -0.13

 15.20

 34.73

 35.07

 19.71

 416.45

 FT India Balanced

 35.18

 -0.19

 11.03

 32.21

 31.91

 18.29

 264.51

 HDFC Balanced

 31.95

 -0.05

 10.33

 19.22

 27.29

 18.57

 113.52

 HDFC Childrens Gift-Inv

 26.37

 -0.26

 11.43

 20.76

 27.44

 21.53

 126.97

 HDFC Prudence

 121.06

 -0.7

 9.57

 34.92

 40.50

 23.20

 2284.17

 ICICI Pru Equity amp; Derivative Reg

 10.82

 -0.03

 8.85

 8.20

 1115.22

 ICICI Prudential Balanced

 36.23

 -0.22

 9.39

 24.03

 35.23

 18.29

 471.06

 ICICI Prudential ChildCare-Gift

 42.45

 -0.25

 6.60

 24.30

 32.33

 28.14

 109.21

 Kotak Balance

 24.86

 -0.08

 10.06

 18.24

 38.73

 21.67

 95.14

 LICMF ULIS

 11.26

 -0.12

 12.18

 27.92

 25.90

 21.38

 53.50

 Magnum Balanced

 37.64

 -0.09

 11.66

 26.69

 43.53

 20.68

 289.77

 Tata Balanced

 54.20

 -0.27

 13.39

 30.89

 38.35

 18.70

 160.76

 UTI Balanced

 57.39

 -0.16

 9.98

 20.80

 27.03

 21.66

 1090.54

 Hybrid: Debt-oriented

 Canbalance

 29.05

 -0.11

 8.64

 14.87

 16.67

 18.24

 59.19

 Escorts Opportunities*

 26.73

 0.2

 9.52

 14.07

 18.34

 16.97

 84.12

 FT India 50s Plus Floating Rate

 14.13

 -0.03

 5.04

 13.06

 12.55

 205.45

 HDFC Childrens Gift-Sav

 14.94

 0

 2.53

 4.04

 8.13

 11.07

 54.03

 HDFC Multiple Yield

 12.59

 0.01

 4.63

 7.83

 8.80

 166.30

 HDFC Multiple Yield Plan 2005

 11.26

 -0.02

 2.04

 6.60

 6.71

 93.14

 Tata Young Citizens

 23.18

 -0.08

 6.29

 18.41

 24.33

 16.13

 157.02

 Templeton India Pension

 44.98

 -0.14

 5.09

 17.99

 18.11

 15.91

 142.90

 Unit Linked Insurance Plan 71

 14.79

 -0.02

 6.78

 12.01

 15.67

 9.02

 3594.13

 UTI CCP Balanced

 13.89

 0

 5.42

 12.16

 16.79

 10.95

 2544.95

 UTI CRTS 81

 112.31

 -0.04

 4.47

 7.72

 16.33

 13.95

 388.06

 UTI Mahila Unit Scheme-Gift

 28.45

 0.08

 5.92

 10.85

 23.63

 18.49

 84.81

 UTI Retirement Benefit Pension

 18.51

 0.02

 6.36

 6.08

 17.88

 11.83

 468.77

 Hybrid: Asset Allocation

 Optimix Asset Allocator MMFoF*

 12.23

 0.05

 9.74

 22.31

 150.87

 Debt: Medium-term

 Birla Dynamic Bond Retail

 11.64

 0

 2.50

 7.20

 5.79

 281.41

 Birla Income Plus

 30.77

 0.03

 1.66

 5.30

 3.05

 10.15

 208.95

 DSPML Bond Retail

 25.21

 0.01

 .89

 4.96

 3.41

 9.55

 55.39

 Grindlays SSI Inv

 17.11

 0.03

 2.18

 5.85

 2.89

 8.08

 50.66

 Grindlays SSI Medium-term

 12.04

 0.01

 1.29

 6.77

 4.57

 4.81

 67.14

 HDFC High Interest

 24.56

 0.03

 1.08

 2.48

 2.01

 9.25

 35.09

 HDFC Income

 16.71

 0.02

 1.12

 2.71

 2.01

 7.82

 205.18

 ICICI Prudential Flexible Income

 13.97

 0.01

 2.51

 8.10

 5.29

 7.37

 1491.48

 ICICI Prudential Income

 21.56

 0.01

 .65

 4.78

 3.15

 8.95

 227.62

 ICICI Prudential Long-term

 15.90

 0.01

 2.36

 7.69

 8.52

 9.34

 1565.61

 Kotak Bond Deposit

 18.75

 0.01

 1.07

 5.10

 3.78

 8.64

 40.78

 Kotak Bond Regular

 19.79

 0.01

 1.52

 6.86

 4.69

 9.42

 159.45

 Kotak Flexi Debt

 11.82

 0.01

 2.31

 7.96

 6.89

 395.79

 LICMF Bond

 20.35

 0.03

 2.42

 5.27

 4.12

 9.20

 91.72

 Magnum Income

 19.91

 0.01

 .59

 4.37

 2.61

 8.35

 70.66

 OptiMix Active Debt Multi FoF*

 10.26

 0

 2.11

 2.61

 96.00

 Principal Income

 10.64

 0.01

 1.48

 6.67

 4.48

 9.04

 313.02

 Reliance Income

 23.43

 0.03

 1.33

 5.40

 4.40

 9.44

 50.00

 Sahara Income

 13.29

 0.01

 1.94

 7.84

 4.30

 5.50

 99.49

 Sund BNP Paribas Bond Saver

 23.05

 0.01

 1.54

 4.86

 2.37

 9.14

 60.29

 Tata Dynamic Bond

 12.28

 0.01

 2.42

 6.97

 5.43

 5.61

 519.81

 Tata Income

 25.35

 0.02

 1.78

 5.42

 5.38

 9.63

 41.39

 Templeton India Income

 25.99

 0.03

 1.39

 4.77

 2.99

 9.75

 181.27

 Templeton India Income Builder

 24.99

 0.03

 .21

 3.52

 2.14

 9.64

 96.55

 UTI Bond

 21.87

 0.03

 1.47

 4.83

 5.10

 9.11

 286.14

 UTI Liquid Plus

 1928.99

 0.9

 2.56

 5.92

 3.82

 8.67

 42.35

 Hybrid: Monthly Income

 ABN AMRO MIP

 13.28

 -0.02

 1.89

 13.79

 10.85

 71.31

 Birla MIP

 19.70

 0.03

 4.50

 10.71

 8.75

 10.91

 143.44

 Birla MIP II Savings 5

 11.84

 0.01

 2.39

 7.37

 5.88

 5.60

 766.34

 Birla MIP II Wealth 25

 13.81

 0.02

 4.59

 10.56

 11.93

 10.98

 116.29

 Birla Sun Life MIP

 26.21

 0.04

 4.64

 11.82

 9.69

 12.98

 144.75

 DSPML Savings Plus Aggressive

 14.36

 0

 4.00

 14.21

 12.69

 63.72

 DSPML Savings Plus Moderate

 15.61

 0

 3.08

 10.67

 10.23

 10.95

 158.30

 FT India MIP

 21.19

 -0.01

 4.33

 11.21

 10.46

 11.89

 564.62

 HDFC MIP Long-term

 15.26

 -0.01

 3.77

 13.42

 14.07

 12.88

 1138.92

 HDFC MIP Short-term

 13.19

 -0.01

 3.79

 7.43

 8.71

 8.27

 211.68

 HSBC MIP Regular

 12.72

 0

 4.38

 10.45

 8.31

 7.55

 46.78

 HSBC MIP Savings

 13.78

 -0.01

 6.11

 13.79

 11.31

 10.19

 64.70

 ICICI Prud Income Multiplier Reg

 14.69

 -0.02

 2.71

 12.03

 14.97

 12.56

 457.45

 ICICI Prudential MIP

 19.28

 -0.01

 2.57

 8.93

 10.25

 10.43

 598.58

 Kotak Income Plus

 13.33

 -0.02

 2.96

 5.99

 9.74

 8.41

 62.75

 LICMF Floater MIP Plan A

 13.15

 -0.03

 4.83

 12.78

 10.88

 70.64

 LICMF MIP

 24.79

 -0.06

 4.33

 10.62

 10.76

 10.54

 214.64

 Magnum MIP

 16.91

 -0.01

 2.62

 6.42

 7.69

 8.83

 107.04

 Principal MIP

 15.55

 0.01

 4.11

 7.94

 7.22

 9.10

 50.96

 Reliance MIP

 13.63

 -0.03

 .61

 6.91

 10.62

 9.43

 502.85

 Sundaram BNP Paribas MIP

 12.92

 -0.02

 2.30

 6.72

 8.41

 7.70

 42.93

 Tata MIP Plus

 12.30

 -0.02

 4.40

 8.80

 7.60

 6.54

 49.11

 Templeton MIP-G

 20.37

 -0.01

 3.80

 10.11

 9.18

 10.20

 119.34

 UTI MIS-Advantage Plan

 14.43

 -0.03

 4.74

 11.84

 12.59

 11.15

 102.60

 UTI Monthly Income Scheme

 14.21

 0

 3.95

 9.05

 7.26

 7.85

 172.13

 Gilt: Medium amp; Long-term

 Birla Gilt Plus PF

 20.87

 0

 1.26

 5.05

 2.51

 10.09

 70.78

 Birla Gilt Plus Regular

 23.67

 -0.01

 1.71

 7.46

 3.62

 11.92

 56.13

 Cangilt (PGS)

 18.70

 0.01

 1.97

 4.69

 2.97

 8.78

 112.89

 ICICI Prudential Gilt Investment

 22.67

 -0.01

 1.67

 7.52

 3.76

 11.03

 99.64

 ICICI Prud Gilt Investment PF

 11.81

 -0.01

 1.19

 7.09

 4.47

 4.80

 77.88

 LICMF GSF

 19.20

 0.02

 1.84

 4.68

 3.07

 9.07

 53.81

 Magnum Gilt Long-term

 17.55

 0.01

 2.27

 6.82

 3.02

 9.11

 215.36

 Principal GSF Provident

 10.86

 0

 .88

 3.14

 2.67

 2.53

 39.19

 Reliance Gilt Long-term

 12.90

 -0.01

 1.38

 6.64

 5.49

 6.70

 47.99

 Tata GSF

 23.54

 0

 1.73

 5.50

 1.98

 11.53

 209.65

 Templeton IGSF Long-term

 16.68

 -0.02

 .62

 5.74

 3.73

 9.76

 55.88

 Templeton India GSF Composite

 24.43

 -0.02

 .98

 4.52

 2.70

 11.88

 131.73

 UTI Gilt Advantage Long-term

 15.41

 0

 1.46

 5.30

 3.67

 8.38

 55.89

 UTI G-Sec

 19.30

 0.01

 1.44

 4.72

 2.26

 8.85

 122.53

 Debt: Floating Rate Short-term

 CanFloating Rate ST

 11.66

 0

 2.43

 7.96

 6.97

 923.30

 DBS Chola ST Floating Rate

 11.34

 0

 2.34

 8.06

 7.16

 851.83

 ICICI Prudential Floating Rate A

 11.82

 0.01

 2.36

 7.50

 6.06

 910.68

 Reliance Floating Rate

 11.88

 0

 2.40

 8.06

 6.41

 1083.76

 Debt: Floating Rate Short-term Inst

 ICICI Prudential Floating Rate B

 12.70

 0.01

 2.43

 7.77

 6.22

 5.86

 2157.35

 Debt: Floating Rate Long-term

 ABN AMRO Money Plus Reg

 11.17

 0.01

 2.33

 8.06

 7.03

 868.75

 Grindlays Floating Rate LT A

 11.70

 0.01

 2.24

 7.03

 5.67

 1024.14

 Debt: Ultra Short-term

 Birla Cash Plus Retail

 20.46

 0

 2.12

 7.42

 5.95

 7.44

 5461.26

 DSPML Liquid Plus Retail

 1061.08

 0.57

 1.89

 6.11

 1844.73

 DSPML Liquidity

 18.53

 0

 1.72

 6.87

 5.92

 6.90

 1486.57

 DWS Money Plus

 11.00

 0.01

 2.47

 8.07

 7.98

 1474.06

 HDFC Cash Mgmt Saving

 15.88

 0

 2.26

 7.80

 6.19

 6.94

 3976.71

 HDFC Cash Mgmt Sav Plus Retail

 16.51

 0.01

 2.28

 7.86

 6.16

 6.87

 2089.46

 HDFC Liquid

 15.11

 0

 2.23

 7.68

 6.03

 6.42

 2256.74

 HSBC Cash

 12.80

 0

 2.14

 7.34

 5.88

 5.63

 1529.21

 HSBC Liquid Plus Regular

 10.53

 0.01

 2.29

 5.26

 2513.42

 ICICI Prudential Liquid

 18.65

 0

 2.24

 7.43

 5.91

 7.20

 12683.14

 ING Vysya Liquid

 16.10

 0

 2.04

 7.26

 5.85

 6.62

 1375.03

 JM High Liquidity

 20.89

 0

 2.11

 7.45

 5.69

 8.12

 869.52

 Kotak Liquid Regular

 15.01

 0

 1.96

 6.90

 5.56

 6.28

 4175.07

 LICMF Liquid

 13.82

 0

 2.17

 7.89

 6.39

 6.38

 4759.17

 Lotus India Liquid Plus Retail

 10.32

 0.01

 2.25

 3.16

 1171.88

 Lotus India Liquid Retail

 10.42

 0

 2.07

 4.20

 963.33

 Magnum InstaCash (Cash)

 17.07

 0

 2.17

 7.49

 5.97

 6.87

 1367.20

 Principal Cash Mgt Liquid

 14.93

 0

 2.05

 7.22

 5.81

 6.24

 3001.73

 Reliance Liquid Plus Retail

 1021.53

 0.58

 2.15

 1586.49

 Reliance Liquid Treasury

 18.33

 0

 2.07

 7.15

 5.67

 6.79

 1484.96

 Tata Liquid

 1760.90

 0.23

 2.14

 7.49

 5.90

 6.66

 2484.64

 Templeton India TMA

 1890.64

 0.26

 2.15

 7.30

 5.84

 7.25

 3340.37

 UTI Liquid Cash Regular

 1244.00

 0.17

 2.05

 7.38

 6.02

 5.69

 4251.90

 Net asset value (NAV) as on June 4, 2007. Schemes marked with * indicate NAV from previous day. Change indicates gain/loss (in Rs) in NAV over previous trading day. Lifetime represents return (in per cent) since inception. 3-month and 1-year returns are absolute, 3-year and lifetime returns are annualised. Size indicates asset under management in Rs crore. Source: Value Research (www.valueresearchonline.com) 




</TEXT>
</DOC>