<DOC>
<DOCNO>1070419_sports_story_7667315.utf8</DOCNO>
<TEXT>


The Telegraph - Calcutta : Sports

 Super 8 Standings 

 M

 W

 T

 L

 NR/R

 P

 Aus

 6

 6

 0

 0

 2.03

 12

 SL

 7

 5

 0

 2

 1.48

 10

 NZ

 6

 5

 0

 1

 1.07

 10

 SA

 7

 4

 0

 3

 0.31

 8

 Eng

 6

 2

 0

 4

 -0.44

 4

 WI

 5

 1

 0

 4

 -1.21

 2

 Ban

 6

 1

 0

 5

 -1.44

 2

 Ire

 7

 1

 0

 6

 -1.73

 2

 Note:Updated till Wednesday.

 The table reflects the match and the carried over points (if

 any) from the groups other qualifier.

 Source : World Cup official

 website. 




</TEXT>
</DOC>