<DOC>
<DOCNO>1070210_sports_story_7374394.utf8</DOCNO>
<TEXT>


The Telegraph - Calcutta : Sports

 SCORE CARD

Bangladesh

T. Iqbal

c Brent b Ireland

5

S. Nafees

c Sibanda b Dngwa

69

A. Ahmed

c Mpofu b Ireland

1

S. Hasan

c Taylor b Chibura

11

M. Rahim

c Williams b Brent

42

H. Bashar

run out

31

M. Ashraful

run out

3

M. Mortaza

b Ireland

29

M. Sharif

run out

6

T. Baisya

not out

18

A. Razzak

not out

2

Extras (b-4, w-7)

11

Total (9 wkts; 50 ovs)

228

Fall of wkts: 1/7, 2/10, 3/36, 4/136, 5/142, 6/149, 7/200, 8/203, 9/211

Bowling: Mpofu 8-1-32-0, Ireland 10-0-53-3, Chigumbura 5-0-26-1, Utseya 10-1-33-0, Brent 7-0-27-1, Dabengwa 5-0-23-1, Williams 5-0-30-0

Zimbabwe

T. Duffin

st Rahim b Razzak

37

V. Sibanda

c Bashar b Sharif

64

H. Mkadza

c Baisya b Hasan

6

S. Williams

run out

8

B. Taylor

run out

31

E. Chibura

c Ahmed b Mortaza

33

K. Dabengwa

b Baisya

0

G. Brent

run out

7

P. Utseya

c Ahmed b Baisya

0

C. Mpofu

run out

3

A. Ireland

not out

1

Extras (lb-5, w-12, nb-7)

24

Total (all out; 49.4 ovs)

214

Fall of wickets: 1/91, 2/115, 3/124, 4/140, 5/149, 6/202, 7/204, 8/206, 9/210

Bowling: Mortaza 10-1-32-1, Baisya 10-0-50-2, Sharif 9.5-0-53-1, Razzak 9.4-0-44-1, Hasan 10-0-29-1, Ahmed 0.1-0-1-0




</TEXT>
</DOC>