<DOC>
<DOCNO>1070914_sports_story_8315875.utf8</DOCNO>
<TEXT>


The Telegraph - Calcutta : Sports

 SCORE CARD

England

D. Maddy

c Myeri b Cbura

14

M. Prior

c Cbha b Mupariwa

20

L. Wright

c Taylor b Cbura

0

K. Pietersen

c Mkadza b Utseya

79

P. Cwood

run out

37

A. Flintoff

b Cbha

13

O. Shah

c Cbha b Cbura

11

A. Mhas

c Mkadza b Cbura

0

C. Schofield

not out

9

S. Broad

run out

1

J. Anderson

not out

0

Extras (lb-1, w-3)

4

Total (9 wkts in 20 ovs)

188

Fall of wickets: 1/20, 2/20, 3/51, 4/151, 5/154, 6/172, 7/178, 8/178, 9/186 

Bowling: Chigumbura 4-0-31-4, Brent 3-0-34-0, Mupariwa 2-0-22-1, Utseya 4-0-27-1, Taibu 2-0-20-0, Dabengwa 2-0-29-0, Chibhabha 3-0-24-1

Zimbabwe

V. Sibanda

c Maddy b Mhas

29

B. Taylor

b Mhas

47

T. Taibu

b Mhas

2

C. Chibhabha

c amp; b Schofield

5

S. Myeri

c Flintoff b Schofield

2

E. Cbura

c Wright b Cwood

8

H. Mdza

c Wright b Broad

27

P. Utseya

not out

13

K. Dabengwa

not out

0

Extras (lb-4, w-1)

5

Total (7 wkts in 20 ovs)

138

Fall of wickets: 1/74, 2/81, 3/84, 4/87, 5/89, 6/104, 7/137 

 Bowling: Broad 4-0-29-1, Anderson 3-0-31-0, Flintoff 3-0-18-0, Mascarenhas 4-0-18-3, Schofield 4-0-15-2, Collingwood 2-0-23-1




</TEXT>
</DOC>