<DOC>
<DOCNO>1070527_calcutta_story_7824557.utf8</DOCNO>
<TEXT>


The Telegraph - Calcutta : Metro

 Cinema

 ENGLISH

 MISSION CLEOPATRA: Nandan (1.45, 4.15)

 SPIDER-MAN 3 (U/A): New Empire, Priya (12 noon), Inox (Forum; 10.20 am, 3.20 pm, 5.50 pm), Inox (City Centre; 10.05 am, 3.10 pm, 5.45 pm), 89 Cinemas (Swabhumi; 10.10 am, 3.10 pm, 7.50 pm), Fame (Hiland Park; 10.10 am, 5.25 pm), Ashoka (11.30 am), 89 Cinemas (Durgapur; 10.10 am, 12.45 pm, 3.20 pm)

 HINDI

 AUR PAPPU PASS HO GAYA: Chaplin (12.30, 3, 6)

 BHEJA FRY: Inox (Forum; 12.45 pm), Inox (City Centre; 12.40 pm), 89 Cinemas (Swabhumi; 12.45 pm), Fame (Hiland Park; 12.35 pm)

 CHEENI KUM (U/A): Jyoti, Priya (4.45, 9.15), Star Theatre (12.15, 5.45), Inox (Forum; 10 am, 12.20 pm, 3.05 pm, 5.55 pm, 7.30 pm, 8.55 pm, 10.45 pm), Inox (City Centre; 10 am, 12.30 pm, 3.15 pm, 6 pm, 7.30 pm, 8.55 pm, 10.20 pm), 89 Cinemas (Swabhumi; 10.10 am, 12.55 pm, 3.40 pm, 5.05 pm, 6.30 pm, 9.15 pm, 10.45 pm), Fame (Hiland Park; 10 am, 12.25 pm, 2.20 pm, 5 pm, 7.45 pm, 10.30 pm), Jaya (11.30 am, 7.20 pm), Navbharat, Gupta, 89 Cinemas (Durgapur; 12.20 pm, 3 pm, 5.40 pm, 8.20 pm)

 EK CHALIS KI LAST LOCAL (A): Inox (Forum; 12.40 pm), Inox (City Centre; 12.30 pm), 89 Cinemas (Swabhumi; 12.25 pm)

 GOOD BOY BAD BOY: Roxy, Park Show House, National, Ananya, 89 Cinemas (Durgapur; 10.10 am)

 LIFE IN A...METRO (A): Paradise, Priya (2.15, 7.15), Navina (3,30, 6.30), Inox (Forum; 10.10 am, 2.30 pm, 5 pm, 8 pm, 10.20 pm), Inox (City Centre; 10 am, 2.30 pm, 5 pm, 8.20 pm, 10.45 pm), 89 Cinemas (Swabhumi; 10 am, 2.35 pm, 5.50 pm, 8.20 pm, 10.25 pm), Fame (Hiland Park; 10 am, 3 pm, 7.55 pm, 10.25 pm), Star Theatre (2.45, 8.15), Jaya (2 pm), 89 Cinemas (Durgapur; 10.25 am, 6 pm, 8.25 pm), Inox (Darjeeling)

 SHOOTOUT AT LOKHANDWALA (A): Elite, Crown, Basusree, Navina (12.30, 9), Mitra, Inox (Forum; 10 am, 1 pm, 3.20 pm, 5.40 pm, 8.30 pm, 10.30 pm), Inox (City Centre; 10.10 am, 12.45 pm, 3.05 pm, 5.30 pm, 7.50 pm, 10.15 pm), 89 Cinemas (Swabhumi; 10.40 am, 1 pm, 3.20 pm, 5.40 pm, 8 pm, 10.20 pm), Fame (Hiland Park; 10.15 am, 12.35 pm, 2.50 pm, 5.15 pm, 7.40 pm, 10.10 pm), Moonlight, Jagat, Taswir Mahal, Vaishali, Jaya (11.30, 4.30), Mrinalini, Pushpasree, Sonali, Debasree, Rathindra (1.30, 4.30, 7.30), Kamal, Bangabasi, Rakhi, Chandan, Lipi, Auro, Swapna, Chhayabani, Bombay Tks, Durgapur Cinema, Manoj, 89 Cinemas (Durgapur; 12.50 pm, 3.10 pm, 5.30 pm, 7.50 pm)

 SPIDER-MAN 3: Metro, Radha, Ragini, Padmasree, Sonali (noon), Atindra, Queen, Sankriti Lok Mancha

 TA RA RUM PUM: Hind, Menoka, Fame (Hiland Park; 12.40 pm, 3.40 pm, 6.45 pm, 9.45 pm), Malancha, Ashoka (Behala), Jaya (Lake Town)

 BENGALI

 DUSH DIN PORE...: Talkie Show House (3, 6, 9), Aruna (1, 4, 7)

 PREM: Prachi (2, 5, 7.45), Darpana (2.45, 5.45, 8.30), Bharati (3, 6, 8.45), Binodini, Parbati, Narendra (Dum Dum)

 TULKALAM: Minar, Bijoli, Chhabighar (3, 5.45, 8.30), Aleya, Mahua (Garia), Ellora, Chetna, Arati, Bejoya




</TEXT>
</DOC>