<DOC>
<DOCNO>1070301_business_story_7455836.utf8</DOCNO>
<TEXT>


The Telegraph - Calcutta : Business

 MUTUAL FUND

 FUND EQUITY:

DIVERSIFIED

 NAV

 Change

 RETURNS

 Size

 3-Month

 1-Year

 3-Year

 Lifetime

 ABN AMRO Future Leaders

 9.61

 -0.41

 -6.78

 -3.88

 344.10

 Birla Advantage

 118.39

 -4.03

 -4.79

 16.69

 32.99

 24.76

 518.23

 Birla Dividend Yield Plus

 40.01

 -1.34

 -3.71

 .60

 24.19

 40.70

 474.69

 Birla Infrastructure

 11.37

 -0.35

 -5.88

 13.54

 510.35

 Birla Sun Life Equity

 170.55

 -6.31

 -4.55

 22.27

 44.39

 39.54

 490.88

 Birla Top 100

 14.88

 -0.5

 -6.61

 16.39

 32.30

 482.67

 DSPML Equity

 37.30

 -1.53

 -1.98

 26.25

 42.22

 27.42

 770.07

 DSPML Opportunities

 52.16

 -1.98

 -5.30

 19.93

 37.97

 27.09

 1488.22

 DSPML Small And Mid Cap Reg

 9.93

 -0.37

 -5.12

 -.74

 1546.64

 DSPML T.I.G.E.R.

 31.44

 -1.27

 -3.39

 28.55

 51.35

 1447.95

 DSPML Top 100 Equity

 54.56

 -1.87

 -2.71

 26.33

 35.36

 52.48

 314.39

 Fidelity Equity

 20.21

 -0.71

 -2.18

 26.45

 45.90

 2658.09

 Fidelity India Special Situations

 11.91

 -0.45

 -6.25

 19.13

 2170.66

 Franklin India Bluechip

 122.35

 -4.4

 -5.15

 20.09

 32.52

 28.99

 2575.89

 Franklin India Flexi Cap

 19.62

 -0.71

 -5.35

 18.41

 38.88

 3642.39

 Franklin India Opportunities

 23.91

 -1.11

 -9.67

 27.52

 41.17

 791.31

 Franklin India Prima

 194.89

 -6.51

 -5.72

 6.88

 39.27

 25.11

 1791.27

 Franklin India Prima Plus

 132.62

 -4.44

 -.64

 28.69

 39.01

 23.12

 896.91

 HDFC Capital Builder

 61.26

 -1.26

 -2.89

 10.79

 39.39

 14.85

 749.71

 HDFC Core amp; Satellite

 23.88

 -0.8

 -7.51

 12.84

 42.27

 721.61

 HDFC Equity

 141.23

 -4.2

 -2.94

 20.87

 40.43

 24.26

 4167.65

 HDFC Growth Fund

 45.05

 -1.27

 -5.85

 23.46

 35.29

 25.81

 397.66

 HDFC Premier Multi-Cap

 17.39

 -0.63

 -4.85

 13.78

 32.96

 780.06

 HDFC Top 200

 103.27

 -3.31

 -5.67

 18.36

 37.73

 27.41

 1787.97

 HSBC Advantage India

 11.68

 -0.46

 -8.50

 12.34

 15.37

 1389.62

 HSBC Equity

 66.58

 -2.66

 -6.58

 20.60

 34.69

 56.36

 1039.79

 HSBC India Opportunities

 26.58

 -1.02

 -5.35

 30.12

 37.87

 624.93

 HSBC Midcap Equity

 18.75

 -0.62

 -3.01

 14.57

 41.15

 347.09

 Kotak 30*

 66.96

 -0.78

 -.73

 24.87

 39.07

 30.88

 490.05

 Kotak Lifestyle*

 11.79

 -0.1

 3.89

 17.56

 396.98

 Magnum COMMA

 14.65

 -0.63

 -8.95

 17.29

 27.01

 532.83

 Magnum Contra

 35.69

 -1.5

 -4.78

 25.54

 59.71

 33.27

 1479.94

 Magnum Emerging Businesses

 28.35

 -1.01

 -3.74

 11.83

 53.03

 304.22

 Magnum Equity

 26.49

 -0.93

 -3.71

 29.13

 36.11

 17.25

 299.10

 Magnum Global

 42.10

 -1.19

 -3.62

 33.06

 65.57

 16.35

 1138.22

 Magnum Midcap

 21.40

 -0.72

 -2.99

 25.37

 47.62

 422.65

 Magnum MultiCap

 14.42

 -0.66

 -9.02

 16.20

 28.67

 1214.68

 Magnum Multiplier Plus

 50.61

 -2.15

 -2.67

 22.72

 49.79

 15.55

 840.83

 Principal Growth

 46.58

 -1.7

 -5.94

 10.85

 35.82

 27.37

 333.00

 Prin Infras amp; Services Industries

 10.98

 -0.46

 -5.67

 9.24

 303.41

 Principal Resurgent India Equity

 70.55

 -1.1

 -2.18

 22.59

 28.51

 33.47

 406.21

 Prudential ICICI Discovery

 25.04

 -0.54

 -6.53

 11.89

 42.66

 1093.84

 Prudential ICICI Dynamic

 62.90

 -1.85

 .97

 36.06

 46.78

 52.36

 1723.28

 Prudential ICICI Emerging STAR

 27.45

 -0.83

 .99

 24.55

 52.31

 1245.94

 Prudential ICICI Growth

 87.63

 -3.28

 -5.46

 22.06

 32.17

 28.33

 437.46

 Prudential ICICI Infrastructure

 17.45

 -0.63

 -4.12

 32.40

 43.65

 1636.33

 Prudential ICICI Power

 77.66

 -2.35

 -2.38

 24.73

 38.44

 17.83

 1477.33

 Prud ICICI Services Industries

 14.98

 -0.55

 4.68

 37.94

 37.14

 430.98

 Reliance Equity

 10.94

 -0.32

 -4.37

 9.40

 4885.18

 Reliance Equity Opportunities

 20.48

 -0.67

 -.92

 28.83

 43.60

 2355.51

 Reliance Growth

 260.73

 -9.55

 1.14

 26.73

 51.52

 33.11

 3214.06

 Reliance Vision

 171.42

 -6.21

 -2.01

 23.09

 37.88

 28.30

 2610.45

 SBI Bluechip

 10.72

 -0.38

 -8.38

 5.93

 6.48

 2260.29

 Stan Chartered Classic Equity

 14.80

 -0.55

 -3.85

 14.46

 27.24

 419.80

 Sund BNP Pari CAPEX Opp.-D*

 15.55

 0.05

 -2.15

 26.61

 41.22

 386.09

 Sun BNP Pari India Leadership*

 28.71

 -0.14

 -2.07

 16.43

 47.82

 307.69

 Sund BNP Paribas Rural India*

 11.11

 -0.04

 -5.03

 11.09

 961.98

 Sund BNP Pari Select Focus*

 58.90

 -0.37

 -.25

 29.50

 36.63

 46.83

 288.28

 Sund BNP Pari Select Midcap*

 90.50

 0.28

 .67

 37.06

 57.72

 61.15

 2022.58

 Tata Equity Opportunities

 54.90

 -2.38

 -4.10

 15.23

 36.59

 65.99

 482.20

 Tata Infrastructure

 22.06

 -0.87

 -7.88

 26.79

 43.61

 1206.44

 Tata Pure Equity

 58.34

 -2.44

 -4.34

 17.70

 35.72

 33.50

 305.48

 Templeton India Equity Income

 11.64

 -0.46

 .78

 16.40

 1928.98

 Templeton India Growth

 62.30

 -2.06

 -2.87

 17.84

 27.88

 20.28

 322.45

 UTI Contra

 8.95

 -0.23

 -9.60

 -10.50

 759.70

 UTI Dividend Yield

 15.35

 -0.5

 -1.54

 11.88

 26.47

 545.40

 UTI Equity

 30.79

 -0.74

 -5.98

 5.99

 27.60

 11.40

 1585.19

 UTI Infrastructure

 25.98

 -1.25

 -7.81

 29.71

 43.48

 767.83

 UTI Leadership Equity

 11.65

 -0.44

 -4.66

 15.23

 15.20

 1120.89

 UTI Master Growth

 41.17

 -1.74

 -8.31

 15.10

 27.26

 15.55

 382.10

 UTI Master Plus 91

 61.67

 -2.77

 -6.89

 24.84

 31.35

 15.49

 954.89

 UTI Master Value

 27.98

 -0.93

 -7.26

 -2.00

 23.28

 25.83

 718.48

 UTI Mastershare

 32.53

 -1.42

 -5.74

 12.87

 24.79

 21.53

 1998.98

 UTI Opportunities

 13.19

 -0.44

 -6.32

 -6.32

 18.75

 558.19

 UTI Services Sector

 46.33

 -2.09

 -6.61

 20.31

 31.86

 33.69

 457.07

 Hybrid: Equity-oriented

 Birla Balance

 27.15

 -0.41

 -3.35

 16.22

 21.95

 14.43

 122.53

 Birla Sun Life95

 173.29

 -2.67

 -1.76

 20.50

 27.64

 27.13

 133.18

 Canbalance II

 35.99

 -0.61

 -3.64

 11.84

 31.49

 11.75

 86.85

 DSPML Balanced

 37.01

 -0.96

 -2.45

 16.99

 27.15

 18.26

 420.27

 FT India Balanced

 31.87

 -0.79

 -1.29

 21.00

 24.74

 17.40

 265.81

 HDFC Balanced

 29.28

 -0.89

 -9.29

 8.24

 20.65

 17.80

 115.31

 HDFC Childrens Gift-Inv

 23.84

 -0.56

 -4.18

 4.69

 19.55

 20.54

 123.24

 HDFC Prudence

 111.49

 -1.64

 -.42

 24.63

 35.23

 22.94

 2324.09

 Kotak Balance*

 23.32

 -0.09

 .32

 13.09

 33.90

 21.46

 104.30

 Magnum Balanced

 33.88

 -0.91

 -4.75

 18.67

 36.81

 20.09

 273.97

 Pru ICICI Equity amp; Derivative Reg

 9.95

 -0.16

 -.50

 1180.81

 Prudential ICICI Balanced

 33.33

 -1.03

 -1.45

 17.48

 28.06

 17.67

 498.29

 Prudential ICICI ChildCare-Gift

 40.28

 -0.52

 1.59

 19.28

 27.42

 28.44

 109.94

 Tata Balanced

 48.14

 -1.14

 -1.48

 18.92

 28.52

 17.93

 160.52

 UTI Balanced

 52.65

 -1.38

 -4.91

 12.60

 21.04

 21.31

 1190.67

 Hybrid: Debt-oriented

 Escorts Opportunities

 24.30

 -0.53

 -3.50

 3.73

 12.04

 15.92

 74.92

 FT India s 50s Plus Floating Rate

 13.48

 -0.09

 .47

 9.40

 11.88

 222.49

 HDFC Multiple Yield

 12.02

 -0.06

 -.02

 4.01

 7.73

 308.20

 HDFC Multiple Yield Plan 2005

 11.05

 0

 1.14

 5.12

 6.56

 184.94

 Opti Inc Gro MMFoF 30% Equi*

 10.43

 -0.01

 -.09

 4.29

 61.82

 Prud ICICI Income Multiplier Reg

 14.32

 -0.09

 .62

 12.49

 12.79

 511.30

 Tata Young Citizens

 21.89

 -0.33

 -.42

 13.72

 19.15

 15.94

 157.52

 Templeton India Pension

 42.95

 -0.63

 -.91

 12.87

 15.37

 15.82

 138.96

 Unit Linked Insurance Plan 71

 15.30

 -0.17

 -2.24

 4.45

 11.66

 8.90

 3848.48

 UTI CCP Balanced

 14.55

 -0.21

 -2.27

 11.73

 13.17

 10.77

 2588.07

 UTI CRTS 81

 107.76

 -0.72

 -.52

 3.40

 15.48

 13.91

 389.48

 UTI Mahila Unit Scheme-Gift

 26.97

 -0.21

 -.33

 23.51

 20.02

 18.31

 85.81

 UTI Retirement Benefit Pension

 19.21

 -0.21

 -2.06

 3.19

 13.66

 11.56

 466.58

 Hybrid: Asset Allocation

 Optimix Asset Allocator MMFoF*

 11.45

 -0.02

 -6.92

 14.48

 215.73

 UTI Dynamic Equity

 32.88

 -1.95

 -7.51

 .52

 31.56

 40.90

 150.75

 Debt: Medium-term

 ABN AMRO Flexi Debt Regular

 11.51

 0

 1.96

 8.88

 5.81

 223.56

 Birla Income Plus

 30.27

 0

 -.33

 5.04

 2.90

 10.24

 231.22

 Birla Sun Life Income

 25.73

 -0.01

 .46

 7.57

 4.20

 9.91

 33.66

 DSPML Bond Retail

 24.98

 0

 1.22

 4.98

 3.45

 9.71

 57.13

 Grindlays SSI Inv

 16.74

 -0.01

 -.31

 4.49

 2.52

 8.06

 60.05

 Grindlays SSI Medium-term

 11.88

 0

 1.79

 7.35

 4.59

 4.79

 198.52

 HDFC High Interest

 24.30

 -0.03

 -1.03

 2.32

 1.99

 9.39

 42.75

 HDFC Income

 16.54

 -0.02

 -1.03

 2.15

 2.07

 7.98

 234.14

 Kotak Bond Deposit

 18.55

 -0.02

 .11

 5.21

 3.81

 8.81

 52.38

 Kotak Bond Regular

 19.49

 -0.02

 .55

 6.61

 4.61

 9.55

 159.45

 Kotak Flexi Debt

 11.55

 0

 1.87

 7.51

 6.63

 526.86

 LICMF Bond

 19.88

 0

 -.56

 4.31

 3.70

 9.19

 107.59

 Magnum Income

 19.79

 -0.02

 .27

 4.50

 2.76

 8.55

 79.67

 OptiMix Active Debt Multi FoF*

 10.05

 0

 .50

 109.62

 Principal Income

 17.48

 -0.01

 .58

 6.90

 4.49

 9.18

 657.53

 Prudential ICICI Income

 21.43

 0

 -1.00

 5.15

 3.30

 9.16

 284.84

 Prudential ICICI Long-term

 15.52

 0

 1.48

 6.91

 8.16

 9.34

 32.64

 Reliance Income

 23.12

 -0.03

 -.07

 5.21

 4.52

 9.56

 95.40

 Sahara Income

 13.03

 0

 1.82

 6.89

 4.00

 5.39

 107.25

 Sund BNP Paribas Bond Saver*

 22.70

 0

 .30

 3.90

 2.22

 9.23

 64.93

 Tata Income

 24.90

 -0.01

 .40

 4.29

 5.03

 9.70

 43.90

 Templeton India Income

 25.63

 -0.03

 .12

 4.58

 2.89

 9.87

 186.85

 Templeton India Income Builder

 24.93

 -0.04

 -.42

 4.20

 2.46

 9.89

 102.86

 UTI Bond

 21.56

 0

 .14

 4.65

 5.08

 9.22

 313.33

 Hybrid: Monthly Income

 ABN AMRO MIP

 13.04

 -0.11

 2.65

 12.65

 11.25

 56.39

 Birla MIP

 18.90

 -0.07

 -1.29

 7.37

 7.21

 10.66

 178.43

 Birla MIP II Wealth 25

 13.25

 -0.07

 -1.92

 7.17

 10.44

 118.85

 Birla Sun Life MIP

 25.07

 -0.1

 -.54

 9.34

 7.91

 12.80

 130.29

 DSPML Savings Plus Aggressive

 13.81

 -0.06

 1.94

 11.77

 12.38

 63.59

 DSPML Savings Plus Moderate

 15.15

 -0.05

 1.14

 9.13

 9.06

 10.87

 193.05

 FT India MIP

 20.37

 -0.16

 -1.12

 7.44

 8.93

 11.72

 631.68

 HDFC MIP Long-term

 14.73

 -0.08

 1.20

 10.63

 12.72

 12.76

 1194.72

 HDFC MIP Short-term

 12.72

 -0.08

 -1.16

 3.61

 7.54

 7.74

 352.97

 HSBC MIP Regular

 12.19

 -0.06

 -.56

 7.84

 6.73

 52.10

 HSBC MIP Savings

 13.00

 -0.1

 -1.17

 8.83

 9.00

 76.99

 Kotak Income Plus*

 13.06

 -0.02

 .42

 6.13

 8.61

 8.45

 103.93

 LICMF Floater MIP Plan A

 12.56

 -0.09

 .60

 7.21

 10.01

 74.24

 LICMF MIP

 23.84

 -0.18

 -.79

 6.73

 9.38

 10.38

 209.46

 Magnum MIP

 16.50

 -0.07

 -.28

 6.16

 6.75

 8.80

 125.25

 Principal MIP

 14.96

 -0.08

 -.57

 4.47

 5.85

 8.74

 60.03

 Prudential ICICI MIP

 18.82

 -0.09

 -.19

 8.94

 9.26

 10.47

 664.31

 Reliance MIP

 13.62

 -0.11

 -.86

 10.08

 10.89

 10.24

 516.51

 Sundaram BNP Paribas MIP*

 12.71

 0

 .48

 5.50

 8.37

 7.82

 51.73

 Tata MIP

 14.30

 -0.05

 -.03

 3.66

 5.49

 11.21

 37.75

 Tata MIP Plus

 11.79

 -0.11

 -.70

 3.37

 5.62

 57.06

 Templeton MIP-G

 19.68

 -0.12

 -.47

 7.37

 7.80

 10.06

 138.11

 UTI MIS-Advantage Plan

 13.84

 -0.15

 -1.03

 8.13

 11.16

 10.67

 118.51

 UTI Monthly Income Scheme

 13.71

 -0.07

 -.37

 6.51

 6.32

 7.45

 196.44

 Gilt: Medium amp; Long-term

 Birla Gilt Plus PF

 20.60

 -0.01

 -1.21

 4.89

 2.68

 10.28

 93.51

 Birla Gilt Plus Regular

 23.27

 -0.03

 -.93

 7.04

 3.66

 12.11

 59.49

 Cangilt (PGS)

 18.34

 0

 .23

 3.63

 2.54

 8.82

 67.45

 DSPML GSF Longer Duration

 22.95

 -0.1

 -1.30

 2.96

 3.27

 11.81

 32.77

 HDFC Gilt Long-term

 15.59

 -0.06

 -.38

 2.20

 1.16

 8.22

 36.77

 Kotak Gilt Investment Regular

 23.45

 -0.05

 -2.11

 4.05

 2.93

 10.96

 33.68

 LICMF GSF

 18.85

 0.01

 .15

 4.53

 2.84

 9.13

 58.03

 Magnum Gilt Long-term

 17.15

 -0.02

 .07

 5.17

 2.69

 9.10

 245.57

 Principal GSF Provident

 10.76

 -0.04

 -2.12

 3.13

 2.42

 2.42

 46.36

 Prudential ICICI Gilt Investment

 22.30

 -0.01

 -.99

 7.11

 3.87

 11.19

 95.05

 Prudential ICICI Gilt Investment PF

 11.67

 -0.01

 -2.53

 7.31

 4.91

 4.80

 81.70

 Reliance Gilt Long-term

 12.70

 -0.04

 -.37

 5.90

 6.21

 6.76

 51.42

 Tata GSF

 23.13

 -0.03

 -.27

 4.43

 1.87

 11.70

 219.27

 Templeton IGSF Long-term

 16.55

 -0.07

 -.20

 6.00

 4.32

 10.11

 56.69

 Templeton India GSF Composite

 24.17

 -0.07

 -.15

 4.55

 3.06

 12.16

 135.14

 UTI Gilt Advantage Long-term

 15.16

 -0.04

 -.58

 4.63

 3.57

 8.49

 62.42

 UTI G-Sec

 19.02

 -0.02

 -.01

 4.52

 2.26

 8.96

 132.16

 Debt: Floating Rate Short-term

 Birla Floating Rate ST

 12.25

 0

 1.88

 6.85

 5.74

 5.57

 830.45

 DBS Chola ST Floating Rate

 11.07

 0

 1.99

 7.30

 6.77

 927.44

 HDFC Floating Rate Income ST

 12.51

 0

 1.85

 6.96

 5.78

 5.56

 897.41

 LICMF Floating Rate ST

 11.89

 0

 2.07

 7.48

 6.10

 1450.75

 Prudential ICICI Floating Rate A

 11.54

 0

 1.77

 6.65

 5.71

 1292.89

 Reliance Floating Rate

 11.59

 0

 1.95

 7.12

 6.06

 1476.64

 Templeton Floating Rate ST

 13.38

 0

 1.83

 6.58

 5.60

 5.91

 983.20

 Debt: Floating Rate Short-term Inst

 Prudential ICICI Floating Rate B

 12.39

 0

 1.83

 6.91

 5.79

 5.60

 2157.35

 Debt: Ultra Short-term

 Birla Cash Plus Retail

 20.02

 0

 1.82

 6.82

 5.57

 7.41

 9304.29

 Canliquid Retail

 13.56

 0

 1.81

 6.97

 5.80

 6.11

 946.51

 DSPML Liquid Plus Retail

 1040.93

 0.21

 1.77

 4.09

 2614.50

 DSPML Liquidity

 18.20

 0

 1.74

 6.77

 5.71

 6.90

 2630.59

 DWS Insta Cash Plus

 12.49

 0

 1.85

 6.93

 5.69

 5.57

 1209.07

 DWS Money Plus

 10.73

 0

 1.88

 7.28

 1879.33

 HDFC Cash Mgmt Saving

 15.51

 0

 1.89

 7.07

 5.79

 6.86

 5380.70

 HDFC Cash Mgmt Saving Plus

 16.13

 0

 1.88

 6.88

 5.69

 6.79

 980.39

 HDFC Liquid

 14.77

 0

 1.89

 6.91

 5.61

 6.31

 2374.76

 HSBC Cash

 12.52

 0

 1.79

 6.65

 5.51

 5.44

 2880.16

 HSBC Liquid Plus Regular

 10.29

 0

 1.89

 2.86

 2346.64

 ING Vysya Liquid

 15.76

 0

 1.79

 6.67

 5.52

 6.55

 2939.69

 JM High Liquidity

 20.44

 0

 1.87

 6.66

 5.31

 8.11

 874.20

 Kotak Liquid Regular

 14.71

 0

 1.70

 6.36

 5.22

 6.21

 5074.01

 LICMF Liquid

 13.51

 0

 1.97

 7.35

 6.05

 6.25

 7329.40

 Principal Cash Mgt Liquid

 14.62

 0

 1.76

 6.64

 5.46

 6.16

 4278.28

 Prudential ICICI Liquid

 18.22

 0

 1.78

 6.67

 5.49

 7.14

 12396.20

 Reliance Liquid Treasury

 17.94

 0

 1.76

 6.38

 5.32

 6.74

 1785.98

 Sundaram BNP Paribas Money*

 15.60

 0

 1.73

 6.58

 5.58

 6.57

 1044.74

 Tata Liquid

 1722.64

 0.35

 1.83

 6.83

 5.52

 6.60

 4685.20

 Templeton India TMA

 1849.47

 0.38

 1.75

 6.62

 5.49

 7.20

 3434.43

 UTI Liquid Cash Regular

 1217.99

 0.24

 1.81

 6.77

 5.67

 5.50

 8289.45

 Net asset value (NAV) as on February 28, 2007. Schemes marked with * indicate NAV from previous day. Change indicates gain/loss (in Rs) in NAV over previous trading day. Lifetime represents return (in per cent) since inception. 3-month and 1-year returns are absolute, 3-year and lifetime returns are annualised. Size indicates asset under management in Rs crore. Source: Value Research (www.valueresearchonline.com) 




</TEXT>
</DOC>