<DOC>
<DOCNO>1070115_sports_story_7263617.utf8</DOCNO>
<TEXT>


The Telegraph - Calcutta : Sports

 SCORE CARD

PAKISTAN

First Innings 313

SOUTH AFRICA

First Innings 417

PAKISTAN

Second Innings (Overnight 103/2)

I. Farhat 

c De Villiers b Harris 

68

Y. Khan 

lbw Pollock 

38

I. Haq 

c De Villiers b Pollock 

35

F. Iqbal 

c Gibbs b Harris 

9

K. Akmal 

c Gibbs b Harris 

15

R. Naved

c Prince b Pollock 

33

S. Nazir 

b Ntini 

40

D. Kaneria 

c Gibbs b Harris 

23

Md Asif 

not out 

8

Extras (5-lb, 4-nb)

9

Total (all out in 96.2 ovs)

302

Fall of wickets: 3/115, 4/154, 5/175, 6/187, 7/199, 8/255, 9/283

Bowling: Nel 22-6-69-0, Ntini 16-2-78-1, Pollock 22-7-60-3, Kallis 16-0-44-2, Harris 20.2-6-46-4

SOUTH AFRICA

Second Innings

G. Smith 

lbw Hafeez 

32

AB de Villiers

c Younis b Asif 

12

H. Amla

batting

17

P. Harris 

batting 

1

Extras (1-lb, 6-nb)

7

Total (for 2 wkts in 18 ovs)

69

Fall of wickets: 1/20, 2/67

Bowling: Asif 7-0-32-1, Naved 2-0-9-0, Nazir 2-1-5-0, Kaneria 5-1-14-0, Hafeez 2-0-8-1




</TEXT>
</DOC>