<DOC>
<DOCNO>1070909_sports_story_8294463.utf8</DOCNO>
<TEXT>


The Telegraph - Calcutta : Sports

 SCORE CARD

India 

S. Ganguly

c Flintoff b Anderson

15

S. Tendulkar

c Prior b Flintoff

30

G. Gambhir

c Wright b Anderson

12

R. Dravid

c Prior b Flintoff

0

Y. Singh

c Cwood b Mhas

28

R. Uthappa

c Anderson b Mhas

22

M. Dhoni

c Anderson b Flintoff

50

R. Powar

run out

10

P. Chawla

st Prior b Mhas

0

Z. Khan

b Panesar

7

R. P.

not out

1

Extras (lb-8, nb-4)

12

Total (all out in 47.3 ovs)

187

Fall of wickets: 1/26, 2/52, 3/53, 4/59, 5/106, 6/119, 7/147, 8/148, 9/160

Bowling: Anderson 9-1-28-2, Broad 10-0-44-0, Flintoff 8.3-0-45-3, Mascarenhas 10-2-23-3, Wright 2-0-11-0, Panesar 8-2-28-1

England 

M. Prior

c Dhoni b Yuvraj

0

L. Wright

c amp;b Yuvraj 

0

I. Bell

run out

36

K. Pietersen

not out

71

P. Cwood

not out

64

Extras (lb-8, w-9)

17

Total (3 wkts in 36.2 ovs)

188

Fall of wickets: 1/10, 2/11, 3/74

Bowling: Zaheer 9-1-40-0, R.P. 7-0-40-2, Piyush 9-1-44-0, Sourav 4-0-13-0, Powar 5.2-0-32-0, Yuvraj Singh 2-0-11-0




</TEXT>
</DOC>