<DOC>
<DOCNO>1070212_sports_story_7381098.utf8</DOCNO>
<TEXT>


The Telegraph - Calcutta : Sports

 SCORE CARD

Sri Lanka

U. Tharanga

c Tendulkar b Sreesanth

12

S. Jayasuriya

c Dhoni b Patel

9

M. Atapattu

lbw b Patel

15

K. Skara

c Sehwag b Patel

110

M. Jdene

c Dhoni b Sreesanth

4

T. Dilshan

b Singh

56

R. Arnold

lbw b Tendulkar

7

F. Mahroof

c Karthik b Patel

17

N. Ksekera

not out

3

M. Bandara

not out

4

Extras (lb-13, w-4, nb-3)

20

Total (for 8 wkts in 50 overs)

257

Fall of wickets: 1/16, 2/31, 3/53, 4/58, 5/166, 6/188, 7/249, 8/249

Bowling: Patel 9-0-50-4, Sreesanth 10-1-39-2, Sourav 2-0-14-0, Harbhajan 10-0-41-1, Kumble 10-1-59-0, Tendulkar 9-0-41-1

India

R. Uthappa

c Jdene b Mahroof

7

S. Ganguly

c Skara b Malinga

62

R. Dravid

b Mahroof

5

S. Tendulkar

st Skara b Bandara

54

V. Sehwag

c Skara b Bandara

19

MS Dhoni

c Mahroof b Jsuriya

48

D. Karthik

lbw b Malinga

31

H. Singh

c Jdene b Maharoof

2

A. Kumble

run out

2

Sreesanth

not out

0

M. Patel

not out

0

Extras (b-1, lb-5, nb-7, w-9)

 22

Total (for 9 wkts in 50 overs)

252

Fall of wickets: 1/14, 2/29, 3/129, 4/154, 5/169, 6/235, 7/241, 8/248, 9/252

Bowling: Malinga 10-0-75-2, Mahroof 10-0-42-3, Kulasekera 10-0-48-0, Bandara 10-0-36-2, Jayasuriya 9-0-38-1, Dilshan 1-0-7-0




</TEXT>
</DOC>