<DOC>
<DOCNO>1070330_calcutta_story_7581076.utf8</DOCNO>
<TEXT>


The Telegraph - Calcutta : Metro

 Cinema

 ENGLISH

 THE MARINE (A): New Empire, Inox (City Centre; 10.10 am, 2.15 pm, 9.40 pm)

 THE NAMESAKE (U/A): Priya (12.15, 2.30, 7.15), Roxy, Inox (Forum; 12.35, 4.45, 9.50), Inox (City Centre; 10, 3.30, 7.50), Star Theatre (12.15, 2.45, 7, 9), 89 Cinemas (Swabhumi; 3.20, 7.45), Fame (Hiland Park; 10, 3.15, 7.55, 10.15)

 300 (A): Inox (Forum; 2.50 pm), Inox (City Centre; 5.35 pm, 10 pm)

 HINDI

 DELHII HEIGHTS: Paradise, Inox (Forum; 12.15 pm, 5.05 pm, 9.40 pm), Inox (City Centre; 10.20 am, 3.15 pm, 7.45 pm, 10.45 pm), Basusree, 89 Cinemas (Swabhumi; 10.20 am, 2.45 pm, 5.40 pm, 10.25 pm), Fame (Hiland Park; 10.25 am, 3 pm, 7.20 pm, 9.45 pm), 89 Cinemas (Durgapur; 10 am, 2.20 pm, 5.25 pm, 7.40 pm), Inox (Darjeeling; 12.30 pm, 4.40 pm)

 EKLAVYA: Fame (Hiland Park; 5.20)

 GURU: 89 Cinemas (Swabhumi; 10.25)

 HATTRICK: Inox (Forum; 10.10 am), Inox (City Centre; 5.45 pm), 89 Cinemas (Swabhumi; 12.35 pm), Fame (Hiland Park; 10 am), 89 Cinemas (Durgapur); 12.10 pm, 8.35 pm)

 HONEYMOON TRAVELS PVT. LTD. (U/A): Inox (Forum; 10.15 am), Inox (City Centre; 12 noon), 89 Cinemas (Swabhumi; 12.30 pm), Fame (Hiland Park; 1 pm)

 JAWAB HUM DENGE: Metro, Radha, Indira, Mayur, Liberty

 JUST MARRIED (U/A): Inox (Forum; 7.20 pm), Inox (City Centre; 12.15 pm), 89 Cinemas (Swabhumi; 10 am, 5.15 pm), Fame (Hiland Park; 12.35 pm), 89 Cinemas (Durgapur; 10 am, 12.25 pm, 2.55 pm)

 KHANNA amp; IYER: 89 Cinemas (Swabhumi; 1.15 pm, 10.05 pm), Fame (Hiland Park; 4.30 pm)

 NAMASTEY LONDON: Jyoti, Priya (4.45, 9.15), Navina (12.30, 3.30, 6.30), Inox (Forum; 10, 12.30, 3.05, 5.40, 7, 8.20, 10.50), Inox (City Centre; 10.30, 12.40, 2.45, 4.10, 5.30, 6.50, 8.10, 10.10), 89 Cinemas (Swabhumi; 10.20, 1, 3.40, 5, 6.20, 7.40, 9.10, 10.40), Fame (Hiland Park; 10.20, 12, 2.30, 5, 6.25, 7.40, 8.55, 10.10), Mitra, Jagat, Moonlight, Sonali, Pari, Vaishali, Mrinalini, Navbharat, Chandan, Lipi, Parijat, Gupta, 89 Cinemas (Durgapur; 10, 12.35, 3.10, 4.35, 5.55, 7.15), Inox (Darjeeling; 11, 1.30, 4, 6.30)

 NEHLE PE DEHLA: Chaplin (12.30 pm, 3 pm, 6 pm)

 SAY SALAAM INDIA: Elite, 89 Cinemas (Swabhumi; 2.45 pm, 7.55 pm), Fame (Hiland Park; 2.10 pm, 5.30 pm)

 WATER (U/A): Inox (Forum; 2.30 pm), Inox (City Centre; 1.15 pm), Fame (Hiland Park; 12.05 pm)

 BENGALI

 KAAL (A): Prachi, Mitra, Bharati, Ellora (Behala), Padmasree (Jadavpore), Jaya (Lake Town), Parbati (Howrah), Milan (Baruipur), Naihati Cinema (Naihati), Chhayabani (Barasat)

 RAAT PORIR ROOPKATHA (A): Darpana (2.45, 5.45, 8.30), Aruna (1, 4, 7), Purna (3, 6, 8.45), Malancha (Tollygunge), Ashoka (Behala)

 SANGHARSHA: Minar, Bijoli, Chhabighar (3, 5.45, 8.30), Ananya, Chetna (Dum Dum), Padma (Sodpur), Bejoya (Barasat), Shanti (Kadamtolla)




</TEXT>
</DOC>