<DOC>
<DOCNO>1070728_sports_story_8117342.utf8</DOCNO>
<TEXT>


The Telegraph - Calcutta : Sports

 Dream Destiny 

 lifts main event 

 HONKY DORY

 Trainer 

 Pesi Shroffs ward, Dream Destiny (Neeraj Rawal-up,) 

 lifted the Commoner Trophy at the Pune races held on Friday.

 RESULTS

 (With inter-state dividends)

 1. Grand Gesture Plate: Xian (S.Nayak) 1; Touch The Sky 2; Red Mesa 3. Won by: 4, 2-1/2; (1-26.97). Win Rs 58; (P) 17, 13, 33; (Q) 67; Shp: 35; (T) 628. Fav: Touch The Sky.

 2. Erin Way Plate: Bonny Light (Appu) 1; Ivanka 2; Dominatrix 3. Won by: 2-3/4, 1/2; (1-40.78). Win Rs 181; (P) 23, 16, 11; (Q) 232; Shp: 31; (T) 1,622. Fav: Dominatrix.

 3. Commoner Trophy: Dream Destiny (Neeraj) 1; Flareon 2; Hugo Boss 3. Won by: 1-1/4, 1; (1-39.45). Win Rs 23; (P) 14, 23; (Q) 49; Shp: 30; (T) 187. Fav: Dream Destiny.

 4. Torrential Plate, Div-I: Expensive Affair (Appu) 1; Pacemaker 2; Teaser 3. Won by: 5-1/2, 2-1/4; (1-2.07). Win Rs 19; (P) 13, 19; 28; (Q) 40; Shp; 55; (T) 347. Fav: Expensive Affair.

 5. Torrential Plate, Div-II: Private Eye (C.Jodha) 1; Crystal Gazing 2; Mind The Gap 3. Won by: 4-1/4, 1-1/2; (1-2.24). Win Rs 21; (P) 12, 48, 16; (Q) 168; Shp: 134; (T) 1,663. Fav: Private Eye.

 6. Minsky Plate, Div-I: Silver Girl (C.Jodha) 1; Supreme Sword 2; Cornelia Supra 3. Not run: Holiday Date. amp; The Dreamer. Won by: 3-1/2, 1/2; (1-1.30). Win Rs 78; (P) 20; 12, 18; (Q) 71; Shp: 56; (T) 612. Fav: Supreme Sword.

 7. Majestic Eagle Trophy, Div-I: Fair Tactics (Zahra) 1; Sterne Royale 2; Modesty 3. Won by: 2-1/2, 4; (1-0.86). Win Rs 19; (P) 12, 16, 54; (Q) 55; Shp; 54; (T) 939. Fav: Fair Tactics.

 8. Shell Out Plate, Div-I: Oyster Pearl (Ashish) 1; Strathendrick 2; Steel Butterfly 3. Won by: 1/2, Hd; (1-12.26). Win Rs 33; (P) 17, 33; 18; (Q) 223; Shp; 147; (T) 999. Fav: Oyster Pearl.

 9. Shell Out Plate, Div-II: Don Gama (Baandal) 1; Englehart 2; Peoria 3. Not run: Schubert. Won by: Sh, 1-1/4; (1-11.60). Win Rs 274; (P) 41, 13, 17; (Q) 381; Shp; 61; (T) 6,868. Fav: Englehart.

 10. Majestic Eagle Trophy, Div-II: Terre Blanche (Kharadi) 1; Legendary 2; Eagle Mountain 3. Not run: Melba.Won by: 3, 5-1/4; (1-1.38). Win Rs 14; (P) 11, 315; 18; (Q) 972; Shp; 416; (T) 6,389. Fav: Terre Blanche.

 11. Minsky Plate, Div-II Bionic Angel (Appu) 1; Mantovani 2; Victor 3. Won by: 1, 1; (1-1.51). Win Rs 45; (P) 19, 23, 13; (Q) 173; ShP; 57; (T) 976. Fav: Victor.

 Jackpot: Rs 28,956; (C) Rs 1,190.

 Treble: (i) Rs 75; (ii) Rs 889. (iii) Rs 3,070.




</TEXT>
</DOC>