<DOC>
<DOCNO>1070227_sports_story_7445769.utf8</DOCNO>
<TEXT>


The Telegraph - Calcutta : Sports

 SCORE CARD

South Zone

B. Rowland

lbw Paul

13

S. Asnodkar

c Diwakar b Jhwala

107

V. Laxman

c Tewari b Singh

35

V. Rao

c amp;b Singh

30

S. Badrinath

c Jhwala b Diwakar

11

A. Yadav

run out

25

T. Naidu

not out

13

K. Suddin

c Dasgupta b Bose

10

D. Kkrishna

c amp;b Bose

0

V. Kumar

not out

3

Extras (lb-3, w-19, nb-1)

23

Total (8 wkts, 50 ovs)

270

Fall of wickets: 1/32, 2/121, 3/194, 4/207, 5/241, 6/243, 7/258, 8/258

Bowling: Bose 10-0-50-2, Paul 7-0-46-1, Diwakar 10-0-52-1, Singh 10-0-47-2, Jhunjhunwala 8-0-39-1, Shukla 2-0-16-0, Gavaskar 3-0-17-0

East Zone

W. Saha

c Naidu b Suddin

15

P. Aziz

c Kkrishna b V Kumar

56

A. Jhwala

c Naidu b Suddin

28

M. Tewari

c Naidu b Kkrishna

20

R. Gavaskar

not out

79

D. Dasgupta

c Rowland b Ojha

39

L. Shukla

lbw Ojha

9

S. Singh

c Rao b Kkrishna

1

M. Diwakar

run out

11

R. Bose

run out

2

S. Paul

not out

0

Extras (b-1, lb-5, w-5)

11

Total (9 wkts, 50 ovs)

271

Fall of wickets: 1/43, 2/75, 3/116, 4/139, 5/216, 6/233, 7/236, 8/258, 9/269

Bowling: Vinay Kumar 9-0-58-1, Kalyankrishna 10-0-61-2, Sahabuddin 10-1-59-2, Ojha 10-0-40-2, Venugopal Rao 7-0-30-0, Laxman 4-0-17-0




</TEXT>
</DOC>