<DOC>
<DOCNO>1070414_calcutta_flights.utf8</DOCNO>
<TEXT>


The Telegraph - Calcutta : Metro

 Flights

 IT Kingfisher Airlines AI 

 Air-India BA British Airways 

 BG Biman Bangladesh CD 

 Alliance Air DN Air Deccan 

 F5 Cosmic Air GF 

 Gulf Air IC Indian Airlines 

 KB Druk-Air EK Emirates 

 SG Spice Jet SQ 

 Singapore Airlines S2 Sahara Airlines 

 TG Thai Airways 9W 

 Jet Airways Z5 GMG Airlines

 FLIGHT 

 SMS SERVICES

Jet Airways

 For Flight Status

 For Alerts for any flight 

 6388

 For Schedules 

 For e.g. sms JETSCH mum del (1st 3 letters of 

 the origin and destination city) to 6388

 (For any particular date , add mm/dd/yy after the syntax) 

 For e.g. sms JETSCH mum del 05/12/06 to 6388 

 Indian Airlines 

 For Arrival

 sms AICXXXXYYYZZ to 67671407

 A - Arrival

 ICXXXX -Flight No

 YYY - City of Arrival 

 ZZ - Day of Arrival 

 - space

 E.g.- A IC0201 CCU MO

 For Departure 

 sms DICXXXXYYYZZ to 67671407

 D-Departure

 ICXXXX-Flight No

 YYY-City of Departure

 ZZ-Day Of Departure 

 -space

 E.g. - D IC0201 CCU MO 

 ( In case of three digit no prefix with a 0) 

Origin City: Calcutta

[Last Updated: 13/10/2007 09:33:33]

Domestic

Agartala 

DEPARTURE

 DN-67508-45Daily IC-24309-40Daily DN-57112-40Daily CD-772717-25Fri, Sat CD-772715-00Mon, Tue, Wed, Thu, Sun 9W-61913-45Mon,Tue,Sat,Sun IT-43110-45Mon,Wed,Fri 6E-35113-40Mon,Wed,Thu,Sat 9W-61917-05Wed,Thu,Fri

ARRIVAL

 DN-67610-55Daily IC-24412-05Daily DN-57217-20Daily 9W-62019-30Daily CD-772820-00Daily CD-772817-20Mon,Tue,Wed,Thu,Sun IT-43217-10Mon,Wed,Fri 6E-35216-10Mon,Wed,Thu,Sat

Ahmedabad 

DEPARTURE

 S2-32306-15Daily IT-41413-30Daily IC-26715-45Mon,Thu,Sat IC-26915-45Tue,Fri,Sun

ARRIVAL

 IT-41113-00Daily S2-32415-35Daily IC-26722-30Mon,Thu,Sat IC-26922-30Tue,Fri,Sun

Aizawl 

DEPARTURE

 DN-56512-50Daily IC-21111-00Mon,Wed,Fri,Sun IC-21111-00Tue,Thu,Sat

ARRIVAL

 DN-56616-05Daily IC-21114-40Mon,Wed,Fri,Sun IC-21114-40Tue,Thu,Sat

Bagdogra 

DEPARTURE

 9W-61712-10Daily DN-77514-10Daily IC-72113-00Tue,Thu,Sat

ARRIVAL

 9W-61814-45Daily DN-77616-35Daily IC-72215-35Tue,Thu,Sat

Bangalore 

DEPARTURE

 SG-52105-40Daily 9W-51506-50Daily IT-43407-20Daily 6E-27508-10Daily S2-30710-30Daily DN-63511-55Daily 9W-51114-00Daily CD-754214-30Daily SG-52714-40Daily DN-76516-20Daily 6E-35216-50Daily IT-43217-55Daily IC-77119-55Daily

ARRIVAL

 DN-63607-55Daily IC-77208-25Daily 6E-35111-30Daily 9W-51612-25Daily CD-754113-20Daily SG-52813-20Daily 6E-27718-55Daily S2-30819-20Daily SG-52620-45Daily IT-43321-40Daily 9W-51221-55Daily DN-76623-05Daily IT-43110-05Except Sun IT-43113-05Sun

Bhubaneshwar 

DEPARTURE

 IT-250107-15Daily DN-64210-20Daily CD-754214-30Daily DN-76516-20Daily DN-55517-45Daily IT-250320-35Daily

ARRIVAL

 DN-64109-15Daily IT-250210-15Daily CD-754113-20Daily DN-55620-30Daily DN-76623-05Daily IT-250423-30Daily

Chennai (Madras) 

DEPARTURE

 SG-52105-40Daily 6E-27508-10Daily 9W-84408-30Daily DN-67611-30Daily CD-754214-30Daily DN-61817-05Daily IC-76518-10Daily 9W-84219-55Daily

ARRIVAL

 9W-84307-50Daily DN-67508-10Daily CD-754113-20Daily 6E-27718-55Daily 9W-84119-00Daily IC-76619-05Daily SG-52620-45Daily DN-61722-20Daily

Delhi 

DEPARTURE

 DN-62305-30Daily 9W--92106-30Daily IC-26307-00Daily 9W-90208-55Daily S2--30109-00Daily IT-60209-35Daily SG-86211-20Daily 6E-20412-55Daily S2-32014-40Daily IC-20117-00Daily 9W-91317-15Daily DN-70119-00Daily 6E-27419-45Daily IC--40220-00Daily S2-30320-20Daily 9W--91220-45Daily IT--60421-00Daily S2-3236-15Daily

ARRIVAL

 6E-27307-30Daily 9W--90108-15Daily S2--31908-25Daily IC--40108-55Daily IT--60109-05Daily 9W-92211-25Daily DN-70212-00Daily S2-32415-35Daily 6E-20317-10Daily DN-62418-20Daily IC-26418-55Daily S2-31419-40Daily 9W-91120-00Daily IT-60320-15Daily IC-20222-05Daily S2-30422-05Daily 9W-91422-50Daily SG-60723-15Daily

Dibrugarh 

DEPARTURE

 DN-55305-20Mon,Wed,Fri,Sun IC-720109-45Tues,Thu,Fri,Sat,Sun

ARRIVAL

 DN-55411-50Mon,Wed,Fri,Sun IC-720213-15Tue,Thu,Fri,Sat,Sun

Dimapur 

DEPARTURE

 DN-55906-45Daily CD-770112-20Fri,Sat CD-770110-00Mon,Tue,Wed,Thu,Sun

ARRIVAL

 DN-56010-40Daily CD-770216-50Fri,Sat CD-770214-25Mon,Tue,Wed,Thu,Sun

Guwahati 

DEPARTURE

 CD-773905-45Daily SG--88106-25Daily DN-63608-50Daily IC-22909-50Daily 9W-20110-10Daily 6E-20710-55Daily DN-65312-05Daily S2-22312-50Daily CD-772917-25Daily IT-43110-45Except Sun 9W-61913-45Mon,Tue,Sat,Sun 9W-61511-05Mon,Tue,Wed,Fri,Sat, DN-5535-20Mon,Wed,Fri,Sun IT-43113-55Sun 9W-62111-05Thu,Sun DN-56105-20Tue,Thu

ARRIVAL

 DN-63511-25Daily CD-23012-50Daily 9W-20713-10Daily 6E-20813-50Daily S2-31615-40Daily CD-774016-35Daily IT-43217-10Daily DN-65417-45Daily SG-88219-25Daily CD-773020-50Daily 9W-62019-30Mon,Tue,Sat,Sun 9W-61617-15Mon,Tue,Wed,Fri,Sat DN-55411-50Mon,Wed,Fri,Sun 9W-62217-15Thu,Sun DN-56211-50Tue,Thu

Hyderabad 

DEPARTURE

 IT-43407-20Daily DN-63207-50Daily S2-30710-30Daily 9W-51114-00Daily SG-52714-40Daily 6E-35216-50Daily IT-43217-55Daily DN-72219-30Daily

ARRIVAL

 6E-35111-30Daily SG-52813-20Daily DN-63114-20Daily DN-72318-35Daily S2-30819-30Daily IT-43321-40Daily 9W-51221-55Daily IT-43110-05Except Sun IT-43113-05Sun

Imphal 

DEPARTURE

 DN-55906-45Daily DN-65312-05Daily 9W-61511-05Mon,Tue,Wed,Fri,Sat IC-21111-00Mon,Wed,Fri,Sun 9W-62513-05Thu IT-43110-45Tue,Thu,Sat IC-21111-00Tue,Thu,Sat

ARRIVAL

 DN-56012-35Daily DN-65417-45Daily 9W-61617-15Mon,Tue,Wed,Fri,Sat, IC-21114-40Mon,Wed,Fri,Sun 9W-62615-55Thu IC-21114-40Tue,Thu,Sat IT-43217-10Tue,Thu,Sat

Indore 

DEPARTURE

 IT-255111-10Daily

ARRIVAL

 IT-255220-05Daily

Jaipur 

DEPARTURE

 6E-20814-20Daily 6E-32219-00Daily IC-26715-45Mon,Thu,Sat IC-26915-45Tue,Fri,Sun

ARRIVAL

 6E-20710-10Daily IC-26722-30Mon,Thu,Sat IC-26922-30Tue,Fri,Sun

Jorhat 

DEPARTURE

 CD-771912-20Mon 9W-62111-05Thu,Sun CD-772312-25Tue, Sun 9W-62313-05Wed,Fri

ARRIVAL

 CD-771918-00Mon 9W-62217-15Thu,Sun CD-772318-00Tue,Sun 9W-62416-25Wed,Fri

Lilabari 

DEPARTURE

 DN-56105-20Tue,Thu

ARRIVAL

 DN-56211-50Tue,Thu

Lucknow 

DEPARTURE

 S2-22817-20Daily

ARRIVAL

 S2-22712-20Daily

Mumbai (Bombay) 

DEPARTURE

 IC-67606-00Daily 9W-20206-05Daily 6E-27508-10Daily IT-51209-30Daily DN-64210-20Daily 9W-21813-50Daily 6E-20814-20Daily 9W-20415-30Daily S2-31616-20Daily S2-22817-20Daily 6E-40417-40Daily IC-27318-30Daily 6E-32219-00Daily DN-72219-30Daily S2-22420-00Daily 9W-21220-20Daily IT-51420-25Daily 9W-61618-00Mon,Tue,Wed,Fri,Sat AI-68103-25Sun 9W-62218-00Thu,Sun

ARRIVAL

 IC-67508-35Daily IT-51108-45Daily DN-64109-15Daily 9W-20109-20Daily S2-22310-00Daily S2-22712-00Daily 6E-32112-25Daily 9W-21712-40Daily 6E-40318-00Daily DN-72318-35Daily 6E-27718-55Daily 9W-21119-10Daily IT-51319-45Daily IC-27420-55Daily 9W-10221-35Daily S2-30622-10Daily 9W-61510-20Mon,Tue,Wed,Fri,Sat AI-68002-30Sun 9W-62110-20Thu,Sun

Nagpur 

DEPARTURE

 6E-40417-40Daily

ARRIVAL

 6E-40318-00Daily

Patna 

DEPARTURE

 S2-22817-20Daily DN-57917-30Daily

ARRIVAL

 S2-22712-20Daily DN-58020-40Daily

Port Blair 

DEPARTURE

 9W-62905-00Daily IC-28705-35Daily DN-69707-10Daily S2-31909-20Daily

ARRIVAL

 9W-63009-35Daily IC-28810-20Daily DN-69811-40Daily S2-32014-00Daily

Pune 

DEPARTURE

 9W-20206-05Daily IT-41413-30Daily

ARRIVAL

 IT-41113-00Daily 9W-10221-35Daily

Raipur 

DEPARTURE

 DN-62305-30Daily IT-255111-10Daily

ARRIVAL

 DN-62418-20Daily IT-255220-05Daily

Ranchi 

DEPARTURE

 DN-57305-50Daily DN-57716-30Daily

ARRIVAL

 DN-57408-00Daily DN-57818-50Daily

Shillong 

DEPARTURE

 CD-771912-25Mon CD-772112-25Wed

ARRIVAL

 CD-771918-00Mon CD-772117-30Wed

Silchar 

DEPARTURE

 CD-770506-40Daily DN-57508-20Daily IC-25313-05Mon,Wed,Fri,Sun

ARRIVAL

 CD-770611-50Daily DN-57613-30Daily IC-25415-45Mon,Wed,Fri,Sun

Tezpur 

DEPARTURE

 CD-772312-25Tue,Sun CD-772112-25Wed

ARRIVAL

 CD-772318-00Tue,Sun CD-772117-30Wed

Varanasi 

DEPARTURE

 IT-60209-35Daily

ARRIVAL

 IT-60320-15Daily

Vizag 

DEPARTURE

 DN-63207-50Daily

ARRIVAL

 DN-63114-20Daily

International

Bahrain via Muscat 

DEPARTURE

 GF-27906-00Thu,Sat

ARRIVAL

 GF-27804-55Thu,Sat

Bangkok 

DEPARTURE

 TG-31402-00Daily 9W-6612-00Daily KB-12411-10Fri,Sat IC-73109-20Mon,Wed,Fri KB-12010-00Tue,Wed,Sun

ARRIVAL

 TG-31300-45Daily 9W-6510-40Daily IC-73215-15Mon(1610),Wed,Fri(1515) KB-12107-00Mon,Wed,Fri KB-12507-00Sat,Sun

Chittagong 

DEPARTURE

 Z5-06213-15Tue,Thu,Sun

ARRIVAL

 Z5--06112-45Tue,Thu,Sun

Dhaka 

DEPARTURE

 Z5-00208-30Daily Z5-00820-00Fri,Sat,Sun BG-09619-20Mon,Tue, Wed, Thu, Fri BG-09210-15Mon,Tue,Wed,Thu,Fri BG-09412-15Sat BG-09415-45Sun,Tue AI-53014-10Wed,Fri,Sun

ARRIVAL

 Z5-00107-30Daily Z5-00719-00Fri,Sat,Sun BG-09109-35Mon,Tue,Wed,Thu,Fri BG-09518-40Mon,Tue,Wed,Thu,Fri BG-09311-15Sat BG-09314-45Sun,Tue AI-53112-00Tue, Thu, Sat

Dubai 

DEPARTURE

 EK-54709-40Mon,Tue,Wed, Thu, Fri EK-54920-30Sun

ARRIVAL

 EK-54608-15Mon,Tue, Wed, Thu, Fri EK-54819-15Sun

Frankfurt 

DEPARTURE

 LH-75100-55Thu,Sat,Mon

ARRIVAL

 LH-75023-05Wed,Fri,Sun

Kathmandu 

DEPARTURE

 IC-74713-50Except Fri F5-61215-15Mon,Wed,Fri

ARRIVAL

 IC-74816-50Except Fri F5-61114-30Mon,Wed,Fri

London 

DEPARTURE

 AI-15113-30Tue,Thu,Sat BA-14607-55Wed,Fri,Sun

ARRIVAL

 BA-14705-05Wed,Fri,Sun AI-15012-50Wed,Fri,Sun

Paro 

DEPARTURE

 KB-12107-40Mon,Wed, Fri KB-12507-40Sat,Sun

ARRIVAL

 KB-12410-30Fri,Sat KB-12009-10Tue,Wed,Sun

Singapore 

DEPARTURE

 SQ-51723-50Mon, Wed, Fri,Sat

ARRIVAL

 SQ-51622-35Mon, Wed, Fri,Sat

Yangon 

DEPARTURE

 IC-72710-00Mon

ARRIVAL

 IC-73414-15Mon




</TEXT>
</DOC>