<DOC>
<DOCNO>1070801_sports_story_8133502.utf8</DOCNO>
<TEXT>


The Telegraph - Calcutta : Sports

 Star Perfection may come good 

 STAR RACER

 Calcutta:There is little to choose among Get Fresh, Tactical Advantage and Star Perfection in the 1,400m Sreepriya Cup, the star attraction in Wednesdays race card. However, going by her last winters Classic record, the bottomweighted Star Perfection, from trainer Daniel Davids yard, appears to have the edge over the rest and she may score in the hands of jockey Imran Chisty.

 Read as: Sl. nos, last 4 runs, horse name, trainer, jockey, weight amp; draw:

 1. Annihilator Handicap 1,000m (Rt 00-50; 5-y- amp; over) 1.35 pm

 1 2311 Helegonia [Javed] Islam 60.0 4

 2 0010 Gastronomique [Shafiq] Imran 57.5 1

 3 0341 Schumacher [Vikash] Vinay 54.0 3

 4 4023 Arrayal [R.Alford] D. Singh 53.5 2

 5 0310 Mischevious Notes [Vikash] Salim 50.0 5

 1. ARRAYAL (4) 2. HELEGONIA (1) 3. GASTRONOMIQUE (2)

 2. Sreepriya Cup 1,400m (Rt 60 amp; over) 2.05 pm

 1 1301 Get Fresh [R.Alford] D. Singh 60.5 3

 2 4021 Right Again [Daniel] Ross 58.0 4

 3 1104 Tactical Advantage [Bath] Afzal 52.5 2

 4 1330 Star Perfection [Daniel] Chisty 52.0 1

 1. STAR PERFECTION (4) 2. GET FRESH (1) 

 3. Avaglow Handicap 1,000m (Rt 20-70) 2.45 pm 

 1 3103 Condrieu [Daniel] Chisty 61.0 3

 2 2130 Grand Ceremony [Karki] Mark 59.0 8

 3 1044 Shining Example [Vikash] Rajinder 57.0 7

 4 4031 Zephyr [Shafiq] Imran 57.0 1

 5 3320 Cl Cid [Vikash] Vinay 55.0 2

 6 2000 Innovator [Vijay] Shanker 54.0 4

 7 4412 Charulata [Javed] Islam 52.0 6

 8 - 030 Flicker [Shafiq] Aharwal 50.5 5

 1. INNOVATOR (6) 2. CONDRIEU (1) 3. GRAND CEREMONY (2)

 4. Goldliner Handicap 1,400m (Rt 00-30) 3.15 pm 

 1 - - 00 Blue Chalice [Errol] Gurang 62.0 4

 2 - - - 0 Romantic Sky [Daniel] Chisty 57.5 2

 3 1431 Qba [Vikash] Rajinder 57.0 7

 4 0001 Finders Keepers [Jaiswal] Vinay 54.0 1

 5 0040 Midnight Warrior [Daniel] Manasseh 53.5 5

 6 2034 Heer [Bath] Afzal 51.0 6

 7 0400 Ganga Bose [Farley] Malcolm 47.0 3

 1. ROMANTIC SKY (2) 2. QBA (3) 3. GANGA BOSE (7)

 5. Best Of All Handicap 1,200m (Rt 00-30) 3.45 pm 

 1 - 000 Cheeky Girl [Daniel] Manasseh 60.0 6

 2 0000 Flying Jaguar [Vikash] Rajinder 60.0 8

 3 0301 Kinship [Vijay] Shanker 60.0 2

 4 3203 Genesis [Shafiq] Imran 59.5 1

 5 0042 Elusive Adventure [Shafiq] Brij 56.0 5

 6 2333 Secret Desire [Stephens] Aharwal 56.0 3

 7 4000 The Nonesuch [Vikash] Vinay 56.0 10

 8 0000 The Polynesian [Karki] Islam 55.5 7

 9 - 002 Crystal Bounty [Daniel] Chisty 54.5 9

 10 2302 Valintine Dancer [Jaiswal] Gajender 53.0 4

 1. THE POLYNESIAN (8) 2. CRYSTAL BOUNTY (9) 3. FLYING JAGUAR (2)

 6. True Colours Handicap 1,200m (Rt 20-70) 4.15 pm 

 1 2340 Ciraja [R.Alford] Brij 60.0 3

 2 4221 Universal Prince [Farley] Chisty 57.5 6

 3 0340 Aptitude [Vikash] Salim 55.5 4

 4 - - -- Nightlife [Vijay] Shanker 54.0 1

 5 0122 Falaknuma [Shafiq] Vinay 53.0 2

 6 - - 13 Racing Rumours [Karki] Mark 52.5 9

 7 - 031 Mozart [Daniel] Ross 52.0 7

 8 - 144 Monticello [Robin] Islam 48.5 5

 9 2103 Cupids Glory [Errol] Amil 47.0 8

 1. MONTICELLO (8) 2. RACING RUMOURS (6) 3. UNIVERSAL PRINCE (2)

 7. Super Sunrise Cup 1,200m (Rt 00-50) 4.45 pm 

 1 3001 Mezzano [Vijay] Shanker 60.0 10

 2 1340 Red Sails [Daniel] Chisty 58.0 3

 3 0004 Wonnabee [Quinn] Reuben 57.5 5

 4 - 021 Royal County Down [Robin] Rajinder 57.0 4

 5 2043 Fast Love [Karki] Mark 55.5 9

 6 - 030 Anniversary Boy [Daniel] Ross 54.5 7

 7 0100 Swing Lucky [Shafiq] Asghar 54.5 1

 8 0000 Betelgeuse [Vikash] Vinay 53.5 8

 9 - - - 0 Star Horizon [Errol] Manasseh 53.5 6

 10 4243 Big Thrillz [Javed] Malcolm 53.0 2

 1. FAST LOVE (5) 2. MEZZANO (1) 3. ROYAL COUNTY DOWN (4)

 Days Best: Romantic Sky Double: Arrayal amp; Monticello

 For live action from the turf, log on to www.telegraphindia.com/race




</TEXT>
</DOC>