<DOC>
<DOCNO>1070107_calcutta_story_7223850.utf8</DOCNO>
<TEXT>


The Telegraph - Calcutta : Metro

 Cinema

 ENGLISH

 CASINO ROYALE (U/A): 89 Cinemas (Swabhumi; 10.20 am), Fame (Hiland Park; 10 am)

 HAPPY FEET: Inox (Forum; 10 am, 4.15 pm), Inox (City Centre; 10.20 am, 2 pm)

 UNITED 93 (U/A): New Empire (12.30 pm, 3 pm, 6 pm, 8.30 pm), Inox (Forum; 12.30 pm, 8.45 pm), Inox (City Centre; 12.30 pm, 8.40 pm), 89 Cinemas (Swabhumi; 12.55 pm, 9.40 pm), Fame (Hiland Parl; 10 am, 12.30 pm, 8.30 pm)

 HINDI

 BAABUL: Paradise, Inox (Forum; 2.35 pm), Inox (City Centre; 2.35 pm), 89 Cinemas (Swabhumi; 1 pm), Fame (Hiland Park; 4.50 pm), 89 Cinemas (Durgapur; 10.25 am)

 BHAGAM BHAG: Jyoti, Priya (12.15 pm, 9 pm), Basusree, Navina, Star Theatre (12, 3, 6, 9), Inox (Forum; 10.10 am, 1.10 pm, 4.10 pm, 5.45 pm, 7.20 pm, 10.20 pm), Inox (City Cente; 10.10 am, 1.10 pm, 4.10 pm, 5.40 pm, 7.20 pm, 10.20 pm), 89 Cinemas (Swabhumi; 10 am, 3 pm, 4.30 pm, 6 pm, 8.55 pm, 10.35 pm), Fame (Hiland Park; 10.20 am, 1.15 pm, 4.15 pm, 5.40 pm, 7.15 pm, 10 pm), Jaya, Sonali, Jayanti, Chhayabani, Anandam, 89 Cinemas (Durgapur; 12 noon, 2.55 pm, 5.50 pm, 8 pm), Monoj (Asansol), Inox (Darjeeling; 10 am, 1 pm, 4 pm, 6.55 pm)

 DHOOM: 2 (U/A): Hind, Menoka, Inox (Forum; 2.05 pm, 7 pm, 9.55 pm), Inox (City Centre; 2.05 pm, 7 pm, 9.50 pm), 89 Cinemas (Swabhumi; 3.15 pm, 6.10 pm, 9.05 pm), Fame (Hiland Park; 2 pm, 6.50 pm, 9.40 pm), Ashoka (mat. amp; eve.), Malancha, Ananya, Kalyani (Naihati), Netro (Dum Dum), Swapna (Andul), Rupkatha (Bishnupur), Coronation (Ranigunj), Chitra (Bolpur), 89 Cinemas (Durgapur; 2.30 pm, 5.15 pm, 7.20 pm), Inox (Darjeeling; 1.10 pm, 6.10 pm), Kanchan (Kalimpong)

 I SEE YOU: Inox (Forum; 2 pm, 10.25 pm), Inox (City Centre; 4.05 pm, 10.25 pm), 89 Cinemas (Swabhumi; 1 pm, 7.25 pm), Fame (Hiland Park; 2.35 pm, 9.50 pm)

 JANE HOGA KYA: Chaplin (12.30 pm, 3 pm, 6 pm)

 KABUL EXPRESS (U/A): Nandan-1 (2, 4, 6), Elite (4 shows), Mitra (4 shows), Inox (Forum; 12.05 pm, 5 pm, 8.20 pm), Inox (City Centre; 12 noon, 5 pm, 8.25 pm), 89 Cinemas (Swabhumi; 2.30 pm, 6 pm, 8.15 pm), Fame (Hiland Park; 12 noon, 3.40 pm, 7.50 pm), Ashoka (noon amp; night), 89 Cinemas (Durgapur; 10.35 am, 1.25 pm, 5.20 pm), Inox (Darjeeling; 4.10 pm), Urvasi (Siliguri)

 MUSEUM KE ANDAR PHANS GAYA SIKANDER: Globe (12.30, 3, 6, 8.30), Inox (Forum; 10.20 am, 6.20 pm, 10.45 pm), Inox (City Centre; 10 am, 6.25 pm, 10.40 pm), 89 Cinemas (Swabhumi; 10.40 am, 4 pm), Fame (Hiland Park; 10.05 am, 1.40 pm, 4.50 pm, 10.30 pm), Sonali (noon), Atindra (Barrackpore), 89 Cinemas (Durgapur; 10.05 am, 12.35 pm, 3.25 pm), Inox (Darjeeling; 11 am, 2.10 pm, 4 pm)

 VIVAH: Roxy (12, 3, 6, 9), Inox (Forum; 11 am), Inox (City Centre; 10.50 am), 89 Cinemas (Swabhumi; 10 am), Rakhee (Salkia), Kamal (Metiabruz), Lipi (Shibpur), Mrinalini (Dum Dum), Binodini (Baguihati), Durgapur Cinema (Durgapur), Chitra (Asansol), Surya (Behrampur), Anjana (Ranigunj), Sandhya (Balurghat), Mahamaya (Dinhata)

 BENGALI

 AAMRA (A): Priya (6.15 pm), 89 Cinemas (Swabhumi; 12.40 pm), Fame (Hiland Park; 12 noon)

 GHATAK: Prachi, Darpana, Bharati, Pushpasree (Behala), Padmasree (Jadavpur), Narendra (Dum Dum), Arati (Baguihati), Pushpasree (Kadamtolla), Sarama (Barasat), Debasree (Barrackpore), Krishna (Baruipur), Kalika (Habra), Mini Rathindra (Sodepur), Maya (Salkia), Auro (Chinsurah), New Bijoli (Diamond Harbour), Debjani (Basirhat), Surendra (Ranaghat), Burdwan Cinema (Burdwan), Wellington (Andul)

 GNAYER MEYE SHAHURE BOU: Talkie Show House, Bidhan (Barasat)

 HANGAMA: Minar, Bijoli, Chhabighar (3, 5.45, 8.30), Aleya, Mahua (Garia), Ellora (Behala), Chetna (Dum Dum), Milan (Baruipur), Rupkatha (Habra), Padma (Sodpur), Manjusree (Haldia), Diamond Talkies, Ranaghat Talkies, Purna (Kalna), Falguni (Basirhat), Sujata (Bagnan), Rupali (Chinsurah), Sangam (Kalyani), Shanti (Kadamtolla), Amala (Barrackpore), Sushma (Sheoraphuli), Sangita (Krishnagar), Gobindo (Canning), Rabindra (Tarakeswar), Srilaxmi (Lakshmikantapur), Bichitra (Burdwan), Krishi (Memari), Jhumur (Durgapur), Bejoya (Barasat), Geetanjali (Bolpur)




</TEXT>
</DOC>