<DOC>
<DOCNO>1070709_calcutta_story_8025748.utf8</DOCNO>
<TEXT>


The Telegraph - Calcutta : Metro

 Cinema

 ENGLISH

 CURSE OF THE GOLDEN FLOWER (U/A): Inox (Forum; 12.40 pm)

 DIE HARD 4.0 (U/A): New Empire (12.30, 3, 6, 8.30), Inox (Forum; 10.10 am, 2.50 pm, 7.40 pm, 10.10 pm), Inox (City Centre; 10.10 am, 2.55 pm, 7.50 pm, 10 pm), 89 Cinemas (Swabhumi; 10.35 am, 3.20 pm, 8.05 pm, 10.30 pm), Fame (Hiland Park; 10 am, 12.15 pm, 2.40 pm, 7.40 pm, 9.45 pm), Inox (Darjeeling)

 THE BONG CONNECTION (A): Nandan, Priya, Star Theatre, Inox (Forum; 12.20, 5.40, 10.40), Inox (City Centre; 1.10, 5.40, 10.40), 89 inemas (Swabhumi; 12.25, 7.45), Fame (Hiland Park; 11.20, 5.15, 10.10), 89 Cinemas (Durgapur)

 HINDI

 AAP KAA SURROOR (U/A): Elite, Inox (Forum; 5.10 pm, 9.55 pm), Inox (City Centre; 12.25 pm, 5.25 pm), 89 Cinemas (Swabhumi; 10 am, 2.45 pm, 7.50 pm), Fame (Hiland Park; 1.45 pm, 10.20 pm), Navina (12.30 pm, 9 pm), Purabi, Basusree, Radha, P. Son, Vaishali, Jaya, Lipi, Bangabasi, Rakhi, Liluah Cinema, Lali, Gupta, Prafulla, Srilaxmi (Kanchrapara), Narayani (Alambazar), Milan (Hiooghly), Jyoti (Chandernagore), Mini Sushma (Sheoraphuli), Sanskriti Lok Mancha (Burdwan), Queen (Budge Budge), Shankar (Habra), 89 Cinemas (Durgapur), Chitra (Asansol), Inox (Darjeeling), Urvashi (Siliguri), Navin (Malda), Norgay (Phuentsholing), Bhavani (Cooch Behar), Novelty (Kalimpong)

 APNE: Jyoti, Priya (4.15, 9.15), Navina (6.15), Star Theatre (3.55, 9), Inox (Forum; 10 am, 12.40 pm, 3.55 pm, 7.10 pm, 10.25 pm), Inox (City Centre; 10 am, 12.40 pm, 3.55 pm, 7.10 pm, 10.25 pm), 89 Cinemas (Swabhumi; 12.45 pm, 4 pm, 7.15 pm, 10.15 pm), Fame (Hiland Park; 4.05 pm, 7.10 pm), Jaya (2, 7), Ragini, Taswir Mahal, Kamal, Navbharat, Chandan, Parijat, Mrinalini, Gupta, Rathindra, Swapna (Chandernagore), 89 Cinemas (Durgapur), Chitra, Urvashi amp; Vishal (Siliguri), Denzong (Gangtok), Inox (Darjeeling)

 AWARAPAN (U/A): Paradise, Priya (10 am), Inox (Forum; 2.45 pm, 5.20 pm), Inox (City Centre; 5.25 pm, 10.25 pm), 89 Cinemas (Swabhumi; 1 pm, 5 pm), Fame (Hiland Park; 5.35 pm, 10.25 pm), Navina (3.30), Star Theatre (5.45), Jaya (11.45, 5.15), Ashoka (Behala; noon), Atindra, Sonali (noon amp; mat.), Lok San skriti Mancha (4 pm), 89 Cinemas (Durgapur), Manoj (Asansol; 12, 6, 9)

 BOMBAY TO GOA: Roxy (noon, even., night), Mitra (5.45, 8.45), Inox (Forum; 10.05 am, 7.55 pm), Inox (City Centre; 10 am), 89 Cinemas (Swabhumi; 10.05 am, 5.10 pm, 10.05 pm), 10.10 am, 5.05 pm), Jaya (11.45 am), Moonlight

 JHOOM BARABAR JHOOM: Fame (Hiland Park; 12.25 pm, 3 pm, 7.50 pm), Menoka (12.30, 3.15, 6.15, 9.15), Ashoka (5 pm), Shibani (Bagnan)

 LIFE IN A...METRO (A): 89 Cinemas (Swabhumi; 10.30 pm)

 LIFE MEIN KABHIE KABHIE: Chaplin (12.30 pm, 3 pm, 6 pm)

 MY FRIEND GANESHA: Roxy (3 pm), Inox (Forum; 10 am, 1.10 pm), Inox (City Centre; 10 am, 3.05 pm), 89 Cinemas (Swabhumi; 10 am, 12.20 pm), Fame (Hiland Park; 10 am, 12.45 pm)

 BENGALI

 ANURANAN: Priya (12.30, 7.15), Star Theatre (7 pm), Mitra (12.15, 3.15), Inox (Forum; 12.40 pm, 3.30 pm, 7.45 pm), Inox (City Centre; 3.30 pm, 7.50 pm), 89 Cinemas (Swabhumi; 2.40 pm, 5.35 pm), Fame (Hiland Park; 3.05 pm, 7.40 pm), Jaya (Lake Town; 2 pm, 7.30 pm), Geetanjali (Bolpur), Krishti (Memari), Sarama (Barasat)

 BANDHU: Minar, Bijoli, Chhabighar (2.45, 5.45, 8.30), Ellora, Mahua, Narendra, Bejoya, Baruipur Show House, Pushpasree (Kadamtolla), Mini Rathindra, Amala, Rupali

 CHAKRA: Aruna (1, 4, 7), Purna (3, 6, 9), Malancha (5 pm), Milan (Baruipur), Auro (Chinsurah)

 MAHAGURU: Prachi, Darpana, Bharati, Aleya, Padmasree, Pushpasree (Behala), Chetna, Sonali, Arati (Baguihati), Chhayabani, Shanti, Padma, Krishna (Baruipur), Maya




</TEXT>
</DOC>