<DOC>
<DOCNO>1070317_sports_story_7529543.utf8</DOCNO>
<TEXT>


The Telegraph - Calcutta : Sports

 SCORE CARD

South Africa

AB de Villiers

c Smits b Stelling

0

G. Smith

c Van Bunge b Borren

67

J. Kallis

not out

128

H. Gibbs

c van Bge b van Tst

72

M. Boucher

not out 

75

Extras (lb-2, w-8, nb-1)

11

Total (for 3 wkts in 40 ovs)

353

Fall of wickets: 1/0, 2/114, 3/219

Bowling: Stelling 8-1-43-1, Reekers 5-1-35-0, Ten Doeschate 7-0-58-0, De Leede 4-0-48-0, Borren 8-0-52-1, Van Bunge 4-0-56-0, Van Troost 4-0-59-1 




</TEXT>
</DOC>