<DOC>
<DOCNO>1070422_sports_story_7680185.utf8</DOCNO>
<TEXT>


The Telegraph - Calcutta : Sports

 SCORE CARD

Australia

M. Hayden

c amp;b Styris

103

A. Gilchrist

c Gillespie b Franklin

1

R. Ponting

c Taylor b Patel

66

M. Clarke

b Franklin

49

M. Hussey

c Styris b Franklin

37

A. Symonds

c Mason b Patel

11

S. Watson

not out

65

B. Hogg

not out

0

Extras: (lb-1, w-5, nb-10)

16

Total: (for 6 wkts in 50 overs)

348

Fall of wkts: 1/7, 2/144, 3/216, 4/233, 5/257, 6/334

Bowling: Mason 3-0-27-0, Franklin 8-0-74-3, Patel 10-0-48-2, Vettori 10-0-60-0, Styris 10-0-50-1, Gillespie 6-0-67-0, McMillan 3-0-21-0

New Zealand

P. Fulton

b Hogg

62

S. Fleming

c Ponting b Tait

12

R. Taylor

c Hussey b McGrath

3

S. Styris

c Hayden b McGrath

27

C. McMillan

lbw Tait

1

J. Franklin

b Watson

6

B. McCullum

c Hussey b Hogg

7

D. Vettori

c Symonds b Hogg

4

M. Gillespie

c McGrath b Hogg

2

M. Mason

c Gilchrist b Tait

0

J. Patel

not out

0

Extras (w-7, nb-2)

9

Total (all out in 25.5 overs)

133 

Fall of wkts: 1/21, 2/29, 3/77, 4/80, 5/89, 6/111, 7/117, 8/127, 9/133

Bowling: Bracken 4-0-27-0, Tait 6-0-32-3, McGrath 4-0-25-2, Hogg 6.5-1-29-4, Watson 5-0-20-1




</TEXT>
</DOC>