<DOC>
<DOCNO>1070422_sports_story_7680488.utf8</DOCNO>
<TEXT>


The Telegraph - Calcutta : Sports

 Easy win for Elmwood 

 HONKY DORY

 B. Chenoy-trained Elmwood easily won the Ghazab Trophy in Mumbai on Saturday. C.S. Jodha partnered the winner.

 RESULTS

 (With inter-state dividends)

 1. D.W. Reid Plate, Div-II: Vision Remains (C.Jodha) 1; Stubbs 2; The Rebel 3. Not run: Attia In Sunlight. Won by: 3/4; 2-1/4; (1-1.86). Win Rs 60; (P) 16; 124; 11; (Q) 947; (T) 3,418. Fav: The Rebel.

 2. Amazing Bay Trophy: Star Always (Rajendra) 1; Stud Of Gold 2; Sharp Memory 3. Won by: 7-1/2; 3-1/4; (1-12.31). Win Rs 12; (P) 10; 27; (Q) 32; (T) 146. Fav: Star Always.

 3. Secret Treasure Plate: Holiday Date (Neeraj) 1; Teaser 2; Golden Fort 3. Not run: Naval Academy. Won by: 4-1/2; Sh; (1-13.97). Win Rs 74; (P) 19; 20; 14; (Q) 278; (T) 1,313. Fav: Golden Fort.

 4. Al Marzouk Plate: Magical Music (Merchant) 1; Flo Nightingale 2; Benfica 3. Won by: Hd; 3-1/4; (2-9.24). Win Rs 120; (P) 46; 28; (Q) 448; (T) 4,732. Fav: Gold Biscuit.

 5. D. W. Reid Plate, Div-I: Medtias Pride (Belose) 1; Habit 2; Silver Girl 3. Won by: 1-1/4; 3-3/4; (1-0.94). Win Rs 41; (P) 15; 16; 12; (Q) 103; (T) 300. Fav: Silver Girl.

 6. Ghazab Trophy: Elmwood (C.Jodha) 1; Native Strategy 2; Celestrella 3. Won by: 1-1/4; 1-1/2; (1-11.98). Win Rs 51; (P) 17; 17; 16; (Q) 90; (T) 606. Fav: Escravos.

 7. Brijendra Plate: Silent Presence (Appu) 1; Cosmopolitan 2; World War Three 3. Won by: 2; 5; (1-25.89). Win Rs 49; (P) 16; 12; 31; (Q) 51; (T) 737. Fav: Alamshaara.

 Jackpot: Rs 31,406; (C) Rs 6,979.

 Treble: (i) Rs 1,937; (ii) Rs 818.




</TEXT>
</DOC>